<svg version="1.1"  xmlns="http://www.w3.org/2000/svg" xmlns:xlink="http://www.w3.org/1999/xlink" x="0px" y="0px"
	 width="446.5px" height="18.75px" viewBox="0 0 446.5 18.75" enable-background="new 0 0 446.5 18.75" xml:space="preserve">
<g>
	<path  d="M8.333,13.182c0,0,0.44-0.099,1.292-0.292c0.824-0.276,2.065-0.685,3.492-1.6c1.448-0.873,3.041-2.222,5.045-3.646
		c1.015-0.69,2.159-1.386,3.504-1.857c1.337-0.489,2.899-0.646,4.48-0.401c1.582,0.222,3.191,0.769,4.776,1.541
		c1.585,0.766,3.136,1.749,4.77,2.708c1.63,0.954,3.375,1.898,5.326,2.361c1.942,0.479,4.069,0.358,6.077-0.389
		c2.037-0.741,3.992-1.857,6.099-2.9c2.095-1.04,4.436-1.996,7.005-2.135c2.553-0.178,5.174,0.443,7.586,1.499
		c2.429,1.025,4.722,2.378,7.188,3.318c2.451,0.931,5.155,1.317,7.777,0.613c2.663-0.607,5.109-2.065,7.869-3.184
		c1.372-0.563,2.82-1.064,4.372-1.295c1.546-0.249,3.203-0.121,4.74,0.412c0.68,0.226,1.497,0.564,2.176,0.951
		c0.706,0.374,1.358,0.827,1.995,1.278c1.257,0.921,2.416,1.855,3.729,2.297c1.315,0.428,2.78,0.377,4.241,0.068l0.274-0.053
		c0.028-0.004,0.132-0.027,0.098-0.017l0.142-0.042l0.565-0.167l0.563-0.169l0.492-0.209c0.328-0.126,0.658-0.278,0.986-0.469
		c0.332-0.167,0.656-0.356,0.969-0.572c1.273-0.819,2.44-1.867,3.707-2.906c1.252-1.038,2.716-2.063,4.444-2.57
		c1.734-0.519,3.545-0.461,5.28-0.073c0.803,0.218,1.586,0.339,2.415,0.681c0.821,0.297,1.655,0.59,2.406,0.952
		c3.096,1.359,5.993,3.043,9.108,3.946c0.383,0.144,0.783,0.173,1.174,0.266l1.123,0.23l1.271,0.073
		c0.442,0.047,0.777-0.043,1.172-0.053c1.542-0.139,3.16-0.565,4.712-1.159c3.136-1.166,6.195-2.905,9.751-3.8
		c1.762-0.433,3.672-0.662,5.545-0.318c0.476,0.027,0.92,0.211,1.38,0.316l0.685,0.188c0.047,0.007,0.224,0.087,0.22,0.085
		l0.15,0.066l0.302,0.131c0.379,0.133,0.871,0.466,1.305,0.728c0.378,0.293,0.779,0.581,1.107,0.893
		c0.7,0.616,1.296,1.232,1.934,1.733c0.312,0.265,0.642,0.479,0.975,0.678l0.124,0.078c0.049,0.033-0.008,0.005,0.089,0.05
		l0.3,0.141l0.6,0.281c1.467,0.632,3.083,0.899,4.73,0.782c3.313-0.246,6.516-1.827,9.835-3.193
		c0.835-0.344,1.681-0.686,2.556-0.983l0.655-0.225c0.316-0.094,0.461-0.124,0.7-0.189c0.443-0.105,0.843-0.244,1.323-0.323
		c1.954-0.396,3.862-0.343,5.743-0.011c3.76,0.687,6.995,2.476,10.329,3.363c1.664,0.449,3.354,0.72,5.047,0.626l0.268-0.002
		l0.336-0.037l0.672-0.074c0.383-0.103,0.742-0.137,1.146-0.278c0.797-0.216,1.575-0.57,2.354-0.933
		c1.56-0.759,3.091-1.72,4.803-2.519c1.696-0.8,3.64-1.409,5.64-1.346c0.266,0.011,0.456-0.001,0.782,0.03l0.67,0.085
		c0.433,0.039,0.919,0.144,1.406,0.256c0.971,0.213,1.845,0.509,2.725,0.846c1.746,0.672,3.373,1.509,4.975,2.3
		c1.601,0.792,3.184,1.548,4.808,2.072c1.596,0.529,3.338,0.793,4.875,0.684c3.37-0.222,6.003-2.589,9.2-4.434
		c1.588-0.926,3.467-1.653,5.443-1.702l0.184-0.01c0.047-0.007,0.267,0.002,0.251,0.006l0.33,0.029
		c0.231,0.029,0.414,0.014,0.686,0.081c0.529,0.115,1.063,0.244,1.493,0.437c0.919,0.347,1.718,0.833,2.491,1.315
		c1.522,0.985,2.903,2.029,4.361,2.839c1.451,0.813,2.989,1.339,4.568,1.418c0.395,0.018,0.789,0.045,1.185-0.015l0.593-0.053
		l0.148-0.013c-0.013,0.006,0.088-0.016,0.127-0.023l0.319-0.062l1.275-0.247c0.421-0.086,0.806-0.206,1.21-0.306
		c1.604-0.414,3.218-0.989,4.809-1.59c3.183-1.186,6.403-2.603,9.939-3.057c1.754-0.271,3.568-0.158,5.302,0.17l1.29,0.308
		c0.427,0.109,0.828,0.291,1.242,0.434c0.84,0.27,1.601,0.685,2.373,1.075c1.516,0.788,2.879,1.618,4.338,2.205
		c1.442,0.605,2.88,0.865,4.291,0.536c1.416-0.345,2.805-1.099,4.148-1.923c0.688-0.421,1.374-0.84,2.058-1.258
		c0.733-0.403,1.485-0.792,2.257-1.104c1.539-0.638,3.266-1.021,4.976-0.852c1.708,0.145,3.293,0.753,4.709,1.492
		c2.836,1.453,5.221,3.585,7.811,4.667c1.329,0.471,2.688,0.828,4.082,0.686c0.346,0.017,0.693-0.065,1.04-0.12
		c0.346-0.063,0.692-0.106,1.037-0.182c0.687-0.203,1.376-0.36,2.054-0.595c0.67-0.243,1.372-0.466,2.007-0.721
		c0.662-0.282,1.349-0.535,1.981-0.837c1.289-0.608,2.567-1.21,3.833-1.807c2.555-1.196,5.214-2.291,8.019-2.587l1.048-0.095
		c0.107-0.007,0.128-0.017,0.307-0.022l0.251,0.016l0.502,0.032c0.669,0.051,1.32,0.041,2.021,0.239
		c0.688,0.153,1.385,0.284,2,0.549c0.637,0.228,1.27,0.457,1.854,0.761c2.39,1.125,4.512,2.493,6.754,3.371l0.838,0.327
		c0.202,0.104,0.567,0.156,0.841,0.236l0.883,0.219c0.29,0.058,0.565,0.057,0.847,0.091c0.281,0.02,0.558,0.065,0.841,0.067
		l0.855-0.043c0.572,0.005,1.128-0.143,1.687-0.229c2.227-0.456,4.269-1.456,6.277-2.343c2.006-0.899,4.021-1.73,6.093-2.085
		c2.062-0.354,4.153-0.253,5.994,0.369c1.852,0.542,3.473,1.493,5.004,2.295c1.532,0.825,3.002,1.593,4.478,2.105
		c1.471,0.518,2.965,0.712,4.333,0.517c1.364-0.192,2.589-0.746,3.618-1.375c2.057-1.296,3.48-2.911,5.038-3.64
		c1.522-0.789,2.879-0.837,3.739-0.85c0.873,0.02,1.322,0.064,1.322,0.064s-0.451-0.037-1.322-0.042
		c-0.858,0.027-2.208,0.1-3.699,0.906c-1.527,0.746-2.907,2.371-4.976,3.726c-1.043,0.661-2.263,1.24-3.683,1.468
		c-1.412,0.227-2.965,0.049-4.477-0.456c-1.519-0.498-3.02-1.251-4.568-2.052c-1.562-0.784-3.139-1.676-4.955-2.175
		c-1.783-0.569-3.769-0.626-5.736-0.257c-1.979,0.374-3.922,1.208-5.903,2.138c-1.985,0.915-4.043,1.977-6.398,2.504
		c-0.593,0.104-1.181,0.268-1.799,0.276l-0.924,0.061c-0.312,0.003-0.631-0.039-0.948-0.059c-0.314-0.031-0.646-0.038-0.949-0.093
		l-0.886-0.205c-0.311-0.085-0.563-0.1-0.924-0.243l-0.886-0.328c-2.373-0.878-4.541-2.261-6.847-3.312
		c-0.569-0.29-1.165-0.496-1.763-0.705c-0.595-0.251-1.2-0.348-1.805-0.483c-0.579-0.178-1.271-0.168-1.935-0.212l-0.502-0.027
		l-0.251-0.014c0.011,0.01-0.136,0.017-0.195,0.026l-0.967,0.099c-5.23,0.586-9.926,4.223-15.558,6.054
		c-0.697,0.249-1.438,0.429-2.159,0.646c-0.371,0.086-0.757,0.141-1.136,0.212c-0.382,0.064-0.759,0.154-1.158,0.145
		c-1.582,0.172-3.19-0.214-4.685-0.742c-2.997-1.257-5.254-3.301-7.962-4.64c-1.331-0.679-2.729-1.183-4.161-1.29
		c-1.431-0.129-2.881,0.198-4.267,0.786c-2.766,1.062-5.179,3.549-8.68,4.451c-0.882,0.203-1.822,0.255-2.728,0.137
		c-0.915-0.104-1.752-0.401-2.565-0.706c-1.6-0.638-3.073-1.531-4.506-2.266c-0.712-0.355-1.414-0.74-2.171-0.976
		c-0.375-0.127-0.739-0.295-1.122-0.39l-1.153-0.271c-1.55-0.283-3.146-0.389-4.74-0.135c-6.414,0.856-12.385,5.307-19.925,5.441
		c-1.903-0.086-3.75-0.732-5.348-1.625c-1.607-0.889-3.035-1.966-4.471-2.884c-0.718-0.445-1.438-0.875-2.173-1.145
		c-0.38-0.17-0.709-0.228-1.038-0.32c-0.155-0.054-0.422-0.046-0.628-0.073l-0.33-0.027c-0.125-0.009-0.016-0.005-0.079,0
		l-0.147,0.01c-1.576,0.047-3.11,0.618-4.577,1.477c-1.476,0.836-2.909,1.903-4.509,2.835c-0.804,0.462-1.646,0.902-2.561,1.224
		c-0.44,0.175-0.931,0.309-1.439,0.421c-0.517,0.135-0.905,0.139-1.365,0.214c-4.036,0.322-7.572-1.331-10.783-2.905
		c-3.231-1.593-6.368-3.21-9.731-3.284c-1.623-0.048-3.218,0.441-4.77,1.176c-1.559,0.725-3.087,1.696-4.771,2.517
		c-0.854,0.396-1.727,0.789-2.673,1.046c-0.451,0.155-0.993,0.231-1.486,0.34l-0.672,0.072l-0.336,0.036
		c-0.218,0.02-0.267,0.007-0.408,0.011c-1.917,0.099-3.834-0.216-5.638-0.71c-3.621-1-6.811-2.758-10.156-3.358
		c-1.647-0.306-3.39-0.335-4.957-0.026c-0.405,0.059-0.859,0.209-1.287,0.31l-0.598,0.157l-0.615,0.209
		c-0.82,0.275-1.636,0.602-2.454,0.936c-3.262,1.313-6.592,3.006-10.428,3.298c-1.895,0.135-3.871-0.184-5.644-0.969l-0.6-0.283
		l-0.299-0.142c-0.003-0.001-0.16-0.078-0.202-0.108l-0.157-0.098c-0.425-0.254-0.831-0.526-1.194-0.833
		c-0.745-0.593-1.376-1.25-1.996-1.797c-0.309-0.295-0.629-0.516-0.94-0.766c-0.325-0.177-0.538-0.388-0.989-0.556l-0.301-0.132
		l-0.151-0.066c-0.105-0.042-0.024-0.02-0.086-0.034l-0.584-0.157c-0.393-0.087-0.77-0.258-1.175-0.275
		c-1.584-0.301-3.227-0.113-4.827,0.273c-3.225,0.788-6.269,2.482-9.563,3.708c-1.656,0.621-3.375,1.093-5.227,1.251
		c-0.977,0.106-1.804,0.023-2.648-0.028c-0.555-0.093-0.909-0.177-1.372-0.268c-0.432-0.103-0.886-0.147-1.297-0.3
		c-3.397-1.004-6.341-2.746-9.317-4.055c-1.496-0.678-2.886-1.179-4.543-1.56c-1.456-0.339-3.019-0.402-4.413,0.01
		c-2.864,0.783-4.958,3.444-7.781,5.208c-0.345,0.232-0.708,0.44-1.086,0.627c-0.36,0.205-0.75,0.382-1.161,0.536l-0.604,0.241
		l-0.57,0.166l-0.567,0.161l-0.142,0.04c-0.131,0.032-0.124,0.025-0.192,0.04l-0.305,0.056c-1.6,0.323-3.359,0.394-5.003-0.161
		c-1.642-0.581-2.898-1.653-4.092-2.535c-0.604-0.437-1.202-0.861-1.835-1.202c-0.639-0.365-1.221-0.62-1.965-0.879
		c-1.305-0.461-2.712-0.596-4.097-0.387c-1.388,0.192-2.747,0.641-4.073,1.172c-1.329,0.532-2.631,1.15-3.956,1.729
		c-0.66,0.29-1.334,0.565-2.028,0.826l-1.025,0.344l-1.068,0.267c-2.86,0.743-5.888,0.278-8.45-0.734
		c-2.585-1.018-4.864-2.396-7.199-3.403c-0.578-0.27-1.174-0.464-1.756-0.693c-0.596-0.159-1.188-0.397-1.775-0.491l-0.88-0.181
		c-0.297-0.054-0.62-0.069-0.927-0.105c-0.296-0.02-0.653-0.088-0.896-0.067l-0.891,0.028c-2.378,0.087-4.609,0.94-6.692,1.933
		c-2.092,0.991-4.114,2.101-6.225,2.828c-2.126,0.754-4.423,0.846-6.459,0.304c-2.048-0.525-3.816-1.529-5.441-2.516
		c-1.628-0.994-3.149-1.994-4.694-2.772c-1.533-0.782-3.102-1.341-4.639-1.584c-1.53-0.264-3.038-0.139-4.35,0.316
		c-1.319,0.437-2.459,1.102-3.478,1.771c-2.016,1.381-3.639,2.709-5.107,3.561c-1.447,0.894-2.703,1.285-3.533,1.546
		C8.775,13.09,8.333,13.182,8.333,13.182z"/>
</g>
</svg>
