<?xml version="1.0" encoding="utf-8"?>
<!-- Generator: Adobe Illustrator 19.0.0, SVG Export Plug-In . SVG Version: 6.00 Build 0)  -->
<svg version="1.1" id="Layer_1" xmlns="http://www.w3.org/2000/svg" xmlns:xlink="http://www.w3.org/1999/xlink" x="0px" y="0px"
	 viewBox="21.5 16.1 107.1 116.1" enable-background="new 21.5 16.1 107.1 116.1" xml:space="preserve">
<g>
	<path fill="#FFFFFF" d="M113,107.3c10-10,15.5-23.3,15.5-37.6c0-29.6-24-53.7-53.5-53.7S21.5,40.2,21.5,69.8
		c0,29.5,24,53.5,53.5,53.5h1.6V73.2l35.3,35.3L113,107.3z"/>
	<path fill="#C1E8E6" d="M115.1,115.5l-33-32.8c-0.2-0.4-0.7-0.6-1.1-0.6h-0.4c-0.9,0-1.6,0.7-1.6,1.6v46.9c0,0.9,0.7,1.6,1.6,1.6
		c13.1,0,25.4-5.1,34.4-14.4c0.4-0.4,0.5-0.8,0.5-1.3C115.5,116.1,115.3,115.7,115.1,115.5z"/>
</g>
<g>
	<path fill="#072946" d="M98.5,53.1c-2.1,0-3.9,1.7-3.9,3.9c0,2.1,1.7,3.9,3.9,3.9s3.9-1.7,3.9-3.9C102.4,54.8,100.6,53.1,98.5,53.1
		z M98.5,57.5c-0.3,0-0.6-0.3-0.6-0.6c0-0.3,0.3-0.6,0.6-0.6c0.3,0,0.6,0.3,0.6,0.6C99.1,57.2,98.8,57.5,98.5,57.5z"/>
	<path fill="#072946" d="M67.7,26.8c-2.1,0-3.9,1.7-3.9,3.9c0,2.1,1.7,3.9,3.9,3.9c2.1,0,3.9-1.7,3.9-3.9
		C71.5,28.5,69.8,26.8,67.7,26.8z M67.7,31.2c-0.3,0-0.6-0.3-0.6-0.6c0-0.3,0.3-0.6,0.6-0.6c0.3,0,0.6,0.3,0.6,0.6
		C68.3,31,68,31.2,67.7,31.2z"/>
	<path fill="#072946" d="M67.7,96.2c2.1,0,3.9-1.7,3.9-3.9c0,0,0,0,0-0.1c0,0,0,0,0-0.1c0-2.1-1.7-3.9-3.9-3.9
		c-2.1,0-3.9,1.7-3.9,3.9c0,0,0,0,0,0.1c0,0,0,0,0,0.1C63.8,94.4,65.6,96.2,67.7,96.2z M67.7,91.7c0.3,0,0.5,0.2,0.6,0.5
		c0,0.3-0.3,0.6-0.6,0.6c-0.3,0-0.6-0.3-0.6-0.6C67.1,92,67.4,91.7,67.7,91.7z"/>
	<path fill="#072946" d="M56.4,104.5c2.1,0,3.9-1.7,3.9-3.9s-1.7-3.9-3.9-3.9s-3.9,1.7-3.9,3.9S54.3,104.5,56.4,104.5z M56.4,100
		c0.3,0,0.6,0.3,0.6,0.6c0,0.3-0.3,0.6-0.6,0.6c-0.3,0-0.6-0.3-0.6-0.6C55.8,100.3,56.1,100,56.4,100z"/>
	<path fill="#072946" d="M87.1,116.8c2.1,0,3.9-1.7,3.9-3.9c0-2.1-1.7-3.9-3.9-3.9c-2.1,0-3.9,1.7-3.9,3.9
		C83.3,115.1,85,116.8,87.1,116.8z M87.1,112.4c0.3,0,0.5,0.2,0.6,0.5c0,0.3-0.3,0.5-0.6,0.5c-0.3,0-0.5-0.2-0.6-0.5
		C86.6,112.6,86.8,112.4,87.1,112.4z"/>
	<path fill="#072946" d="M51.4,85.1c2.8,0,5.1-2.3,5.1-5.1c0,0,0,0,0-0.1s0,0,0-0.1c0-2.8-2.3-5.1-5.1-5.1c-2.8,0-5.1,2.3-5.1,5.1
		c0,0,0,0,0,0.1s0,0,0,0.1C46.3,82.9,48.6,85.1,51.4,85.1z M51.4,78.3c1,0,1.8,0.8,1.8,1.8c0,1-0.8,1.8-1.8,1.8
		c-1,0-1.8-0.8-1.8-1.8C49.6,79.1,50.4,78.3,51.4,78.3z"/>
	<path fill="#072946" d="M33.2,79.6l0,0.1c0.4,1.9,1.8,3.1,3.6,3.1c0.1,0,0.1,0,0.2,0c0.1,0,0.1,0,0.2,0c1.8,0,3.3-1.3,3.6-3.3
		c0-0.1,0-0.1,0-0.2c0-0.1,0.1-0.3,0.1-0.5c0-2.1-1.7-3.9-3.9-3.9c0,0,0,0-0.1,0c0,0,0,0-0.1,0c-2.1,0-3.9,1.7-3.9,3.9
		c0,0.2,0,0.3,0.1,0.5C33.2,79.5,33.2,79.5,33.2,79.6z M37.1,78.3c0.3,0,0.6,0.3,0.6,0.6c0,0.3-0.3,0.6-0.6,0.6
		c-0.3,0-0.6-0.3-0.6-0.6C36.5,78.6,36.8,78.3,37.1,78.3z"/>
	<path fill="#072946" d="M38.7,92.2C38.7,92.2,38.7,92.2,38.7,92.2c0,0.1,0,0.1,0,0.1c0,2.1,1.8,3.9,3.9,3.9c2.1,0,3.9-1.7,3.9-3.9
		c0,0,0,0,0-0.1c0,0,0,0,0-0.1c0-2.1-1.7-3.9-3.9-3.9C40.5,88.3,38.7,90.1,38.7,92.2z M42.6,91.7c0.3,0,0.5,0.2,0.6,0.5
		c0,0.3-0.3,0.6-0.6,0.6c-0.3,0-0.6-0.3-0.6-0.6C42,92,42.3,91.7,42.6,91.7z"/>
	<path fill="#072946" d="M46.5,50.6c0-2.1-1.7-3.9-3.9-3.9c-2.1,0-3.9,1.7-3.9,3.9c0,2.1,1.8,3.9,3.9,3.9
		C44.7,54.4,46.5,52.7,46.5,50.6z M42.6,51c-0.3,0-0.5-0.2-0.6-0.5c0-0.3,0.3-0.5,0.6-0.5c0.3,0,0.5,0.2,0.6,0.5
		C43.1,50.8,42.9,51,42.6,51z"/>
	<path fill="#072946" d="M113,107.3c10-10,15.5-23.3,15.5-37.6c0-29.6-24-53.7-53.5-53.7c-29.5,0-53.5,24.1-53.5,53.7
		c0,29.5,24,53.5,53.5,53.5h1.6V73.2l35.3,35.3L113,107.3z M73.3,114.8c-0.1,0-0.2,0-0.4,0c-0.3,0-0.7-0.1-1.1-0.1
		c-0.3,0-0.5,0-0.8-0.1c-0.3,0-0.7-0.1-1-0.1c0,0,0,0-0.1,0c-0.4-0.1-0.9-0.1-1.4-0.2c-0.1,0-0.1,0-0.2,0c-0.4-0.1-0.7-0.1-1.1-0.1
		c-0.3-0.1-0.6-0.1-0.9-0.1c-0.3,0-0.5-0.1-0.8-0.1l-4.3-1.1l-3.7-1.3v0l-0.2-0.1c-0.1,0-0.1-0.1-0.2-0.1c-0.4-0.2-0.7-0.3-1.1-0.5
		c-0.3-0.1-0.6-0.3-0.9-0.4c-0.7-0.3-1.3-0.6-2-1c-0.2-0.1-0.4-0.2-0.6-0.3c0,0-0.1,0-0.1-0.1c-0.2-0.1-0.3-0.2-0.5-0.3c0,0,0,0,0,0
		c-0.7-0.5-1.6-1-2.3-1.4l-1.5-1.1c-0.7-0.5-1.3-0.9-1.9-1.5c0,0,0,0,0,0c-0.2-0.2-0.5-0.5-0.7-0.7c-0.2-0.2-0.4-0.3-0.6-0.6
		c0,0-0.1-0.1-0.1-0.1c-0.2-0.2-0.5-0.5-0.7-0.7c-0.1-0.1-0.2-0.2-0.3-0.3l29.4-29.3V114.8z M70.5,71.3l-28.9,28.8
		c-0.1-0.1-0.2-0.2-0.3-0.3c-0.2-0.3-0.4-0.5-0.7-0.7c-0.3-0.3-0.8-0.8-1.2-1.3c-0.1-0.2-0.2-0.3-0.3-0.5c-0.2-0.2-0.3-0.4-0.5-0.6
		c-0.2-0.3-0.5-0.7-0.7-1l0,0c0,0,0,0,0-0.1c-0.3-0.4-0.6-0.8-0.8-1.1c0,0-0.1-0.1-0.1-0.1l-1.4-2.5c-0.1-0.2-0.2-0.4-0.3-0.6
		c-0.1-0.2-0.3-0.4-0.4-0.6c-1.3-2.5-2.4-5.1-3.2-7.8c-0.1-0.5-0.2-1-0.4-1.3c0,0,0,0,0,0c0,0,0,0,0,0c-0.2-1-0.5-1.9-0.7-2.7
		c-0.1-0.3-0.1-0.5-0.1-0.8c0-0.3-0.1-0.6-0.1-0.9c0,0,0,0,0,0c-0.1-0.9-0.2-1.6-0.3-2.4c0-0.1,0-0.2,0-0.2c0-0.3,0-0.6-0.1-0.9
		c0-0.2,0-0.5-0.1-0.7c0,0,0-0.1,0-0.1c0-0.3,0-0.7-0.1-1c0-0.1,0-0.3,0-0.4H70.5z M29.8,68.1c0-0.5,0-1,0.1-1.5
		c0-0.3,0-0.5,0.1-0.8c0-0.3,0.1-0.7,0.1-1c0.1-0.4,0.1-0.9,0.2-1.3c0.1-0.4,0.1-0.9,0.2-1.3c0-0.2,0.1-0.4,0.1-0.6
		c0.1-0.4,0.1-0.7,0.3-1.1c0.1-0.5,0.2-0.9,0.4-1.4c0.1-0.5,0.2-0.9,0.4-1.4c0.1-0.2,0.1-0.5,0.2-0.8c0.1-0.3,0.1-0.5,0.2-0.7
		c0.3-1,0.7-2.1,1.2-3.1c0.1-0.2,0.1-0.3,0.2-0.5c0.1-0.2,0.1-0.3,0.2-0.5c0.6-1.3,1.2-2.6,1.9-3.8c0.1-0.2,0.2-0.3,0.3-0.5
		c0.1-0.2,0.2-0.3,0.3-0.4l0.1-0.1c0.5-0.9,1-1.7,1.6-2.6c0.2-0.2,0.3-0.5,0.5-0.7c0.1-0.2,0.3-0.4,0.5-0.7c0.2-0.4,0.5-0.7,0.8-1.1
		c0.3-0.4,0.6-0.7,0.8-1.1c0.2-0.2,0.4-0.4,0.6-0.6c0.2-0.2,0.4-0.4,0.6-0.7c0.2-0.2,0.5-0.5,0.7-0.8c0.1-0.1,0.2-0.2,0.3-0.3
		l29.2,29.3H29.8z M73.4,65.4l-29-29c0.1-0.1,0.1-0.1,0.2-0.2c0.2-0.2,0.4-0.4,0.6-0.5c0.2-0.2,0.5-0.4,0.7-0.6
		c0.2-0.2,0.5-0.4,0.7-0.6c0.6-0.5,1.3-0.9,2-1.4l1.4-1.1c0.7-0.5,1.4-0.9,2.2-1.3c0.3-0.1,0.5-0.3,0.8-0.4c0.2-0.1,0.5-0.3,0.7-0.4
		c0.9-0.5,1.9-0.9,2.8-1.3c0.2-0.1,0.4-0.2,0.6-0.3c0.2-0.1,0.3-0.2,0.5-0.2c1.4-0.6,2.7-1.1,4-1.4c0.2-0.1,0.3-0.1,0.4-0.1
		c0.2,0,0.3-0.1,0.5-0.1c1.1-0.3,2.1-0.6,3.2-0.8c0.2-0.1,0.5-0.1,0.7-0.1c0.3,0,0.6-0.1,0.8-0.1c0.5-0.1,1-0.2,1.4-0.2
		c0.4-0.1,0.9-0.2,1.4-0.2c0.9-0.2,1.9-0.1,2.8-0.2c0.1,0,0.3,0,0.4,0V65.4z M76.6,65.1V24.6c0.1,0,0.2,0,0.3,0c0.4,0,0.8,0,1.2,0
		c0.1,0,0.1,0,0.2,0c0.3,0,0.6,0,0.8,0.1c0.2,0,0.4,0,0.5,0c0,0,0.1,0,0.1,0c0.5,0.1,0.9,0.1,1.4,0.2c0.5,0.1,1,0.2,1.4,0.2
		c0.3,0.1,0.6,0.1,0.8,0.1c0.2,0,0.5,0.1,0.8,0.1c1.2,0.2,2.4,0.5,3.4,0.8c0.2,0.1,0.3,0.1,0.5,0.1c0.1,0,0.2,0.1,0.3,0.1l0.1,0
		c0.5,0.1,1.1,0.3,1.6,0.5c0.2,0.1,0.4,0.1,0.6,0.2c0.6,0.2,1.2,0.5,1.9,0.8c0.2,0.1,0.3,0.1,0.5,0.2c0.2,0.1,0.4,0.2,0.6,0.3
		c0.7,0.3,1.3,0.6,2,0.9c0.2,0.1,0.5,0.2,0.7,0.4c0.2,0.1,0.5,0.3,0.7,0.4c0.3,0.2,0.5,0.3,0.7,0.4c0.4,0.2,0.8,0.5,1.2,0.7
		c0.4,0.2,0.8,0.5,1.2,0.7c0.4,0.2,0.9,0.6,1.3,0.9c0.4,0.4,0.8,0.7,1.2,1c0.3,0.2,0.6,0.4,0.8,0.6c0.4,0.4,0.9,0.9,1.3,1.2
		c0.2,0.2,0.4,0.4,0.6,0.6c0.1,0.1,0.1,0.1,0.2,0.2L76.6,65.1z M107.8,38.9C107.8,38.9,107.8,38.9,107.8,38.9
		c0.3,0.4,0.6,0.6,0.8,0.8c0.2,0.3,0.4,0.5,0.6,0.7c0.2,0.2,0.4,0.4,0.6,0.6c0.6,0.7,1.2,1.4,1.7,2.1c0.1,0.2,0.2,0.3,0.3,0.4
		c0.2,0.3,0.4,0.5,0.6,0.9c0.5,0.6,0.8,1.2,1.2,1.9c0.2,0.3,0.4,0.6,0.6,0.9c0.1,0.3,0.2,0.5,0.3,0.6c0.1,0.1,0.1,0.1,0.2,0.2
		c0.7,1.2,1.3,2.5,1.9,3.9c0.2,0.3,0.3,0.6,0.4,1c0.2,0.5,0.4,1,0.5,1.5c0.2,0.5,0.4,1,0.6,1.5c0.2,0.6,0.3,1,0.5,1.6
		c0.1,0.4,0.2,0.8,0.4,1.3c0.1,0.5,0.2,0.9,0.4,1.3l0.4,1.8c0.1,1,0.2,1.8,0.4,2.6c0,0.3,0,0.7,0.1,1c0,0.3,0.1,0.6,0.1,1
		c0.1,0.5,0.1,1,0.1,1.5H78.6L107.8,38.9z M109.8,98.6c-0.2,0.2-0.4,0.5-0.6,0.7c-0.2,0.3-0.5,0.6-0.8,0.8l-29-28.8h40.6
		c0,0.1,0,0.2,0,0.3c0,0.3-0.1,0.7-0.1,1c0,0.6,0,1.2-0.1,1.7c-0.1,1-0.2,1.8-0.4,2.6c-0.1,0.3-0.1,0.6-0.1,0.9
		c0,0.3-0.1,0.5-0.1,0.8l-0.7,2.8c-0.1,0.2-0.1,0.4-0.2,0.6c-0.1,0.2-0.1,0.4-0.2,0.7c-0.8,2.7-1.9,5.4-3.2,7.8
		c-0.1,0.2-0.3,0.4-0.4,0.6c-0.1,0.2-0.2,0.4-0.4,0.6l-1.5,2.5c-0.2,0.4-0.5,0.9-0.9,1.4c-0.5,0.7-0.9,1.4-1.5,2.1
		C110.2,98.1,110,98.4,109.8,98.6z M111.6,101.6c0.2-0.3,0.5-0.6,0.7-0.8c0.2-0.3,0.5-0.6,0.8-0.9c0.2-0.4,0.5-0.7,0.7-1
		c0.2-0.3,0.5-0.7,0.8-1.1c0.2-0.3,0.4-0.6,0.6-0.9c0.2-0.3,0.4-0.6,0.6-1c0.2-0.3,0.4-0.7,0.6-1c0.2-0.4,0.4-0.7,0.6-1.1l1.1-1.8
		c0.2-0.4,0.4-0.8,0.6-1.2c0.2-0.4,0.4-0.8,0.5-1.2c0.1-0.3,0.3-0.6,0.4-0.9c0.2-0.3,0.3-0.7,0.4-1c0.3-0.8,0.6-1.5,0.9-2.5
		c0.1-0.5,0.3-1.2,0.6-1.9c0.1-0.4,0.2-0.9,0.3-1.4c0.1-0.4,0.2-0.9,0.3-1.2c0.3-0.6,0.4-1.3,0.5-1.9c0.2-0.9,0.3-1.9,0.5-2.8l0-0.2
		c0.1-0.5,0.3-1.1,0.3-1.7c0-0.5,0-1.1,0.1-1.6c0-0.6,0.1-1.2,0.1-1.9v-2.2c-0.3-13-5.7-24.7-14.2-33.2C100.7,26.9,89,21.6,76,21.3
		h-2.1c-26,0.6-46.8,21.4-47.4,47.3v0.1v2.1v0.1c0,0.2,0,0.4,0,0.6c0.1,3.5,0.6,6.9,1.5,10.2c2,7.9,5.9,15.1,11.6,21.4l1.7,1.7
		c0.8,0.8,1.7,1.7,2.6,2.4c0.3,0.3,0.6,0.5,0.9,0.7c0.2,0.1,0.3,0.2,0.5,0.4c0.4,0.3,0.8,0.6,1.2,0.9c0.4,0.3,0.8,0.6,1.2,0.9
		c0.3,0.2,0.6,0.3,0.9,0.5c0.3,0.1,0.5,0.3,0.8,0.5c0.4,0.2,0.8,0.5,1.2,0.7c0.4,0.2,0.8,0.5,1.3,0.8c0.3,0.1,0.6,0.3,0.9,0.4
		c0.3,0.2,0.6,0.3,0.9,0.4c0.4,0.2,0.8,0.4,1.2,0.5c0.4,0.2,0.8,0.4,1.2,0.5c0.3,0.1,0.6,0.2,1,0.4c0.3,0.1,0.7,0.2,1,0.4
		c0.4,0.1,0.8,0.3,1.2,0.4c0.4,0.2,0.8,0.3,1.2,0.4c0.4,0.1,0.7,0.2,1.1,0.3c0.3,0.1,0.6,0.2,1,0.3c0.9,0.3,1.7,0.5,2.5,0.6l4.7,0.7
		c0.2,0,0.4,0.1,0.6,0.1c0.5,0.1,1,0.1,1.6,0.4l0.2,0c0.3,0,0.6,0,0.9,0.1c0.1,0,0.3,0,0.4,0v1.5c-18.4-0.6-34.4-11.4-42.7-26.7
		c-3.7-7-5.9-15-5.9-23.4c0-27.8,22.6-50.4,50.4-50.4c13.9,0,26.4,5.6,35.5,14.7c9.1,9.1,14.7,21.7,14.7,35.5
		c0,12.8-4.8,24.9-13.4,34.2l-1.2-1.2C111,102.4,111.3,102,111.6,101.6z"/>
	<path fill="#072946" d="M63.1,36.3c-2.1,0-3.9,1.7-3.9,3.9c0,0,0,0,0,0.1s0,0,0,0.1c0,2.1,1.7,3.9,3.9,3.9c2.1,0,3.9-1.7,3.9-3.9
		c0,0,0,0,0-0.1c0,0,0,0,0-0.1C67,38,65.2,36.3,63.1,36.3z M63.1,40.8c-0.3,0-0.6-0.3-0.6-0.6c0-0.3,0.3-0.6,0.6-0.6
		c0.1,0,0.2,0,0.2,0c0,0,0,0,0,0c0.2,0.1,0.3,0.3,0.3,0.5C63.7,40.6,63.4,40.8,63.1,40.8z"/>
	<path fill="#072946" d="M47.2,57.6c-2.1,0-3.9,1.7-3.9,3.9s1.7,3.9,3.9,3.9c2.1,0,3.9-1.7,3.9-3.9S49.3,57.6,47.2,57.6z M47.2,61.9
		c-0.3,0-0.5-0.2-0.6-0.5c0-0.3,0.3-0.5,0.6-0.5c0.3,0,0.5,0.2,0.6,0.5C47.7,61.7,47.5,61.9,47.2,61.9z"/>
	<path fill="#072946" d="M62.5,63.6c0-2.1-1.7-3.9-3.9-3.9c-2.1,0-3.9,1.7-3.9,3.9c0,0,0,0,0,0.1c0,0,0,0,0,0.1
		c0,2.1,1.7,3.9,3.9,3.9c2.1,0,3.9-1.7,3.9-3.9C62.5,63.7,62.5,63.7,62.5,63.6C62.5,63.7,62.5,63.7,62.5,63.6z M58.7,64.2
		c-0.3,0-0.6-0.3-0.6-0.6c0-0.3,0.3-0.6,0.6-0.6s0.6,0.3,0.6,0.6C59.3,64,59,64.2,58.7,64.2z"/>
	<path fill="#072946" d="M82.3,46.7c-2.1,0-3.9,1.7-3.9,3.9s1.7,3.9,3.9,3.9c2.1,0,3.9-1.7,3.9-3.9C86.2,48.4,84.5,46.7,82.3,46.7z
		 M82.3,51.1c-0.3,0-0.6-0.3-0.6-0.6c0-0.3,0.3-0.6,0.6-0.6c0.3,0,0.6,0.3,0.6,0.6C82.9,50.9,82.6,51.1,82.3,51.1z"/>
	<path fill="#072946" d="M110.2,49c0-2.1-1.7-3.9-3.9-3.9c-2.1,0-3.9,1.7-3.9,3.9c0,2.2,1.7,3.9,3.9,3.9
		C108.4,52.9,110.2,51.1,110.2,49z M106.1,49.5c-0.2-0.1-0.3-0.3-0.3-0.5c0-0.2,0.1-0.4,0.3-0.5c0.1,0,0.2-0.1,0.2-0.1
		c0.3,0,0.6,0.3,0.6,0.6c0,0.3-0.3,0.6-0.6,0.6C106.2,49.6,106.2,49.6,106.1,49.5C106.1,49.5,106.1,49.5,106.1,49.5z"/>
	<path fill="#072946" d="M116.5,80.1c0-2.1-1.7-3.9-3.9-3.9s-3.9,1.7-3.9,3.9c0,2.1,1.7,3.9,3.9,3.9S116.5,82.2,116.5,80.1z
		 M112.1,80c0-0.3,0.3-0.5,0.6-0.5c0.3,0,0.5,0.2,0.6,0.5c0,0.3-0.3,0.5-0.6,0.5C112.4,80.5,112.1,80.3,112.1,80z"/>
	<path fill="#072946" d="M88.1,106.4c2.4,0,4.5-2,4.5-4.5c0,0,0,0,0-0.1c0,0,0,0,0-0.1c0-2.4-2-4.5-4.5-4.5c-2.4,0-4.5,2-4.5,4.5
		c0,0,0,0,0,0.1c0,0,0,0,0,0.1C83.6,104.3,85.7,106.4,88.1,106.4z M88.1,100.6c0.4,0,0.7,0.2,0.9,0.5c0.1,0.2,0.2,0.4,0.2,0.7
		c0,0.6-0.5,1.1-1.2,1.1c-0.7,0-1.2-0.5-1.2-1.2C86.9,101.1,87.4,100.6,88.1,100.6z"/>
	<path fill="#072946" d="M100.8,78.4c-2.1,0-3.9,1.7-3.9,3.9c0,0,0,0,0,0.1s0,0,0,0.1c0,2.1,1.7,3.9,3.9,3.9c2.1,0,3.9-1.8,3.9-3.9
		c0,0,0,0,0-0.1s0,0,0-0.1C104.7,80.1,102.9,78.4,100.8,78.4z M100.8,82.9c-0.3,0-0.6-0.3-0.6-0.6c0-0.3,0.3-0.6,0.6-0.6
		c0.3,0,0.6,0.3,0.6,0.6C101.4,82.7,101.1,82.9,100.8,82.9z"/>
	<path fill="#072946" d="M98.8,116.3c2.1,0,3.9-1.7,3.9-3.9c0-2.1-1.7-3.9-3.9-3.9s-3.9,1.7-3.9,3.9
		C94.9,114.6,96.6,116.3,98.8,116.3z M98.8,111.9c0.3,0,0.5,0.2,0.6,0.5c0,0.3-0.3,0.5-0.6,0.5c-0.3,0-0.5-0.2-0.6-0.5
		C98.2,112.1,98.5,111.9,98.8,111.9z"/>
	<path fill="#072946" d="M109.4,57.5c-2.7,0-4.8,2.2-4.8,4.8s2.2,4.8,4.8,4.8c2.7,0,4.8-2.2,4.8-4.8S112.1,57.5,109.4,57.5z
		 M109.5,63.9c-0.8,0-1.5-0.7-1.5-1.5c0-0.9,0.7-1.5,1.5-1.5c0.8,0,1.5,0.7,1.5,1.5C111,63.1,110.3,63.8,109.5,63.9z"/>
	<path fill="#072946" d="M83.3,31.2c-2.7,0-4.8,2.2-4.8,4.8c0,2.7,2.2,4.8,4.8,4.8c2.7,0,4.8-2.2,4.8-4.8
		C88.1,33.4,85.9,31.2,83.3,31.2z M84.8,36.3c0,0.1,0,0.2-0.1,0.2c0,0,0,0,0,0c0,0.1-0.1,0.2-0.1,0.2c0,0,0,0,0,0
		c0,0.1-0.1,0.1-0.1,0.2c0,0-0.1,0.1-0.1,0.1c0,0-0.1,0.1-0.1,0.1c-0.1,0-0.1,0.1-0.2,0.1c0,0,0,0,0,0c-0.1,0-0.2,0.1-0.2,0.1
		c0,0,0,0,0,0c-0.1,0-0.2,0.1-0.2,0.1c-0.1,0-0.2,0-0.3,0c-0.8,0-1.5-0.7-1.5-1.5c0-0.8,0.7-1.5,1.5-1.5c0.8,0,1.5,0.7,1.5,1.5
		C84.8,36.1,84.8,36.2,84.8,36.3z"/>
	<path fill="#072946" d="M115.1,115.5l-33-32.8c-0.2-0.4-0.7-0.6-1.1-0.6h-0.4c-0.9,0-1.6,0.7-1.6,1.6v46.9c0,0.9,0.7,1.6,1.6,1.6
		c13.1,0,25.4-5.1,34.4-14.4c0.4-0.4,0.5-0.8,0.5-1.3C115.5,116.1,115.4,115.7,115.1,115.5z M82.2,87.5l25.5,25.3
		c-0.1,0.1-0.1,0.1-0.2,0.2c-0.2,0.2-0.4,0.4-0.6,0.5c-0.3,0.2-0.5,0.4-0.7,0.6c-0.2,0.2-0.4,0.3-0.7,0.5c-0.6,0.5-1.2,0.9-1.8,1.3
		c-0.2,0.2-0.4,0.3-0.7,0.5c-0.2,0.1-0.4,0.3-0.6,0.5c-0.4,0.2-0.7,0.4-1.1,0.6c-0.4,0.2-0.7,0.4-1.1,0.7c0,0-0.1,0.1-0.1,0.1
		c-0.2,0.1-0.5,0.3-0.7,0.4c-0.1,0.1-0.2,0.1-0.4,0.2c-0.5,0.3-0.9,0.5-1.4,0.7c-0.5,0.2-1,0.5-1.5,0.7c-0.1,0-0.2,0.1-0.2,0.1
		l-0.2,0c-1.1,0.4-2.1,0.8-3.4,1.2c-0.2,0.1-0.5,0.1-0.7,0.2c-0.2,0.1-0.4,0.1-0.7,0.2c-0.9,0.3-1.6,0.5-2.4,0.6
		c-0.2,0.1-0.5,0.1-0.7,0.1c-0.3,0-0.6,0.1-0.8,0.1c-0.4,0.1-0.8,0.1-1.2,0.2c-0.4,0.1-0.8,0.1-1,0.2c-0.3,0-0.6,0-0.9,0.1
		c-0.3,0-0.5,0.1-0.9,0.1c-0.4,0.1-0.7,0.1-1.1,0.1V87.5z M82.2,128.9v-2.2c0.1,0,0.3,0,0.4,0c0.6-0.1,1.2-0.1,1.8-0.1
		c0.3,0,0.6-0.1,0.9-0.1c0.4-0.1,0.8-0.1,1.2-0.2c0.4-0.1,0.8-0.1,1.2-0.2c0.3-0.1,0.5-0.1,0.8-0.1c0.3,0,0.6-0.1,0.9-0.1
		c0.7-0.1,1.4-0.3,2.1-0.5l0.6-0.1c0.2-0.1,0.5-0.1,0.7-0.2c0.2-0.1,0.4-0.1,0.7-0.2c2.1-0.7,4.9-1.7,7.6-3.2
		c0.3-0.2,0.7-0.4,1.1-0.6c0.4-0.2,0.8-0.5,1.2-0.7c0.4-0.2,0.8-0.5,1.1-0.7c0.3-0.1,0.5-0.3,0.7-0.5c0.2-0.1,0.4-0.3,0.6-0.4
		c0.4-0.2,0.7-0.5,1-0.7c0.3-0.2,0.7-0.5,1-0.7c0.2-0.2,0.5-0.4,0.7-0.6c0.2-0.2,0.4-0.3,0.7-0.5c0.3-0.2,0.6-0.5,1-0.8l1.1,1.1
		C103.4,124.1,93.1,128.5,82.2,128.9z"/>
</g>
</svg>
