<?xml version="1.0" encoding="utf-8"?>
<!-- Generator: Adobe Illustrator 19.0.0, SVG Export Plug-In . SVG Version: 6.00 Build 0)  -->
<svg version="1.1" id="Layer_1" xmlns="http://www.w3.org/2000/svg" xmlns:xlink="http://www.w3.org/1999/xlink" x="0px" y="0px"
	 viewBox="25.3 34.8 100.5 51.1" enable-background="new 25.3 34.8 100.5 51.1" xml:space="preserve">
<g>
	<path fill="#C1E8E6" d="M107,69.8l2.7,0l0-2.7c-0.6,0.2-1.1,0.6-1.6,1.1C107.6,68.7,107.2,69.2,107,69.8z"/>
	<path fill="#C1E8E6" d="M32,38.9l-2.7,0l0,2.7c0.6-0.2,1.1-0.6,1.6-1.1C31.4,40,31.7,39.5,32,38.9z"/>
	<path fill="#C1E8E6" d="M29.3,67.3l0,2.7l2.6,0C31.5,68.7,30.5,67.7,29.3,67.3z"/>
	<path fill="#FFFFFF" d="M43.4,53.2c-0.5,0-1,0.2-1.4,0.6c-0.4,0.4-0.6,0.9-0.6,1.4c0,1.1,0.9,2,2,2c0.5,0,1-0.2,1.4-0.6
		c0.4-0.4,0.6-0.9,0.6-1.4c0-0.5-0.2-1-0.6-1.4C44.5,53.4,44,53.2,43.4,53.2z"/>
	<path fill="#FFFFFF" d="M69.5,43c-3,0-5.9,1.2-8.1,3.3c-2.2,2.2-3.3,5-3.3,8.1c0,3.1,1.2,5.9,3.4,8.1c2.1,2.1,5,3.3,8,3.3
		c6.3,0,11.4-5.1,11.4-11.4c0-3.1-1.2-5.9-3.4-8.1C75.3,44.1,72.5,42.9,69.5,43z M73.1,61.4c-0.5,0.5-1.2,0.9-1.9,1.2l0,0.2
		c0,1-0.8,1.8-1.8,1.8c-0.5,0-0.9-0.2-1.3-0.5c-0.3-0.3-0.5-0.8-0.5-1.3v-0.2c-0.7-0.3-1.3-0.6-1.8-1.2c0,0,0,0,0,0
		c-1-1-1.5-2.3-1.5-3.7c0-1,0.8-1.8,1.8-1.8c1,0,1.8,0.8,1.8,1.8c0,0.4,0.2,0.8,0.5,1.1c0.3,0.3,0.7,0.5,1.1,0.5
		c0.4,0,0.8-0.2,1.1-0.5c0.3-0.3,0.5-0.7,0.5-1.1c0-0.4-0.2-0.8-0.5-1.1c0,0,0,0,0,0c-0.3-0.3-0.7-0.5-1.1-0.5
		c-1.4,0-2.7-0.6-3.6-1.5c-0.9-0.9-1.5-2.2-1.5-3.7c0-1.4,0.5-2.7,1.5-3.7c0.5-0.5,1.2-0.9,1.9-1.2l0-0.3c0-1,0.8-1.8,1.8-1.8
		c1,0,1.8,0.8,1.8,1.8l0,0.3c2,0.7,3.4,2.6,3.4,4.8c0,1-0.8,1.8-1.8,1.8c-1,0-1.8-0.8-1.8-1.8c0-0.9-0.7-1.6-1.6-1.6l0,0
		c0,0,0,0,0,0c-0.4,0-0.8,0.2-1.1,0.5c-0.3,0.3-0.5,0.7-0.5,1.1c0,0.9,0.7,1.6,1.6,1.6c1.4,0,2.7,0.5,3.7,1.5c1,1,1.5,2.3,1.5,3.7
		C74.7,59.2,74.1,60.5,73.1,61.4z"/>
	<path fill="#FFFFFF" d="M116.5,49.4C116.5,49.4,116.5,49.4,116.5,49.4C116.5,49.4,116.5,49.4,116.5,49.4l0-3.8l-3.3,0l0,19.4
		c0,0,0,0,0,0l0,6.6c0,1-0.8,1.8-1.8,1.8l-75.2,0.1l0,3.2l80.3-0.1L116.5,49.4z"/>
	<path fill="#FFFFFF" d="M120.1,51.2l0,27.2c0,0.5-0.2,0.9-0.5,1.3c-0.3,0.3-0.8,0.5-1.3,0.5l-76.4,0.1l0,2l80.3-0.1l0-31
		L120.1,51.2z"/>
	<path fill="#FFFFFF" d="M95.5,53.1c-1.1,0-2,0.9-2,2c0,1.1,0.9,2,2,2c0.5,0,1-0.2,1.4-0.6c0.4-0.4,0.6-0.9,0.6-1.4
		c0-0.5-0.2-1-0.6-1.4C96.5,53.3,96,53.1,95.5,53.1z"/>
	<path fill="#C1E8E6" d="M105.5,65.7c1.2-1.2,2.6-1.9,4.1-2.3l0-18.2c-1.5-0.3-3-1.1-4.1-2.2c-1.2-1.2-2-2.6-2.3-4.2l-67.5,0.1
		c-0.3,1.6-1.1,3-2.3,4.1c-1.2,1.2-2.6,1.9-4.1,2.3l0,18.2c1.5,0.3,3,1.1,4.1,2.2c1.2,1.2,2,2.6,2.3,4.2l67.5-0.1
		C103.6,68.3,104.4,66.8,105.5,65.7z M47.4,59.1c-1.1,1.1-2.4,1.6-3.9,1.6c-1.5,0-2.9-0.6-3.9-1.6c-1.1-1.1-1.7-2.5-1.7-4
		c0-1.5,0.6-2.9,1.6-3.9c1.1-1.1,2.4-1.6,3.9-1.6c1.5,0,2.9,0.6,3.9,1.6c1.1,1.1,1.7,2.5,1.7,4C49,56.6,48.4,58,47.4,59.1z
		 M69.5,69.3c-4,0-7.7-1.5-10.5-4.3c-2.9-2.8-4.5-6.6-4.5-10.7c0-4,1.6-7.8,4.4-10.6c2.8-2.8,6.6-4.4,10.6-4.4c4,0,7.7,1.5,10.6,4.3
		c2.9,2.8,4.5,6.6,4.5,10.7C84.5,62.6,77.8,69.3,69.5,69.3z M99.5,59c-1,1.1-2.5,1.6-3.9,1.6c-1.5,0-2.9-0.6-3.9-1.6
		c-1.1-1.1-1.7-2.5-1.7-4c0-3.1,2.5-5.6,5.6-5.6c1.5,0,2.9,0.6,3.9,1.6c1.1,1.1,1.7,2.5,1.7,4C101.1,56.6,100.5,58,99.5,59z"/>
	<path fill="#C1E8E6" d="M109.6,41.4l0-2.7l-2.7,0c0.2,0.6,0.6,1.1,1.1,1.6C108.5,40.9,109,41.2,109.6,41.4z"/>
	<path fill="#072946" d="M125.2,48.1C125.2,48.1,125.2,48.1,125.2,48.1c-0.3-0.3-0.8-0.5-1.3-0.5l-3.9,0l0-3.8
		c0-0.5-0.2-0.9-0.5-1.3c0,0,0,0,0,0c-0.3-0.3-0.8-0.5-1.3-0.5l-5.1,0l0-5c0-0.5-0.2-0.9-0.5-1.3c0,0,0,0,0,0
		c-0.3-0.3-0.8-0.5-1.3-0.5l-83.9,0.1c-0.5,0-0.9,0.2-1.3,0.5c-0.3,0.3-0.5,0.8-0.5,1.3l0,6.6c0,0,0,0,0,0l0,28c0,0.5,0.2,1,0.5,1.3
		c0.3,0.3,0.8,0.5,1.3,0.5l5.1,0l0,5c0,0.5,0.2,1,0.5,1.3c0.3,0.3,0.8,0.5,1.3,0.5l3.9,0l0,3.8c0,0.5,0.2,1,0.5,1.3
		c0.3,0.3,0.8,0.5,1.3,0.5l83.9-0.1c1,0,1.8-0.8,1.8-1.8l0-34.6C125.8,48.9,125.6,48.4,125.2,48.1z M109.6,69.8l-2.7,0
		c0.2-0.6,0.6-1.1,1.1-1.6c0.5-0.5,1-0.8,1.6-1.1L109.6,69.8z M109.6,38.8l0,2.7c-0.6-0.2-1.1-0.6-1.6-1c-0.5-0.5-0.8-1-1.1-1.6
		L109.6,38.8z M29.3,38.9l2.7,0c-0.2,0.6-0.6,1.1-1.1,1.6c-0.5,0.5-1,0.8-1.6,1.1L29.3,38.9z M29.4,69.9l0-2.7
		c1.2,0.5,2.2,1.5,2.7,2.6L29.4,69.9z M33.5,65.7c-1.1-1.1-2.6-1.9-4.1-2.2l0-18.2c1.6-0.3,3-1.1,4.1-2.3c1.2-1.2,1.9-2.6,2.3-4.1
		l67.5-0.1c0.3,1.6,1.1,3,2.3,4.2c1.1,1.1,2.6,1.9,4.1,2.2l0,18.2c-1.6,0.3-3,1.1-4.1,2.3c-1.2,1.2-1.9,2.6-2.3,4.1l-67.5,0.1
		C35.4,68.3,34.6,66.9,33.5,65.7z M36.2,76.7l0-3.2l75.2-0.1c1,0,1.8-0.8,1.8-1.8l0-6.6c0,0,0,0,0,0l0-19.4l3.3,0l0,3.8c0,0,0,0,0,0
		c0,0,0,0,0,0l0,27.2L36.2,76.7z M41.9,82.3l0-2l76.4-0.1c0.5,0,0.9-0.2,1.3-0.5c0.3-0.3,0.5-0.8,0.5-1.3l0-27.2l2.1,0l0,31
		L41.9,82.3z"/>
	<path fill="#072946" d="M69.5,39.4c-4,0-7.8,1.6-10.6,4.4c-2.8,2.8-4.4,6.6-4.4,10.6c0,4,1.6,7.8,4.5,10.7
		c2.8,2.8,6.6,4.3,10.5,4.3c8.3,0,15-6.7,15-15c0-4-1.6-7.8-4.5-10.7C77.2,40.9,73.4,39.3,69.5,39.4z M69.5,65.7c-3,0-5.9-1.2-8-3.3
		c-2.2-2.2-3.4-5-3.4-8.1c0-3,1.2-5.9,3.3-8.1c2.2-2.2,5-3.3,8.1-3.3c3,0,5.9,1.2,8,3.3c2.2,2.2,3.4,5,3.4,8.1
		C80.9,60.6,75.8,65.7,69.5,65.7z"/>
	<path fill="#072946" d="M95.5,49.5c-3.1,0-5.6,2.5-5.6,5.6c0,1.5,0.6,2.9,1.7,4c1,1,2.4,1.6,3.9,1.6c1.5,0,2.9-0.6,3.9-1.6
		c1.1-1.1,1.6-2.5,1.6-3.9c0-1.5-0.6-2.9-1.7-4C98.4,50.1,97,49.5,95.5,49.5z M96.9,56.5c-0.4,0.4-0.9,0.6-1.4,0.6c-1.1,0-2-0.9-2-2
		c0-1.1,0.9-2,2-2c0.5,0,1,0.2,1.4,0.6c0.4,0.4,0.6,0.9,0.6,1.4C97.5,55.6,97.3,56.1,96.9,56.5z"/>
	<path fill="#072946" d="M43.4,49.6c-1.5,0-2.9,0.6-3.9,1.6c-1.1,1.1-1.6,2.5-1.6,3.9c0,1.5,0.6,2.9,1.7,4c1.1,1,2.4,1.6,3.9,1.6
		c1.5,0,2.9-0.6,3.9-1.6c1.1-1.1,1.6-2.5,1.6-3.9c0-1.5-0.6-2.9-1.7-4C46.3,50.1,44.9,49.6,43.4,49.6z M44.8,56.5
		c-0.4,0.4-0.9,0.6-1.4,0.6c-1.1,0-2-0.9-2-2c0-0.5,0.2-1,0.6-1.4c0.4-0.4,0.9-0.6,1.4-0.6c0.5,0,1,0.2,1.4,0.6
		c0.4,0.4,0.6,0.9,0.6,1.4C45.4,55.7,45.2,56.2,44.8,56.5z"/>
	<path fill="#072946" d="M69.5,52.6c-0.9,0-1.6-0.7-1.6-1.6c0-0.4,0.2-0.8,0.5-1.1c0.3-0.3,0.7-0.5,1.1-0.5c0,0,0,0,0,0l0,0
		c0.9,0,1.6,0.7,1.6,1.6c0,1,0.8,1.8,1.8,1.8c1,0,1.8-0.8,1.8-1.8c0-2.2-1.4-4.1-3.4-4.8l0-0.3c0-1-0.8-1.8-1.8-1.8
		c-1,0-1.8,0.8-1.8,1.8l0,0.3c-0.7,0.3-1.3,0.6-1.9,1.2c-1,1-1.5,2.3-1.5,3.7c0,1.4,0.6,2.7,1.5,3.7c0.9,0.9,2.2,1.5,3.6,1.5
		c0.4,0,0.8,0.2,1.1,0.5c0,0,0,0,0,0c0.3,0.3,0.5,0.7,0.5,1.1c0,0.4-0.2,0.8-0.5,1.1c-0.3,0.3-0.7,0.5-1.1,0.5
		c-0.4,0-0.8-0.2-1.1-0.5c-0.3-0.3-0.5-0.7-0.5-1.1c0-1-0.8-1.8-1.8-1.8c-1,0-1.8,0.8-1.8,1.8c0,1.4,0.5,2.7,1.5,3.7c0,0,0,0,0,0
		c0.5,0.5,1.2,0.9,1.8,1.2v0.2c0,0.5,0.2,1,0.5,1.3c0.3,0.3,0.8,0.5,1.3,0.5c1,0,1.8-0.8,1.8-1.8l0-0.2c0.7-0.3,1.3-0.6,1.9-1.2
		c1-1,1.5-2.3,1.5-3.7c0-1.4-0.5-2.7-1.5-3.7C72.2,53.1,70.9,52.6,69.5,52.6z"/>
</g>
</svg>
