<?xml version="1.0" standalone="no"?>
<!DOCTYPE svg PUBLIC "-//W3C//DTD SVG 20010904//EN"
 "http://www.w3.org/TR/2001/REC-SVG-20010904/DTD/svg10.dtd">
<svg version="1.0" xmlns="http://www.w3.org/2000/svg"
 width="500.000000pt" height="263.000000pt" viewBox="0 0 500.000000 263.000000"
 preserveAspectRatio="xMidYMid meet">

<g transform="translate(0.000000,263.000000) scale(0.100000,-0.100000)"
fill="#000000" stroke="none">
<path d="M1504 1948 c-24 -64 -28 -84 -18 -88 7 -3 193 -4 414 -4 275 1 400
-2 400 -9 0 -9 -67 -181 -300 -770 -44 -112 -47 -117 -63 -99 -39 43 -257 338
-256 347 0 6 106 98 236 205 l235 195 -196 3 -196 2 -245 -196 c-135 -108
-247 -195 -249 -193 -2 2 32 87 75 189 43 102 79 188 79 193 0 4 -131 6 -291
5 l-291 -3 -129 -305 c-71 -168 -166 -390 -211 -495 -44 -104 -83 -196 -85
-203 -4 -9 58 -12 290 -12 l295 0 19 48 c11 26 45 107 74 179 30 73 56 133 59
132 3 0 65 -81 139 -179 l134 -180 641 0 641 0 70 68 c121 116 312 292 317
292 4 0 -4 -50 -40 -252 l-19 -108 251 1 251 0 200 179 c120 107 201 172 203
164 3 -12 -28 -236 -44 -317 l-6 -27 271 0 c149 0 271 2 271 5 0 5 48 227 166
757 29 136 54 249 54 252 0 3 -120 6 -267 6 l-268 0 -214 -190 c-117 -105
-217 -190 -221 -190 -3 0 11 80 31 178 21 97 39 183 39 190 0 9 -57 12 -254
12 l-253 0 -283 -285 c-156 -157 -285 -283 -287 -281 -4 4 168 519 210 630
l22 58 415 3 c228 2 418 3 422 4 4 1 17 33 28 72 12 39 24 78 27 85 4 12 -172
14 -1129 14 l-1133 0 -31 -82z"/>
</g>
</svg>
