<svg version="1.1"  xmlns="http://www.w3.org/2000/svg" xmlns:xlink="http://www.w3.org/1999/xlink" x="0px"
	 y="0px" width="100.657px" height="100.658px" viewBox="0 0 100.657 100.658" enable-background="new 0 0 100.657 100.658"
	 xml:space="preserve">
<g id="wallet-icon_1_">
	<g>
		<path fill="#63B3C0" d="M100.644,49.791c-0.011-1.056-0.065-2.101-0.141-3.14C98.617,20.575,76.885,0,50.328,0
			C22.533,0,0,22.533,0,50.329c0,26.55,20.565,48.285,46.633,50.18c1.038,0.075,2.084,0.122,3.138,0.137
			c0.187,0.003,0.371,0.013,0.558,0.013c27.796,0,50.329-22.535,50.329-50.329C100.657,50.148,100.646,49.971,100.644,49.791z"/>
		<path fill="#58A1AD" d="M100.657,50.329c0-0.181-0.012-0.358-0.014-0.538c-0.011-1.056-0.065-2.101-0.141-3.14
			c-0.126-0.142-0.255-0.276-0.398-0.399c-0.14-0.162-0.288-0.311-0.45-0.45c-0.137-0.159-0.285-0.307-0.444-0.445
			c-0.14-0.159-0.287-0.308-0.447-0.446c-0.139-0.16-0.286-0.309-0.446-0.446c-0.139-0.159-0.286-0.308-0.445-0.445
			c-0.139-0.161-0.286-0.309-0.447-0.446c-0.138-0.161-0.285-0.309-0.445-0.447c-0.139-0.159-0.287-0.308-0.447-0.446
			c-0.139-0.16-0.286-0.308-0.446-0.446c-0.139-0.16-0.286-0.309-0.446-0.446c-0.139-0.159-0.286-0.309-0.447-0.446
			c-0.138-0.16-0.284-0.307-0.443-0.444c-0.14-0.161-0.287-0.31-0.448-0.448c-0.138-0.16-0.287-0.308-0.446-0.446
			c-0.139-0.16-0.286-0.308-0.446-0.446c-0.139-0.159-0.285-0.307-0.444-0.445c-0.14-0.16-0.288-0.31-0.45-0.447
			c-0.136-0.16-0.283-0.307-0.442-0.444c-0.139-0.161-0.289-0.31-0.449-0.449c-0.139-0.159-0.286-0.307-0.446-0.445
			c-0.138-0.159-0.285-0.307-0.444-0.445c-0.14-0.16-0.287-0.31-0.449-0.448c-0.137-0.158-0.283-0.307-0.442-0.443
			c-0.14-0.16-0.288-0.31-0.448-0.449c-0.138-0.158-0.285-0.306-0.445-0.443c-0.138-0.161-0.288-0.31-0.448-0.449
			c-0.138-0.159-0.285-0.307-0.444-0.444c-0.139-0.16-0.286-0.308-0.445-0.446c-0.14-0.16-0.288-0.309-0.447-0.447
			c-0.139-0.158-0.286-0.307-0.445-0.444c-0.139-0.161-0.289-0.311-0.449-0.449c-0.137-0.159-0.285-0.307-0.444-0.444
			c-0.138-0.16-0.286-0.308-0.447-0.447c-0.139-0.159-0.286-0.307-0.445-0.446c-0.139-0.159-0.286-0.308-0.446-0.445
			c-0.139-0.159-0.285-0.308-0.445-0.445c-0.14-0.161-0.287-0.31-0.447-0.448c-0.139-0.16-0.288-0.308-0.447-0.447
			c-0.139-0.159-0.286-0.307-0.446-0.445c-0.139-0.159-0.286-0.307-0.445-0.445c-0.139-0.159-0.286-0.309-0.446-0.446
			c-0.139-0.161-0.286-0.309-0.448-0.448c-0.137-0.159-0.283-0.306-0.442-0.443c-0.14-0.161-0.289-0.31-0.449-0.448
			c-0.801-0.926-1.97-1.522-3.288-1.522H24.479c-2.414,0-4.369,1.951-4.369,4.364v39.767c0,1.318,0.598,2.486,1.522,3.288
			c0.14,0.159,0.287,0.309,0.446,0.446c0.14,0.161,0.289,0.309,0.448,0.448c0.138,0.159,0.286,0.307,0.446,0.445
			c0.139,0.16,0.286,0.308,0.446,0.446c0.139,0.159,0.286,0.307,0.445,0.445c0.139,0.159,0.286,0.307,0.445,0.445
			c0.139,0.162,0.287,0.31,0.448,0.449c0.138,0.16,0.287,0.308,0.447,0.446c0.139,0.16,0.286,0.308,0.446,0.446
			c0.138,0.159,0.285,0.306,0.443,0.443c0.14,0.16,0.287,0.308,0.446,0.447c0.139,0.16,0.288,0.309,0.447,0.447
			c0.14,0.161,0.289,0.309,0.448,0.447c0.138,0.159,0.284,0.306,0.444,0.443c0.138,0.16,0.285,0.309,0.446,0.447
			c0.138,0.159,0.286,0.308,0.446,0.446c0.139,0.16,0.287,0.308,0.446,0.446c0.139,0.16,0.286,0.309,0.446,0.446
			c0.14,0.161,0.287,0.31,0.447,0.448c0.138,0.159,0.285,0.307,0.446,0.445c0.137,0.159,0.284,0.307,0.444,0.443
			c0.138,0.161,0.287,0.31,0.447,0.448c0.139,0.16,0.286,0.308,0.446,0.446c0.139,0.159,0.285,0.307,0.444,0.445
			c0.14,0.16,0.288,0.31,0.45,0.449c0.138,0.159,0.286,0.308,0.445,0.446c0.138,0.158,0.286,0.306,0.445,0.444
			c0.138,0.159,0.286,0.308,0.446,0.446c0.139,0.16,0.287,0.308,0.446,0.446c0.139,0.16,0.286,0.309,0.445,0.446
			c0.14,0.161,0.288,0.309,0.448,0.448c0.138,0.159,0.285,0.307,0.445,0.443c0.138,0.161,0.285,0.309,0.446,0.447
			c0.138,0.16,0.287,0.308,0.446,0.446c0.139,0.16,0.286,0.308,0.445,0.446c0.14,0.16,0.288,0.31,0.45,0.449
			c0.137,0.158,0.283,0.305,0.44,0.441c0.141,0.16,0.289,0.311,0.45,0.45c0.138,0.158,0.286,0.306,0.444,0.442
			c0.139,0.161,0.287,0.31,0.447,0.448c0.139,0.16,0.287,0.308,0.446,0.447c0.139,0.159,0.286,0.308,0.445,0.445
			c0.139,0.161,0.288,0.309,0.448,0.448c0.138,0.159,0.285,0.307,0.445,0.445c0.138,0.159,0.285,0.307,0.446,0.445
			c0.138,0.16,0.287,0.308,0.446,0.446c0.139,0.16,0.287,0.31,0.447,0.447c0.138,0.159,0.285,0.306,0.443,0.444
			c0.14,0.16,0.288,0.31,0.447,0.447c0.139,0.16,0.286,0.309,0.447,0.447c0.139,0.159,0.287,0.308,0.446,0.446
			c0.14,0.16,0.288,0.308,0.447,0.446c0.139,0.159,0.286,0.307,0.445,0.445c0.139,0.159,0.286,0.307,0.445,0.445
			c0.139,0.16,0.286,0.309,0.445,0.446c0.14,0.161,0.288,0.309,0.448,0.448c0.138,0.159,0.285,0.307,0.446,0.445
			c0.138,0.16,0.287,0.308,0.446,0.446c0.139,0.16,0.286,0.308,0.445,0.446c0.14,0.16,0.287,0.309,0.447,0.447
			c0.139,0.16,0.286,0.308,0.447,0.445c0.138,0.161,0.287,0.309,0.446,0.447c0.138,0.159,0.284,0.306,0.444,0.443
			c0.007,0.008,0.016,0.015,0.022,0.022c0.187,0.003,0.371,0.013,0.558,0.013C78.124,100.658,100.657,78.123,100.657,50.329z"/>
	</g>
	<g id="icon_15_">
		<path fill="#E34325" d="M77.177,25.09H24.479c-2.414,0-4.369,1.951-4.369,4.364v39.767c0,2.41,1.955,4.366,4.369,4.366h52.698
			c2.409,0,4.365-1.956,4.365-4.366V29.454C81.542,27.041,79.586,25.09,77.177,25.09z"/>
		<path id="shadow_5_" fill="#CC3C20" d="M81.542,69.221V58.163h0.198c2.415,0,4.369-1.956,4.369-4.369v-8.913
			c0-2.416-1.954-4.37-4.369-4.37h-0.198V29.454c0-2.413-1.956-4.364-4.365-4.364H50.571v48.497h26.605
			C79.586,73.587,81.542,71.631,81.542,69.221z"/>
		<g>
			<path fill="#FFFFFF" d="M33.332,69.949h-1.47c-0.403,0-0.728,0.326-0.728,0.727c0,0.402,0.324,0.727,0.728,0.727h1.47
				c0.403,0,0.728-0.324,0.728-0.727C34.06,70.275,33.735,69.949,33.332,69.949z"/>
			<path fill="#FFFFFF" d="M34.526,27.271h-1.469c-0.403,0-0.728,0.323-0.728,0.729c0,0.4,0.324,0.725,0.728,0.725h1.469
				c0.404,0,0.729-0.324,0.729-0.725C35.255,27.595,34.931,27.271,34.526,27.271z"/>
			<path fill="#FFFFFF" d="M30.113,27.271h-1.468c-0.404,0-0.728,0.323-0.728,0.729c0,0.4,0.323,0.725,0.728,0.725h1.468
				c0.405,0,0.729-0.324,0.729-0.725C30.842,27.595,30.519,27.271,30.113,27.271z"/>
			<path fill="#FFFFFF" d="M28.926,69.949h-1.473c-0.401,0-0.73,0.326-0.73,0.727c0,0.402,0.329,0.727,0.73,0.727h1.473
				c0.402,0,0.726-0.324,0.726-0.727C29.651,70.275,29.328,69.949,28.926,69.949z"/>
			<path fill="#FFFFFF" d="M37.74,69.949h-1.465c-0.405,0-0.729,0.326-0.729,0.727c0,0.402,0.323,0.727,0.729,0.727h1.465
				c0.407,0,0.731-0.324,0.731-0.727C38.472,70.275,38.147,69.949,37.74,69.949z"/>
			<path fill="#FFFFFF" d="M47.758,27.271h-1.475c-0.401,0-0.727,0.323-0.727,0.729c0,0.4,0.325,0.725,0.727,0.725h1.475
				c0.399,0,0.726-0.324,0.726-0.725C48.483,27.595,48.157,27.271,47.758,27.271z"/>
			<path fill="#FFFFFF" d="M43.344,27.271h-1.467c-0.404,0-0.728,0.323-0.728,0.729c0,0.4,0.323,0.725,0.728,0.725h1.467
				c0.406,0,0.73-0.324,0.73-0.725C44.074,27.595,43.75,27.271,43.344,27.271z"/>
			<path fill="#FFFFFF" d="M46.563,69.949h-1.471c-0.4,0-0.728,0.326-0.728,0.727c0,0.402,0.327,0.727,0.728,0.727h1.471
				c0.401,0,0.727-0.324,0.727-0.727C47.29,70.275,46.965,69.949,46.563,69.949z"/>
			<path fill="#FFFFFF" d="M42.154,69.949h-1.474c-0.4,0-0.727,0.326-0.727,0.727c0,0.402,0.326,0.727,0.727,0.727h1.474
				c0.404,0,0.729-0.324,0.729-0.727C42.883,70.275,42.559,69.949,42.154,69.949z"/>
			<path fill="#FFFFFF" d="M38.936,27.271h-1.469c-0.404,0-0.729,0.323-0.729,0.729c0,0.4,0.325,0.725,0.729,0.725h1.469
				c0.402,0,0.727-0.324,0.727-0.725C39.662,27.595,39.338,27.271,38.936,27.271z"/>
			<path fill="#FFFFFF" d="M25.707,27.271h-1.218c-0.127-0.004-0.251,0.004-0.373,0.027c-0.396,0.063-0.603,0.438-0.538,0.83
				c0.063,0.357,0.418,0.605,0.773,0.605c0.04,0,0.082-0.002,0.127-0.01h1.229c0.4,0,0.724-0.324,0.724-0.725
				C26.431,27.595,26.107,27.271,25.707,27.271z"/>
			<path fill="#FFFFFF" d="M24.479,69.949c-0.256,0-0.482-0.125-0.62-0.342c-0.213-0.341-0.659-0.445-1.005-0.228
				c-0.336,0.211-0.438,0.662-0.225,1.001c0.402,0.645,1.092,1.021,1.85,1.021h0.037c0.398,0,0.708-0.324,0.708-0.727
				C25.224,70.275,24.877,69.949,24.479,69.949z"/>
			<path fill="#FFFFFF" d="M23.02,36.955c0.403,0,0.728-0.324,0.728-0.729v-1.468c0-0.405-0.324-0.729-0.728-0.729
				s-0.73,0.323-0.73,0.729v1.468C22.289,36.631,22.616,36.955,23.02,36.955z"/>
			<path fill="#FFFFFF" d="M77.177,28.725c0.251,0,0.476,0.126,0.609,0.336c0.14,0.212,0.372,0.33,0.61,0.33
				c0.14,0,0.271-0.038,0.397-0.12c0.336-0.221,0.433-0.667,0.214-1.006c-0.406-0.622-1.092-0.993-1.831-0.993h-0.021
				c-0.401,0-0.717,0.323-0.717,0.729C76.439,28.4,76.771,28.725,77.177,28.725z"/>
			<path fill="#FFFFFF" d="M23.02,50.183c0.403,0,0.728-0.325,0.728-0.725v-1.471c0-0.399-0.324-0.731-0.728-0.731
				s-0.73,0.332-0.73,0.731v1.471C22.289,49.857,22.616,50.183,23.02,50.183z"/>
			<path fill="#FFFFFF" d="M23.02,32.546c0.403,0,0.728-0.328,0.728-0.728v-1.474c0-0.399-0.324-0.728-0.728-0.728
				s-0.73,0.328-0.73,0.728v1.474C22.289,32.218,22.616,32.546,23.02,32.546z"/>
			<path fill="#FFFFFF" d="M23.02,45.772c0.403,0,0.728-0.323,0.728-0.728v-1.47c0-0.4-0.324-0.724-0.728-0.724
				s-0.73,0.323-0.73,0.724v1.47C22.289,45.449,22.616,45.772,23.02,45.772z"/>
			<path fill="#FFFFFF" d="M23.02,54.594c0.403,0,0.728-0.322,0.728-0.727v-1.471c0-0.403-0.324-0.726-0.728-0.726
				s-0.73,0.322-0.73,0.726v1.471C22.289,54.271,22.616,54.594,23.02,54.594z"/>
			<path fill="#FFFFFF" d="M23.747,67.098v-1.469c0-0.404-0.324-0.729-0.728-0.729s-0.73,0.324-0.73,0.729v1.469
				c0,0.406,0.327,0.729,0.73,0.729S23.747,67.504,23.747,67.098z"/>
			<path fill="#FFFFFF" d="M23.02,63.413c0.403,0,0.728-0.322,0.728-0.727v-1.47c0-0.402-0.324-0.727-0.728-0.727
				s-0.73,0.324-0.73,0.727v1.47C22.289,63.091,22.616,63.413,23.02,63.413z"/>
			<path fill="#FFFFFF" d="M23.02,59.003c0.403,0,0.728-0.322,0.728-0.727v-1.47c0-0.401-0.324-0.729-0.728-0.729
				s-0.73,0.327-0.73,0.729v1.47C22.289,58.681,22.616,59.003,23.02,59.003z"/>
			<path fill="#FFFFFF" d="M23.02,41.359c0.403,0,0.728-0.323,0.728-0.725v-1.469c0-0.401-0.324-0.725-0.728-0.725
				s-0.73,0.323-0.73,0.725v1.469C22.289,41.036,22.616,41.359,23.02,41.359z"/>
			<path fill="#FFFFFF" d="M78.632,61.703c-0.401,0-0.729,0.322-0.729,0.726v1.471c0,0.404,0.327,0.723,0.729,0.723
				c0.398,0,0.729-0.318,0.729-0.723v-1.471C79.361,62.025,79.03,61.703,78.632,61.703z"/>
			<path fill="#FFFFFF" d="M78.632,57.29c-0.401,0-0.729,0.324-0.729,0.729v1.468c0,0.404,0.327,0.73,0.729,0.73
				c0.398,0,0.729-0.326,0.729-0.73v-1.468C79.361,57.614,79.03,57.29,78.632,57.29z"/>
			<path fill="#FFFFFF" d="M77.308,69.934c-0.047,0.009-0.095,0.016-0.131,0.016h-1.214c-0.4,0-0.727,0.326-0.727,0.727
				c0,0.402,0.326,0.727,0.727,0.727h1.225c0.125-0.002,0.247-0.009,0.369-0.029c0.395-0.07,0.662-0.446,0.59-0.84
				C78.081,70.134,77.719,69.871,77.308,69.934z"/>
			<path fill="#FFFFFF" d="M78.632,52.883c-0.401,0-0.729,0.322-0.729,0.724v1.472c0,0.404,0.327,0.727,0.729,0.727
				c0.398,0,0.729-0.322,0.729-0.727v-1.472C79.361,53.205,79.03,52.883,78.632,52.883z"/>
			<path fill="#FFFFFF" d="M78.632,66.11c-0.401,0-0.729,0.327-0.729,0.726v1.471c0,0.404,0.327,0.727,0.729,0.727
				c0.398,0,0.729-0.322,0.729-0.727v-1.471C79.361,66.438,79.03,66.11,78.632,66.11z"/>
			<path fill="#FFFFFF" d="M78.632,35.241c-0.401,0-0.729,0.325-0.729,0.727v1.47c0,0.4,0.327,0.728,0.729,0.728
				c0.398,0,0.729-0.327,0.729-0.728v-1.47C79.361,35.566,79.03,35.241,78.632,35.241z"/>
			<path fill="#FFFFFF" d="M78.632,30.834c-0.401,0-0.729,0.323-0.729,0.724v1.47c0,0.4,0.327,0.727,0.729,0.727
				c0.398,0,0.729-0.326,0.729-0.727v-1.47C79.361,31.157,79.03,30.834,78.632,30.834z"/>
			<path fill="#FFFFFF" d="M74.219,27.271h-1.472c-0.401,0-0.726,0.323-0.726,0.729c0,0.4,0.324,0.725,0.726,0.725h1.472
				c0.404,0,0.729-0.324,0.729-0.725C74.947,27.595,74.623,27.271,74.219,27.271z"/>
			<path fill="#FFFFFF" d="M78.632,39.65c-0.401,0-0.729,0.33-0.729,0.729v1.471c0,0.397,0.327,0.723,0.729,0.723
				c0.398,0,0.729-0.325,0.729-0.723V40.38C79.361,39.98,79.03,39.65,78.632,39.65z"/>
			<path fill="#FFFFFF" d="M78.632,48.472c-0.401,0-0.729,0.323-0.729,0.727v1.471c0,0.404,0.327,0.727,0.729,0.727
				c0.398,0,0.729-0.322,0.729-0.727v-1.471C79.361,48.795,79.03,48.472,78.632,48.472z"/>
			<path fill="#FFFFFF" d="M78.632,44.061c-0.401,0-0.729,0.323-0.729,0.727v1.467c0,0.403,0.327,0.731,0.729,0.731
				c0.398,0,0.729-0.328,0.729-0.731v-1.467C79.361,44.384,79.03,44.061,78.632,44.061z"/>
			<path fill="#FFFFFF" d="M65.395,27.271h-1.471c-0.402,0-0.726,0.323-0.726,0.729c0,0.4,0.323,0.725,0.726,0.725h1.471
				c0.404,0,0.73-0.324,0.73-0.725C66.125,27.595,65.799,27.271,65.395,27.271z"/>
			<path fill="#FFFFFF" d="M59.793,69.949h-1.47c-0.403,0-0.728,0.326-0.728,0.727c0,0.402,0.324,0.727,0.728,0.727h1.47
				c0.403,0,0.728-0.324,0.728-0.727C60.521,70.275,60.196,69.949,59.793,69.949z"/>
			<path fill="#FFFFFF" d="M56.578,27.271h-1.469c-0.407,0-0.729,0.323-0.729,0.729c0,0.4,0.322,0.725,0.729,0.725h1.469
				c0.401,0,0.726-0.324,0.726-0.725C57.304,27.595,56.979,27.271,56.578,27.271z"/>
			<path fill="#FFFFFF" d="M60.983,27.271h-1.467c-0.403,0-0.727,0.323-0.727,0.729c0,0.4,0.323,0.725,0.727,0.725h1.467
				c0.404,0,0.73-0.324,0.73-0.725C61.714,27.595,61.388,27.271,60.983,27.271z"/>
			<path fill="#FFFFFF" d="M55.379,69.949h-1.465c-0.4,0-0.73,0.326-0.73,0.727c0,0.402,0.33,0.727,0.73,0.727h1.465
				c0.405,0,0.73-0.324,0.73-0.727C56.109,70.275,55.784,69.949,55.379,69.949z"/>
			<path fill="#FFFFFF" d="M52.164,27.271h-1.469c-0.401,0-0.725,0.323-0.725,0.729c0,0.4,0.323,0.725,0.725,0.725h1.469
				c0.404,0,0.729-0.324,0.729-0.725C52.893,27.595,52.568,27.271,52.164,27.271z"/>
			<path fill="#FFFFFF" d="M69.806,27.271H68.34c-0.404,0-0.729,0.323-0.729,0.729c0,0.4,0.325,0.725,0.729,0.725h1.466
				c0.403,0,0.729-0.324,0.729-0.725C70.535,27.595,70.209,27.271,69.806,27.271z"/>
			<path fill="#FFFFFF" d="M73.023,69.949h-1.47c-0.4,0-0.727,0.326-0.727,0.727c0,0.402,0.326,0.727,0.727,0.727h1.47
				c0.402,0,0.73-0.324,0.73-0.727C73.754,70.275,73.426,69.949,73.023,69.949z"/>
			<path fill="#FFFFFF" d="M64.204,69.949h-1.472c-0.4,0-0.726,0.326-0.726,0.727c0,0.402,0.325,0.727,0.726,0.727h1.472
				c0.403,0,0.729-0.324,0.729-0.727C64.933,70.275,64.607,69.949,64.204,69.949z"/>
			<path fill="#FFFFFF" d="M68.613,69.949h-1.471c-0.4,0-0.728,0.326-0.728,0.727c0,0.402,0.327,0.727,0.728,0.727h1.471
				c0.402,0,0.727-0.324,0.727-0.727C69.34,70.275,69.016,69.949,68.613,69.949z"/>
			<path fill="#FFFFFF" d="M50.973,69.949h-1.469c-0.402,0-0.731,0.326-0.731,0.727c0,0.402,0.329,0.727,0.731,0.727h1.469
				c0.402,0,0.729-0.324,0.729-0.727C51.702,70.275,51.375,69.949,50.973,69.949z"/>
		</g>
		<path fill="#B32F1B" d="M81.74,40.511H65.29c-2.413,0-4.362,1.954-4.362,4.37v8.913c0,2.413,1.949,4.369,4.362,4.369h16.45
			c2.415,0,4.369-1.956,4.369-4.369v-8.913C86.109,42.465,84.155,40.511,81.74,40.511z"/>
		<path fill="#FFFFFF" d="M69.608,45.699c-2.007,0-3.64,1.631-3.64,3.636c0,2.01,1.633,3.637,3.64,3.637
			c2.008,0,3.638-1.627,3.638-3.637C73.246,47.33,71.616,45.699,69.608,45.699z"/>
	</g>
</g>
</svg>
