<?xml version="1.0" encoding="utf-8"?>
<!-- Generator: Adobe Illustrator 19.0.0, SVG Export Plug-In . SVG Version: 6.00 Build 0)  -->
<svg version="1.1" id="Layer_1" xmlns="http://www.w3.org/2000/svg" xmlns:xlink="http://www.w3.org/1999/xlink" x="0px" y="0px"
	 viewBox="35.6 1.9 29.4 36.1" enable-background="new 35.6 1.9 29.4 36.1" xml:space="preserve">
<g>
	<path fill="#C1E8E6" d="M42.9,8.4h-1l-0.1,0.9c0.4,0,0.8,0,1.2,0L42.9,8.4z"/>
	<path d="M35.9,20.3C36,20.3,36,20.2,35.9,20.3C36,20.3,36,20.3,35.9,20.3z"/>
	<path fill="#C1E8E6" d="M42.9,34.6c0.3,0.2,0.6,0.3,0.8,0.5l0-7.2C43.4,28,43,28,42.7,28c-0.5,0-1-0.1-1.3-0.1v5.5
		c0.2,0.2,0.4,0.4,0.7,0.6v-0.8v0h1.2v1.5H42.9z M42,28.9h1.2v1.5H42V28.9z M42,32.5V31h1.2v1.5H42z"/>
	<path d="M52.9,8.9c0.1,0,0.3,0,0.4,0.1C53.2,8.9,53,8.9,52.9,8.9z"/>
	<path fill="#C1E8E6" d="M43.3,11.1l-0.1-0.5c-0.1,0-0.2,0-0.2,0c0,0-0.1,0-0.1,0c-0.4,0-0.7,0-1,0l-0.1,0.8l-0.1,1
		c0.6,0,1.2,0,1.8,0L43.3,11.1z"/>
	<path fill="#C1E8E6" d="M45.4,14.4l-0.2-0.9c-0.7,0-1.4,0-2.1,0c-1.3,0-2.5,0-3.4-0.1l-0.2,0.9C41.9,14.6,43.2,14.7,45.4,14.4z"/>
	<path fill="#FFFFFF" d="M44.4,10.5l0.1,0.4l0.1,1.4c0.8,0,1.7-0.1,2.4-0.2l0.2,1.2c-0.2,0-0.5,0.1-0.7,0.1l0.2,0.9
		c0.6-0.1,1.2-0.1,1.9-0.2l0.1,1.2c-0.9,0.1-1.6,0.2-2.3,0.3l-0.2,0.9c0.2,0,0.5-0.1,0.7-0.1l0.2,1.2c-0.6,0.1-1.2,0.2-1.8,0.3v3
		c0.2,0,0.4,0,0.6,0.2c0.1,0.1,0.3,0.3,0.2,0.8c-0.7,3.2-1.1,5.6-1.2,6v8c1,0.4,2,0.7,3,0.9v-7.2h7.6v2h1.6v-5.8h6.6
		c0.3-1.7,0.3-3.4-0.1-5.1h-6v-1.3h5.6c-0.1-0.4-0.2-0.7-0.4-1.1h-3.7v-1.3h3.1c-0.6-1.1-1.4-2.1-2.3-3.1c-0.4-0.4-0.8-0.7-1.2-1.1
		c-0.2-0.1-0.4-0.1-0.6-0.1c-0.2,0-0.5,0.1-0.7,0.2c-0.2,0.2-0.3,0.5-0.3,0.9h0h-1.3h0c0,0,0-0.5-0.2-0.9c-0.2-0.2-0.5-0.3-0.9-0.3
		c-0.2,0-0.5,0.1-0.7,0.2c-0.2,0.2-0.3,0.5-0.3,0.9h-1.3c0-0.8,0.3-1.4,0.7-1.9c0.5-0.5,1.1-0.6,1.5-0.6c0,0,0,0,0,0
		c0.1,0,0.3,0,0.3,0l0,0c0.6,0,1.2,0.3,1.5,0.7c0,0,0.1-0.1,0.1-0.1c0.2-0.1,0.3-0.2,0.5-0.3c-2.6-1.5-5.5-2-8.8-1.3L47.1,9
		c1.8-0.4,3.6-0.5,5.4-0.2c-0.7-0.1-1.5-0.2-2.2-0.2c-1.6,0-3.2,0.3-4.7,0.8l0.1,1.1C45.3,10.5,44.9,10.5,44.4,10.5z"/>
	<path fill="#C1E8E6" d="M40.5,21.2c0.5,0.1,1.1,0.3,1.8,0.3c0.7,0,1.3-0.1,1.8-0.3v-3.3c-0.4,0-0.8,0-1.2,0c-0.9,0-1.7,0-2.4-0.1
		V21.2z"/>
	<path fill="#C1E8E6" d="M44.9,16.6l0.2-0.9c-0.9,0.1-1.7,0.1-2.5,0.1c-1,0-2-0.1-3.3-0.2l0.2,0.9l-0.1,0C41,16.6,43,16.8,44.9,16.6
		z"/>
	<path fill="#FFFFFF" d="M52.3,36.7c1.7-0.2,3.3-0.8,4.9-1.7v-2.4h-4.9V36.7z M55.1,33.5h1.2V35h-1.2V33.5z M53.2,33.5h1.2V35h-1.2
		V33.5z"/>
	<path fill="#C1E8E6" d="M43.9,26.6c0.2-0.9,0.5-2.5,0.9-4.5c-0.6,0.2-1.4,0.5-2.4,0.5c-1.1,0-1.9-0.2-2.4-0.4
		c0.5,1.7,0.9,3.4,1.2,4.4C41.4,26.7,42.8,27,43.9,26.6z"/>
	<path fill="#FFFFFF" d="M40.1,32.2v-4.4c-0.1-0.5-0.9-3.3-1.6-6c-0.1-0.2-0.2-0.6,0.2-0.9c0.2-0.2,0.4-0.2,0.6-0.1v-3
		c-1-0.1-1.7-0.2-1.7-0.2l0.2-1.2c0,0,0.2,0,0.6,0.1l-0.3-0.9c-0.1,0-0.1,0-0.2,0c-0.8,1.3-1.4,2.7-1.8,4.2l1.1,1.1
		C36.1,25,37.3,28.9,40.1,32.2z"/>
	<path fill="#FFFFFF" d="M51.1,36.8v-5.4h3.3v-0.8h-5.2v6.2C49.8,36.8,50.4,36.8,51.1,36.8z"/>
	<path fill="#FFFFFF" d="M63.4,26.8h-5.1v7.5c0.6-0.4,1.1-0.9,1.6-1.4C61.7,31.1,62.9,29,63.4,26.8z"/>
	<rect x="42" y="28.9" fill="#072946" width="1.2" height="1.5"/>
	<rect x="42" y="31" fill="#072946" width="1.2" height="1.5"/>
	<path fill="#072946" d="M53.3,8.9c-0.1,0-0.3,0-0.4-0.1c-0.1,0-0.3,0-0.4-0.1c-1.8-0.2-3.6-0.2-5.4,0.2l1.2,1.2
		c3.3-0.7,6.2-0.3,8.8,1.3c-0.2,0.1-0.3,0.2-0.5,0.3c0,0-0.1,0.1-0.1,0.1c-0.4-0.4-0.9-0.6-1.5-0.7l0,0c0,0-0.1,0-0.3,0c0,0,0,0,0,0
		c-0.4,0-1,0.1-1.5,0.6c-0.5,0.4-0.7,1.1-0.7,1.9h1.3c0-0.4,0.1-0.7,0.3-0.9c0.2-0.2,0.5-0.2,0.7-0.2c0.4,0,0.7,0.1,0.9,0.3
		c0.3,0.3,0.2,0.8,0.2,0.9h0h1.3h0c0-0.4,0.1-0.7,0.3-0.9c0.2-0.2,0.5-0.2,0.7-0.2c0.3,0,0.5,0,0.6,0.1c0.4,0.3,0.8,0.7,1.2,1.1
		c0.9,0.9,1.7,2,2.3,3.1h-3.1v1.3h3.7c0.1,0.3,0.3,0.7,0.4,1.1h-5.6v1.3h6c0.3,1.7,0.4,3.4,0.1,5.1h-6.6v5.8h-1.6v-2H48v7.2
		c-1-0.2-2.1-0.5-3-0.9v-8c0.1-0.4,0.4-2.8,1.2-6c0.1-0.4-0.1-0.7-0.2-0.8c-0.2-0.2-0.4-0.2-0.6-0.2v-3c0.6-0.1,1.2-0.1,1.8-0.3
		l-0.2-1.2c-0.2,0-0.5,0.1-0.7,0.1l0.2-0.9c0.7-0.1,1.4-0.2,2.3-0.3l-0.1-1.2c-0.7,0.1-1.4,0.2-1.9,0.2l-0.2-0.9
		c0.3,0,0.5,0,0.7-0.1l-0.2-1.2c-0.7,0.1-1.5,0.1-2.4,0.2L44.4,11l-0.1-0.4c0.5,0,0.9-0.1,1.3-0.1l-0.1-1.1l0-0.1
		c-0.4,0.1-0.9,0.1-1.3,0.1L44,7.2h-0.9V2.7l-0.6-0.8l-0.6,0.8v4.5h-1l-0.2,2.1c-0.9,0-1.6-0.1-1.6-0.1L39,10.4
		c0.1,0,0.7,0.1,1.6,0.1l0,0.5l-0.1,1.3c-1.5-0.1-2.7-0.1-2.7-0.1l-0.1,1.2c0,0,0.3,0,0.8,0l-0.2,0.9c-0.6-0.1-1.3-0.1-2-0.2
		L36,15.3c0.7,0.1,1.3,0.1,1.9,0.2c0.1,0,0.1,0,0.2,0l0.3,0.9c-0.4,0-0.6-0.1-0.6-0.1l-0.2,1.2c0.1,0,0.7,0.1,1.7,0.2v3
		c-0.2,0-0.4,0-0.6,0.1c-0.3,0.3-0.2,0.7-0.2,0.9c0.7,2.6,1.5,5.5,1.6,6v4.4c-2.9-3.2-4-7.1-2.9-11.4l-1.1-1.1l0,0
		C36,19.8,36,20,36,20.2c0,0,0,0,0,0.1c-1,4.8,0.5,9.9,4,13.4c0.1,0.1,0.1,0.1,0.2,0.2v0.2h0.2c5.8,5.4,14.8,5.2,20.4-0.4
		c5.7-5.7,5.7-15.1,0-20.8C58.7,10.8,56.1,9.5,53.3,8.9z M58.3,26.8h5.1c-0.6,2.2-1.8,4.3-3.5,6.1c-0.5,0.5-1,1-1.6,1.4V26.8z
		 M57.1,32.6V35c-1.5,0.9-3.2,1.4-4.9,1.7v-4.1H57.1z M49.2,30.6h5.2v0.8h-3.3v5.4c-0.6,0-1.3,0-1.9,0V30.6z M42,33.1L42,33.1v0.8
		c-0.2-0.2-0.4-0.4-0.7-0.6v-5.5c0.3,0.1,0.8,0.1,1.3,0.1c0.4,0,0.7,0,1.1-0.1l0,7.2c-0.3-0.2-0.6-0.3-0.8-0.5h0.3v-1.5H42z M42,8.4
		h1l0.1,1c-0.4,0-0.8,0-1.2,0L42,8.4z M42.8,10.6c0,0,0.1,0,0.1,0c0.1,0,0.2,0,0.2,0l0.1,0.5l0.1,1.3c-0.6,0-1.2,0-1.8,0l0.1-1
		l0.1-0.8C42.1,10.6,42.5,10.6,42.8,10.6z M39.6,13.5c1,0,2.2,0.1,3.4,0.1c0.7,0,1.4,0,2.1,0l0.2,0.9c-2.2,0.2-3.5,0.2-6,0
		L39.6,13.5z M39.4,15.6c1.3,0.1,2.3,0.2,3.3,0.2c0.8,0,1.6,0,2.5-0.1l-0.2,0.9c-1.9,0.1-3.9,0-5.3-0.1l0.1,0L39.4,15.6z M44.1,17.9
		v3.3c-0.5,0.2-1.1,0.3-1.8,0.3c-0.8,0-1.4-0.1-1.8-0.3v-3.4c0.7,0,1.6,0.1,2.4,0.1C43.3,17.9,43.7,17.9,44.1,17.9z M39.9,22.2
		c0.6,0.2,1.4,0.4,2.4,0.4c1,0,1.8-0.3,2.4-0.5c-0.4,1.9-0.7,3.5-0.9,4.5c-1.1,0.4-2.5,0.1-2.8,0C40.8,25.6,40.4,24,39.9,22.2z"/>
	<rect x="53.2" y="33.5" fill="#072946" width="1.2" height="1.5"/>
	<rect x="55.1" y="33.5" fill="#072946" width="1.2" height="1.5"/>
</g>
</svg>
