<svg version="1.1"  xmlns="http://www.w3.org/2000/svg" xmlns:xlink="http://www.w3.org/1999/xlink" x="0px"
	 y="0px" viewBox="0 0 1096 184.5" enable-background="new 0 0 1096 184.5" xml:space="preserve">
<g>
	<defs>
		<path id="SVGID_11_" d="M122.6,26.7c-9.1,4.1-20.1,0-24.7,4.1c-4.6,4.1-4.6,19.4-11.9,22.4c-7.3,3.1-26.5,1-32.9-4.1
			c-6.4-5.1-13.7-10.2-18.3-1c-4.6,9.2-18.3,20.4-23.8,14.3C9.6,60.7,5.3,58.6,0,56.5v127.9h649.7h21h86.8h24.5H1096V73.2
			c-13.3,1.5-27.1,2.2-32.2-0.6c-11-6.1-40.2-7.1-56.7-6.1c-11.9,0.7-33.9-0.7-50.4-5.4c-6.2-1.8-11.6-4-15.4-6.8
			c-1.2-0.9-2.3-1.6-3.4-2.3c-11.3-6.9-20.2-4.4-28.9,2.1c-0.5,0.4-1,0.8-1.5,1.2c-2.5,2-6.3,2.9-10.7,3c-5.8,0.2-12.8-0.8-19.6-1.8
			c-8.9-1.3-17.7-2.5-23.5-1.2c-13.7,3.1-22.8,22.4-40.2,22.4c-8.9,0-26.6-6.4-44.1-11.6c-4.9-1.5-9.9-2.8-14.6-3.9
			c-11.2-2.6-21.2-3.6-27.2-0.8c-10.4,4.9-28.2,17.4-43.5,26.2c-6.6,3.8-12.6,6.9-17.4,8.5c-2.7,0.9-5,1.3-6.7,1
			c-11.9-2-37.5-21.4-56.7-16.3c-19.2,5.1-35.6,37.7-44.8,33.6c-9.1-4.1-19.2-14.3-19.2-14.3s-11,15.3-26.5,4.1
			c-15.5-11.2-29.2-21.4-50.3-18.3c-21,3.1-38.4,13.2-44.8,4.1c-6.4-9.2-18.3-10.2-29.2-10.2c-11,0-38.4-28.5-60.3-28.5
			c-21.9,0-45.7,18.3-53.9,16.3c-8.2-2-27.4-25.5-36.6-38.7c-9.1-13.2-21.9-9.2-30.2-7.1c-8.2,2-11.9-18.3-34.7-21.4
			C171.6,0.1,170.3,0,169,0C148,0,131.2,22.9,122.6,26.7"/>
	</defs>
	<linearGradient id="SVGID_22_" gradientUnits="userSpaceOnUse" x1="548" y1="184.4888" x2="548" y2="1.701301e-008">
		<stop  offset="0" style="stop-color:#41A4B3"/>
		<stop  offset="1" style="stop-color:#067085"/>
	</linearGradient>
	<use xlink:href="#SVGID_11_"  overflow="visible" fill="url(#SVGID_22_)"/>
	<clipPath id="SVGID_3_">
		<use xlink:href="#SVGID_11_"  overflow="visible"/>
	</clipPath>
	<linearGradient id="SVGID_44_" gradientUnits="userSpaceOnUse" x1="548" y1="184.4888" x2="548" y2="-2.460365e-008">
		<stop  offset="0" style="stop-color:#41A4B3"/>
		<stop  offset="1" style="stop-color:#067085"/>
	</linearGradient>
	<rect clip-path="url(#SVGID_3_)" fill="url(#SVGID_44_)" width="1096" height="184.5"/>
</g>
</svg>
