<?xml version="1.0" encoding="utf-8"?>
<!-- Generator: Adobe Illustrator 19.0.0, SVG Export Plug-In . SVG Version: 6.00 Build 0)  -->
<svg version="1.1" id="Isolation_Mode" xmlns="http://www.w3.org/2000/svg" xmlns:xlink="http://www.w3.org/1999/xlink" x="0px"
	 y="0px" viewBox="0 0 113.9 59.9" enable-background="new 0 0 113.9 59.9" xml:space="preserve">
<path fill="#F1F3EE" d="M97,24.4L97,24.4L97,24.4C97,17,89.4,11.1,80,11.1c-2,0-3.9,0.3-5.7,0.8C73.4,5.2,66.2,0,57.5,0
	c-8.9,0-16.2,5.4-16.9,12.2c-2-0.7-4.3-1.1-6.7-1.1c-9.4,0-16.9,5.9-16.9,13.3C7.6,24.4,0,30.3,0,37.7C0,45,7.6,50.9,16.9,50.9
	c3.7,0,7.1-0.9,9.9-2.5c1.1,6.5,8.2,11.5,16.8,11.5c7.9,0,14.5-4.2,16.4-10c3,3.7,8.3,6.2,14.3,6.2c6.3,0,11.8-2.7,14.7-6.7
	c2.4,1,5,1.5,7.9,1.5c9.4,0,16.9-5.9,16.9-13.3S106.4,24.4,97,24.4z"/>
</svg>
