<?xml version="1.0" encoding="utf-8"?>
<!-- Generator: Adobe Illustrator 19.0.0, SVG Export Plug-In . SVG Version: 6.00 Build 0)  -->
<svg version="1.1" id="Isolation_Mode" xmlns="http://www.w3.org/2000/svg" xmlns:xlink="http://www.w3.org/1999/xlink" x="0px"
	 y="0px" viewBox="0 0 1639.2 107.8" enable-background="new 0 0 1639.2 107.8" xml:space="preserve">
<g>
	<path display="none" fill="#108892" d="M1638.4,0c-1.1,10.9-20.3,19.6-36.9,19.6c-16.7,0-30.3-8.7-31.4-19.6h-0.2
		c-1.1,10.9-14.7,19.6-31.4,19.6c-16.7,0-30.3-8.7-31.4-19.6h-0.2c-1.1,10.9-14.7,19.6-31.4,19.6c-16.7,0-30.3-8.7-31.4-19.6h-0.2
		c-1.1,10.9-14.7,19.6-31.4,19.6c-16.7,0-30.3-8.7-31.4-19.6h-0.2c-1.1,10.9-14.7,19.6-31.4,19.6c-16.7,0-30.3-8.7-31.4-19.6h-0.2
		c-1.1,10.9-14.7,19.6-31.4,19.6c-16.7,0-30.3-8.7-31.4-19.6h-0.2c-1.1,10.9-14.7,19.6-31.4,19.6S1193.1,10.9,1192,0h-0.2
		c-1.1,10.9-14.7,19.6-31.4,19.6S1130.1,10.9,1129,0h-0.2c-1.1,10.9-14.7,19.6-31.4,19.6S1067.1,10.9,1066,0h-0.2
		c-1.1,10.9-14.7,19.6-31.4,19.6S1004.1,10.9,1003,0h-0.2c-1.1,10.9-14.7,19.6-31.4,19.6c-16.7,0-30.3-8.7-31.4-19.6h-0.2
		c-1.1,10.9-14.7,19.6-31.4,19.6c-16.7,0-30.3-8.7-31.4-19.6h-0.2c-1.1,10.9-14.7,19.6-31.4,19.6c-10.6,0-19.9-3.5-25.6-8.8v-0.4
		c-0.1,0.1-0.1,0.1-0.2,0.2c-0.1-0.1-0.1-0.1-0.2-0.2v0.4c-5.7,5.3-15.1,8.8-25.6,8.8c-16.7,0-30.3-8.7-31.4-19.6h-0.2
		c-1.1,10.9-14.7,19.6-31.4,19.6S700.4,10.9,699.3,0h-0.2c-1.1,10.9-14.7,19.6-31.4,19.6S637.4,10.9,636.3,0h-0.2
		c-1.1,10.9-14.7,19.6-31.4,19.6S574.4,10.9,573.3,0h-0.2c-1.1,10.9-14.7,19.6-31.4,19.6S511.4,10.9,510.3,0h-0.2
		c-1.1,10.9-14.7,19.6-31.4,19.6c-16.7,0-30.3-8.7-31.4-19.6h-0.2c-1.1,10.9-14.7,19.6-31.4,19.6c-16.7,0-30.3-8.7-31.4-19.6h-0.2
		c-1.1,10.9-14.7,19.6-31.4,19.6c-16.7,0-30.3-8.7-31.4-19.6h-0.2c-1.1,10.9-14.7,19.6-31.4,19.6c-16.7,0-30.3-8.7-31.4-19.6h-0.2
		c-1.1,10.9-14.7,19.6-31.4,19.6c-16.7,0-30.3-8.7-31.4-19.6h-0.2c-1.1,10.9-14.7,19.6-31.4,19.6c-16.7,0-30.3-8.7-31.4-19.6h-0.2
		c-1.1,10.9-14.7,19.6-31.4,19.6c-16.7,0-30.3-8.7-31.4-19.6h-0.2c-1.1,10.9-14.7,19.6-31.4,19.6C21.1,19.6,1.9,10.9,0.8,0l0,0
		v107.8h818.6h0.4h818.6V0L1638.4,0z"/>
	<path fill="#11949E" d="M1638.4,67c-16.7,0-38.4-8.7-39.4-19.6h-0.2c-1.1,11-14.7,19.6-31.4,19.6s-30.3-8.7-31.4-19.6h-0.2
		c-1.1,11-14.7,19.6-31.4,19.6s-30.3-8.7-31.4-19.6h-0.2c-1.1,11-14.7,19.6-31.4,19.6c-12.3,0-23-4.7-28.1-11.6l-3.3-8c0,0,0,0,0,0
		c0,0-0.6,2.7-1.1,4c-3.6,9-15.8,15.6-30.4,15.6c-16.7,0-30.3-8.7-31.4-19.6h-0.2c0,0,0,0,0,0h0c-0.1,1.4-0.5,2.7-1,4
		c-3.6,9-15.8,15.6-30.4,15.6c-16.7,0-30.3-8.7-31.4-19.6h-0.2c0,0,0,0,0,0h0c-0.1,1.4-0.5,2.7-1,4c-3.6,9-15.8,15.6-30.4,15.6
		c-16.7,0-30.3-8.7-31.4-19.6h-0.2c0,0,0,0,0,0h0c-0.1,1.4-0.5,2.7-1,4c-3.6,9-15.8,15.6-30.4,15.6c-16.7,0-30.3-8.7-31.4-19.6h-0.2
		c0,0,0,0,0,0h0c-0.1,1.4-0.5,2.7-1,4c-3.6,9-15.8,15.6-30.4,15.6c-16.7,0-30.3-8.7-31.4-19.6h-0.2c0,0,0,0,0,0h0
		c-0.1,1.4-0.5,2.7-1,4c-3.6,9-15.8,15.6-30.4,15.6c-16.7,0-30.3-8.7-31.4-19.6h-0.2c0,0,0,0,0,0h0c-0.1,1.4-0.5,2.7-1,4
		c-3.6,9-15.8,15.6-30.4,15.6c-16.7,0-30.3-8.7-31.4-19.6h-0.2c0,0,0,0,0,0h0c-0.1,1.4-0.5,2.7-1,4c-3.6,9-15.8,15.6-30.4,15.6
		c-16.7,0-30.3-8.7-31.4-19.6h-0.2c0,0,0,0,0,0h0c-0.1,1.4-0.5,2.7-1,4c-3.6,9-15.8,15.6-30.4,15.6c-10.8,0-20.4-3.7-26.1-9.2v0
		c-3.1-3-5-6.6-5.4-10.4h-0.2c-0.9,9.1-10.4,16.6-23.2,18.9c-12.7-2.3-22.3-9.8-23.2-18.9h-0.2c-0.4,3.8-2.3,7.4-5.4,10.4v0
		c-5.7,5.6-15.2,9.2-26.1,9.2c-14.6,0-26.9-6.6-30.4-15.6c-0.5-1.3-0.8-2.6-1-4h0c0,0,0,0,0,0h-0.2c-1.1,11-14.7,19.6-31.4,19.6
		c-14.6,0-26.9-6.6-30.4-15.6c-0.5-1.3-0.8-2.6-1-4h0c0,0,0,0,0,0h-0.2c-1.1,11-14.7,19.6-31.4,19.6c-14.6,0-26.9-6.6-30.4-15.6
		c-0.5-1.3-0.8-2.6-1-4h0c0,0,0,0,0,0h-0.2c-1.1,11-14.7,19.6-31.4,19.6c-14.6,0-26.9-6.6-30.4-15.6c-0.5-1.3-0.8-2.6-1-4h0
		c0,0,0,0,0,0h-0.2c-1.1,11-14.7,19.6-31.4,19.6c-14.6,0-26.9-6.6-30.4-15.6c-0.5-1.3-0.8-2.6-1-4h0c0,0,0,0,0,0h-0.2
		c-1.1,11-14.7,19.6-31.4,19.6c-14.6,0-26.9-6.6-30.4-15.6c-0.5-1.3-0.8-2.6-1-4h0c0,0,0,0,0,0h-0.2c-1.1,11-14.7,19.6-31.4,19.6
		c-14.6,0-26.9-6.6-30.4-15.6c-0.5-1.3-0.8-2.6-1-4h0c0,0,0,0,0,0h-0.2c-1.1,11-14.7,19.6-31.4,19.6c-14.6,0-26.9-6.6-30.4-15.6
		c-0.5-1.3-0.8-2.6-1-4h0c0,0,0,0,0,0h-0.2c-1.1,11-14.7,19.6-31.4,19.6c-14.6,0-26.9-6.6-30.4-15.6c-0.5-1.3-0.8-2.6-1-4h0
		c0,0,0,0,0,0h-0.2c0,0,0,0,0,0l-3.3,8c-5.2,6.9-15.8,11.6-28.1,11.6c-16.7,0-30.3-8.7-31.4-19.6h-0.2c-1.1,11-14.7,19.6-31.4,19.6
		s-30.3-8.7-31.4-19.6h-0.2C102.2,58.3,88.5,67,71.8,67c-16.7,0-30.3-8.7-31.4-19.6h-0.2C39.2,58.3,17.5,67,0.8,67
		c-2.8,0,2.6-0.2,0-0.7v41.6h1637.6V66.3C1635.8,66.7,1641.2,67,1638.4,67z"/>
</g>
</svg>
