<?xml version="1.0" encoding="utf-8"?>
<!-- Generator: Adobe Illustrator 19.0.0, SVG Export Plug-In . SVG Version: 6.00 Build 0)  -->
<svg version="1.1" id="Layer_1" xmlns="http://www.w3.org/2000/svg" xmlns:xlink="http://www.w3.org/1999/xlink" x="0px" y="0px"
	 viewBox="37 4.9 26.1 31.6" enable-background="new 37 4.9 26.1 31.6" xml:space="preserve">
<g>
	<path fill="#C1E8E6" d="M51.4,32.6c0.3,0.3,0.6,0.7,0.7,1.1c1.9-0.8,3.1-2.7,3.1-4.7c0-0.4-0.3-0.7-0.7-0.7c-0.4,0-0.7,0.3-0.7,0.7
		C53.9,30.7,52.9,32.1,51.4,32.6z"/>
	<path fill="#FFFFFF" d="M53.1,28c-1.1,0.6-2.2,0.9-3.1,0.9c-0.9,0-2-0.3-3.1-0.9V29c0,1.7,1.4,3.1,3.1,3.1c1.7,0,3.1-1.4,3.1-3.1
		V28z"/>
	<path fill="#FFFFFF" d="M59.7,16.9c0-0.4-0.3-0.8-0.8-0.8h-0.8v0.4h0.2c0.6,0,0.9,0.4,0.9,1c0,0.1,0,0.3,0,0.3
		c0,0.2-0.2,0.4-0.4,0.4c0,0,0,0,0,0c-0.2,0-0.4-0.2-0.4-0.4c0,0,0-0.1,0-0.2c0-0.2,0-0.2-0.1-0.2h-0.2v2.6h0.2
		C58.7,19.9,59.7,19.9,59.7,16.9z"/>
	<path fill="#FFFFFF" d="M40.3,16.9c0,3,0.9,3,1.3,3h0.2v-2.6h-0.2c-0.1,0-0.1,0-0.1,0.2c0,0.1,0,0.2,0,0.2c0,0.2-0.1,0.4-0.4,0.4
		c0,0,0,0,0,0c-0.2,0-0.4-0.2-0.4-0.4c0,0,0-0.2,0-0.3c0-0.6,0.4-1,0.9-1h0.2v-0.4h-0.7C40.7,16.1,40.3,16.5,40.3,16.9z"/>
	<path fill="#C1E8E6" d="M56,29.4c-0.1,2.4-1.7,4.5-4.1,5.3c0,0-0.1,0-0.1,0c-0.1,0-0.2,0-0.2-0.1c-0.1-0.1-0.2-0.2-0.2-0.3
		c0-0.8-0.6-1.4-1.4-1.4c-0.8,0-1.4,0.6-1.4,1.4c0,0.1-0.1,0.3-0.2,0.3c-0.1,0.1-0.2,0.1-0.4,0.1c-2.3-0.8-3.9-2.9-4.1-5.3
		c-3.4,0.2-6,2.9-6.2,6.3H41c0.1-0.9,0.4-1.8,0.9-2.5c0.1-0.2,0.4-0.2,0.6-0.1c0.2,0.1,0.2,0.4,0.1,0.6c-0.4,0.6-0.7,1.3-0.7,2.1
		h7.8v-1.7c0-0.2,0.2-0.4,0.4-0.4c0.2,0,0.4,0.2,0.4,0.4v1.7h7.8c-0.1-0.7-0.3-1.5-0.7-2.1c-0.1-0.2-0.1-0.4,0.1-0.6
		c0.2-0.1,0.4-0.1,0.6,0.1c0.5,0.8,0.8,1.6,0.9,2.5v0h3.3C62,32.3,59.3,29.6,56,29.4z"/>
	<path fill="#C1E8E6" d="M47.9,33.8c0.1-0.4,0.4-0.8,0.7-1.1c-1.4-0.6-2.5-2-2.5-3.6c0,0,0,0,0,0c0-0.4-0.3-0.7-0.7-0.7
		c-0.4,0-0.7,0.3-0.7,0.7C44.8,31.1,46,32.9,47.9,33.8z"/>
	<path fill="#FFFFFF" d="M57.4,21.3v-5.6c0-2.3-1.4-4.5-3.5-5.4c-1,0.6-2.4,0.9-3.9,0.9c-1.5,0-2.9-0.3-3.9-0.9
		c-2.1,1-3.5,3.1-3.5,5.4l0,0l0,5.6c0,3.1,4.5,6.8,7.4,6.8C52.8,28.1,57.4,24.4,57.4,21.3z M54.1,17.6c-0.5,0-0.9-0.4-0.9-0.9
		c0-0.5,0.4-0.9,0.9-0.9c0.5,0,0.9,0.4,0.9,0.9C55,17.2,54.6,17.6,54.1,17.6z M51.8,14.4c0.6-0.4,2.2-1.2,4.6,0.2
		c0.2,0.1,0.3,0.4,0.1,0.5c-0.1,0.1-0.2,0.2-0.3,0.2c-0.1,0-0.1,0-0.2-0.1c-1.9-1.1-3.1-0.6-3.7-0.2c-0.2,0.1-0.4,0.1-0.6-0.1
		C51.6,14.8,51.6,14.6,51.8,14.4z M51.7,20.2c-0.2-0.2-0.2-0.4,0-0.6c0.2-0.2,0.4-0.2,0.6,0c0.2,0.2,0.3,0.5,0.3,0.8
		c0,0.3-0.1,0.6-0.3,0.8c-0.1,0.1-0.2,0.1-0.3,0.1c-0.1,0-0.2,0-0.3-0.1c-0.2-0.2-0.2-0.4,0-0.6c0.1-0.1,0.1-0.2,0.1-0.3
		C51.9,20.4,51.8,20.3,51.7,20.2z M50.3,15.6c0-0.2,0.2-0.4,0.4-0.4c0.2,0,0.4,0.2,0.4,0.4v3.6c0,0.2-0.2,0.4-0.4,0.4
		c-0.2,0-0.4-0.2-0.4-0.4V15.6z M48.6,20.3c0.2-0.2,0.4-0.2,0.6,0c0.5,0.5,1.2,0.5,1.6,0c0.2-0.2,0.4-0.2,0.6,0
		c0.2,0.2,0.2,0.4,0,0.6c-0.4,0.4-0.9,0.6-1.4,0.6c-0.5,0-1-0.2-1.4-0.6C48.5,20.7,48.5,20.5,48.6,20.3z M48.3,20.8
		c0.2,0.2,0.2,0.4,0,0.6c-0.1,0.1-0.2,0.1-0.3,0.1c-0.1,0-0.2,0-0.3-0.1c-0.5-0.5-0.5-1.2,0-1.7c0.2-0.2,0.4-0.2,0.6,0
		c0.2,0.2,0.2,0.4,0,0.6C48.1,20.4,48.1,20.6,48.3,20.8z M44,15.3c-0.1,0-0.1,0.1-0.2,0.1c-0.1,0-0.3-0.1-0.3-0.2
		c-0.1-0.2,0-0.4,0.1-0.5c2.3-1.4,4-0.6,4.6-0.2c0.2,0.1,0.2,0.4,0.1,0.6c-0.1,0.2-0.4,0.2-0.6,0.1C47.2,14.7,45.9,14.2,44,15.3z
		 M45.9,17.6c-0.5,0-0.9-0.4-0.9-0.9c0-0.5,0.4-0.9,0.9-0.9c0.5,0,0.9,0.4,0.9,0.9C46.8,17.2,46.4,17.6,45.9,17.6z M47,22.8
		c0.1-0.2,0.4-0.3,0.5-0.2c1.5,0.8,3.4,0.8,4.9,0c0.2-0.1,0.4,0,0.5,0.2c0.1,0.2,0,0.4-0.2,0.5C52,23.8,51,24.1,50,24.1
		c-1,0-2-0.2-2.9-0.7C47,23.2,46.9,23,47,22.8z M48.7,25.1c0-0.2,0.2-0.4,0.4-0.4h1.8c0.2,0,0.4,0.2,0.4,0.4c0,0.2-0.2,0.4-0.4,0.4
		h-1.8C48.9,25.5,48.7,25.3,48.7,25.1z"/>
	<path fill="#072946" d="M47.7,15.1c0.2,0.1,0.4,0.1,0.6-0.1c0.1-0.2,0.1-0.4-0.1-0.6c-0.6-0.4-2.2-1.2-4.6,0.2
		c-0.2,0.1-0.3,0.4-0.1,0.5c0.1,0.1,0.2,0.2,0.3,0.2c0.1,0,0.1,0,0.2-0.1C45.9,14.2,47.2,14.7,47.7,15.1z"/>
	<path fill="#072946" d="M52.9,23.3c0.2-0.1,0.3-0.4,0.2-0.5c-0.1-0.2-0.4-0.3-0.5-0.2c-1.5,0.8-3.4,0.8-4.9,0
		c-0.2-0.1-0.4,0-0.5,0.2c-0.1,0.2,0,0.4,0.2,0.5c0.9,0.5,1.9,0.7,2.9,0.7C51,24.1,52,23.8,52.9,23.3z"/>
	<circle fill="#072946" cx="45.9" cy="16.7" r="0.9"/>
	<path fill="#072946" d="M51.3,25.1c0-0.2-0.2-0.4-0.4-0.4h-1.8c-0.2,0-0.4,0.2-0.4,0.4c0,0.2,0.2,0.4,0.4,0.4h1.8
		C51.1,25.5,51.3,25.3,51.3,25.1z"/>
	<path fill="#072946" d="M55.9,28.6c-0.2-0.6-0.7-1-1.4-1c-0.2,0-0.5,0.1-0.7,0.2v-0.2c2.3-1.5,4.3-4,4.3-6.2v-0.6h0.2
		c1.4,0,2.1-1.2,2.1-3.8c0-0.9-0.7-1.6-1.5-1.6h-0.1v-0.6c0-2.4-0.5-4.2-1.5-5.6c0.2-0.3,0.5-0.8,0.4-1.4c0-0.1-0.1-0.2-0.1-0.3
		c-0.1-0.1-0.2-0.1-0.3-0.1c0,0,0,0-0.2,0c-0.3,0-1.5,0-2.4-0.6c-1.2-0.7-3-1.4-4.6-1.4c-0.3,0-0.6,0-0.8,0.1
		c-0.5,0.1-1,0.1-1.4,0.1c-1.8,0-2.7-0.6-2.7-0.6c-0.2-0.1-0.4-0.1-0.6,0.1c-0.5,0.7-0.3,1.5-0.1,2c-0.5,0.3-1.2,0.3-1.5,0.3
		c-0.2,0-0.3,0-0.3,0c-0.2,0-0.4,0.1-0.4,0.4c-0.1,0.6,0.2,1,0.4,1.2c-1.1,1.4-1.7,3.3-1.7,5.8v0.6h0c-0.9,0-1.6,0.7-1.6,1.6
		c0,2.6,0.7,3.8,2.1,3.8h0.2v0.6c0,2.2,2,4.7,4.3,6.2v0.2c-0.2-0.1-0.4-0.2-0.7-0.2c-0.7,0-1.2,0.4-1.4,1c-4,0.2-7.1,3.5-7.1,7.5
		c0,0.2,0.2,0.4,0.4,0.4h25.3c0.2,0,0.4-0.2,0.4-0.4C63,32.1,59.9,28.8,55.9,28.6z M58.2,17.4h0.2c0.1,0,0.1,0,0.1,0.2
		c0,0.1,0,0.2,0,0.2c0,0.2,0.1,0.4,0.4,0.4c0,0,0,0,0,0c0.2,0,0.4-0.2,0.4-0.4c0,0,0-0.2,0-0.3c0-0.6-0.4-1-0.9-1h-0.2v-0.4h0.8
		c0.4,0,0.8,0.3,0.8,0.8c0,3-0.9,3-1.3,3h-0.2V17.4z M53.9,29c0-0.4,0.3-0.7,0.7-0.7c0.4,0,0.7,0.3,0.7,0.7c0,2.1-1.2,3.9-3.1,4.7
		c-0.1-0.4-0.4-0.8-0.7-1.1C52.9,32.1,53.9,30.7,53.9,29z M50,32.1c-1.7,0-3.1-1.4-3.1-3.1V28c1.1,0.6,2.2,0.9,3.1,0.9
		c0.9,0,2-0.3,3.1-0.9V29C53.1,30.7,51.7,32.1,50,32.1z M41.8,16.6h-0.2c-0.6,0-0.9,0.4-0.9,1c0,0.1,0,0.3,0,0.3
		c0,0.2,0.2,0.4,0.4,0.4c0,0,0,0,0,0c0.2,0,0.4-0.2,0.4-0.4c0,0,0-0.1,0-0.2c0-0.2,0-0.2,0.1-0.2h0.2v2.6h-0.2c-0.3,0-1.3,0-1.3-3
		c0-0.4,0.3-0.8,0.8-0.8h0.7V16.6z M42.6,21.3l0-5.6l0,0c0-2.3,1.4-4.5,3.5-5.4c1,0.6,2.4,0.9,3.9,0.9c1.5,0,2.9-0.3,3.9-0.9
		c2.1,1,3.5,3.1,3.5,5.4v5.6c0,3.1-4.5,6.8-7.4,6.8C47.2,28.1,42.6,24.4,42.6,21.3z M45.5,28.4c0.4,0,0.7,0.3,0.7,0.7c0,0,0,0,0,0
		c0,1.6,1,3,2.5,3.6c-0.3,0.3-0.6,0.7-0.7,1.1c-1.9-0.8-3.1-2.7-3.1-4.7C44.8,28.7,45.1,28.4,45.5,28.4z M59,35.7L59,35.7
		c-0.1-0.9-0.4-1.8-0.9-2.5C58,33,57.7,33,57.5,33.1c-0.2,0.1-0.2,0.4-0.1,0.6c0.4,0.6,0.7,1.3,0.7,2.1h-7.8v-1.7
		c0-0.2-0.2-0.4-0.4-0.4c-0.2,0-0.4,0.2-0.4,0.4v1.7h-7.8c0.1-0.7,0.3-1.5,0.7-2.1c0.1-0.2,0.1-0.4-0.1-0.6C42.3,33,42,33,41.9,33.2
		c-0.5,0.8-0.8,1.6-0.9,2.5h-3.3c0.2-3.4,2.9-6.1,6.2-6.3c0.2,2.4,1.7,4.5,4.1,5.3c0.1,0,0.3,0,0.4-0.1c0.1-0.1,0.2-0.2,0.2-0.3
		c0-0.8,0.6-1.4,1.4-1.4c0.8,0,1.4,0.6,1.4,1.4c0,0.1,0.1,0.3,0.2,0.3c0.1,0,0.2,0.1,0.2,0.1c0,0,0.1,0,0.1,0
		c2.3-0.8,3.9-2.9,4.1-5.3c3.4,0.2,6,3,6.2,6.3H59z"/>
	<circle fill="#072946" cx="54.1" cy="16.7" r="0.9"/>
	<path fill="#072946" d="M52.3,15.1c0.6-0.4,1.8-0.9,3.7,0.2c0.1,0,0.1,0.1,0.2,0.1c0.1,0,0.3-0.1,0.3-0.2c0.1-0.2,0-0.4-0.1-0.5
		c-2.3-1.4-4-0.6-4.6-0.2c-0.2,0.1-0.2,0.4-0.1,0.6C51.8,15.2,52.1,15.2,52.3,15.1z"/>
	<path fill="#072946" d="M51.7,21.3c0.1,0.1,0.2,0.1,0.3,0.1c0.1,0,0.2,0,0.3-0.1c0.2-0.2,0.3-0.5,0.3-0.8c0-0.3-0.1-0.6-0.3-0.8
		c-0.2-0.2-0.4-0.2-0.6,0c-0.2,0.2-0.2,0.4,0,0.6c0.1,0.1,0.1,0.2,0.1,0.3c0,0.1,0,0.2-0.1,0.3C51.6,20.9,51.6,21.2,51.7,21.3z"/>
	<path fill="#072946" d="M50,21.5c0.5,0,1-0.2,1.4-0.6c0.2-0.2,0.2-0.4,0-0.6c-0.2-0.2-0.4-0.2-0.6,0c-0.5,0.5-1.2,0.5-1.6,0
		c-0.2-0.2-0.4-0.2-0.6,0c-0.2,0.2-0.2,0.4,0,0.6C49,21.3,49.5,21.5,50,21.5z"/>
	<path fill="#072946" d="M50.7,19.6c0.2,0,0.4-0.2,0.4-0.4v-3.6c0-0.2-0.2-0.4-0.4-0.4c-0.2,0-0.4,0.2-0.4,0.4v3.6
		C50.3,19.4,50.5,19.6,50.7,19.6z"/>
	<path fill="#072946" d="M48.3,19.7c-0.2-0.2-0.4-0.2-0.6,0c-0.5,0.5-0.5,1.2,0,1.7c0.1,0.1,0.2,0.1,0.3,0.1c0.1,0,0.2,0,0.3-0.1
		c0.2-0.2,0.2-0.4,0-0.6c-0.2-0.2-0.2-0.4,0-0.5C48.4,20.1,48.4,19.8,48.3,19.7z"/>
</g>
</svg>
