<?xml version="1.0" encoding="utf-8"?>
<!-- Generator: Adobe Illustrator 19.0.0, SVG Export Plug-In . SVG Version: 6.00 Build 0)  -->
<svg version="1.1" id="Layer_1" xmlns="http://www.w3.org/2000/svg" xmlns:xlink="http://www.w3.org/1999/xlink" x="0px" y="0px"
	 viewBox="34.3 0 31.3 38.1" enable-background="new 34.3 0 31.3 38.1" xml:space="preserve">
<g>
	<path fill="#072946" d="M65.5,28.7c-0.2-0.3-0.8,0.1-0.8,0.1c0,0-0.2,0.1-1.1,0.5V0.5c0-0.3-0.2-0.5-0.6-0.5h-2
		c-0.4,0-0.6,0.2-0.6,0.5v0c-1.9,1-15.4,10.1-21.3,27.1h-1.1c-0.3,0-0.6,0.3-0.6,0.6c0,0.3,0.2,0.7,0.5,0.7h9.6l0.3,1.8H35
		c-0.4,0-0.7,0.2-0.7,0.6v2.4c0,0.3,0.2,0.5,0.4,0.6v2.9c0,0.2,0.1,0.4,0.3,0.5c0.2,0.1,0.4,0.1,0.6,0l1.8-0.9
		c0.2-0.1,0.4-0.3,0.4-0.6v-0.4c0.9,1,2.3,2.3,4.3,2.3h12.5c5.8,0,8.9-2.6,9-2.8c0.1-0.1,0.1-0.1,1.9-6
		C65.7,29.1,65.6,28.9,65.5,28.7z M60.3,30c-2.2,0.4-4.9,0.8-6.9,0.8H49L48.7,29h11.6V30z"/>
	<path fill="#FFFFFF" d="M47.7,14.3c-4.1,5.6-5.2,8.7-7.4,13.4h20V14.3H47.7z"/>
	<path fill="#FFFFFF" d="M62.3,1.2h-0.9l0,28.6c0.1,0,0.8-0.2,0.9-0.2V1.2z"/>
	<path fill="#FFFFFF" d="M60.3,2C58.7,2.9,53.5,7,48.7,13h11.5V2z"/>
	<path fill="#C1E8E6" d="M64,30.2c-1.9,0.6-5.8,1.7-10.6,1.7H37.2c0.1,0.7,0.4,1.7,1.1,2.5h16.4c4.7,0,8.2-2.4,8.9-3L64,30.2z"/>
	<polygon fill="#FFFFFF" points="36.5,34.3 36.1,34.3 36.1,36.1 36.5,35.9 	"/>
	<path fill="#C1E8E6" d="M39.7,35.6c0.6,0.6,1.5,1.4,2.4,1.4h12.5c4.5,0,7.3-1.9,8-2.4l0.4-1.4c-1.6,1-4.7,2.4-8.5,2.4H39.7z"/>
	<path fill="#FFFFFF" d="M36.2,33.2c-0.1-0.5-0.2-0.9-0.3-1.2h-0.2v1.2H36.2z"/>
</g>
</svg>
