<?xml version="1.0" encoding="utf-8"?>
<!-- Generator: Adobe Illustrator 19.0.0, SVG Export Plug-In . SVG Version: 6.00 Build 0)  -->
<svg version="1.1" id="Layer_1" xmlns="http://www.w3.org/2000/svg" xmlns:xlink="http://www.w3.org/1999/xlink" x="0px" y="0px"
	 viewBox="53.8 7.6 151.8 126" style="enable-background:new 53.8 7.6 151.8 126;" xml:space="preserve">
<style type="text/css">
	.st0{fill:#B8DBDD;}
	.st1{fill:#FFFFFF;}
	.st2{fill:#30889C;}
</style>
<g>
	<polygon class="st0" points="112.9,129.8 67.5,121.8 67.5,11.9 112.9,19.9 	"/>
	<polygon class="st0" points="203.6,129.8 158.2,121.8 158.2,11.9 203.6,19.9 	"/>
	<polygon class="st1" points="104.9,129.8 150.2,121.8 150.2,11.9 104.9,19.9 	"/>
	<circle class="st1" cx="81.8" cy="107.9" r="5.2"/>
	<circle class="st1" cx="171.8" cy="34.8" r="5.2"/>
	<g>
		<path class="st2" d="M196.1,17.1l-45.4-8c-0.3-0.1-0.7-0.1-1,0L104.9,17L60,9.1c-0.8-0.1-1.7,0.1-2.3,0.6c-0.6,0.5-1,1.3-1,2.2
			v109.9c0,1.4,1,2.5,2.3,2.8l45.4,8c0.3,0.1,0.7,0.1,1,0l44.9-7.9l44.9,7.9c0.2,0,0.3,0,0.5,0c0.7,0,1.3-0.2,1.8-0.7
			c0.6-0.5,1-1.3,1-2.2V19.9C198.4,18.5,197.4,17.4,196.1,17.1z M153.1,74.1L153.1,74.1c0.3,0.1,0.4,0.1,0.6,0.1
			c9.4,0,16.7,10.5,16.7,19.5v0.2c0,4-1.3,6.5-4.2,8.1c-2.7,1.5-6.7,2.2-12.3,2.2l-0.7-0.1V74.1L153.1,74.1z M147.4,68.4l-9.6,1.7
			c-5.2,0.6-9.4-0.5-12.2-3c-2.7-2.4-4.1-6.2-4.1-10.9c0-9.8,6.3-17.3,16.5-19.8l3.8-0.5c1.5-0.2,2.6-1.7,2.4-3.2
			c-0.2-1.5-1.7-2.6-3.2-2.4l-4,0.6c-0.1,0-0.2,0-0.3,0c-6.3,1.5-11.7,4.7-15.4,9.3c-3.6,4.5-5.6,10-5.6,16.1c0,6.4,2.1,11.6,6,15.1
			c4,3.6,9.8,5.1,16.7,4.4c0.1,0,0.1,0,0.2,0l8.8-1.5v30.2l-39.7,6.7V22.3l39.7-7V68.4L147.4,68.4z M62.3,15.3l39.7,7v88.5
			l-12.3-3.2c-0.2-4.2-3.7-7.6-8-7.6c-4.4,0-8,3.6-8,8c0,4.4,3.6,8,8,8c2.5,0,4.7-1.2,6.2-3l14.1,3.7v9.9l-39.7-7V15.3z M84.1,107.9
			c0,1.3-1,2.3-2.3,2.3s-2.3-1-2.3-2.3c0-1.3,1-2.3,2.3-2.3S84.1,106.6,84.1,107.9z M107.7,116.7l39.7-6.7v9.4l-39.7,7V116.7z
			 M192.8,126.5l-39.7-7v-9.7l0.4,0c0.1,0,0.1,0,0.2,0c6.8,0,11.6-0.9,15.1-2.9c4.8-2.6,7.2-7,7.2-13.1v-0.2c0-11.8-9.4-25-22-25.2
			l-0.9-0.2V15.3l39.7,7V126.5z"/>
		<path class="st2" d="M70.8,24c-1.6,0-2.8,1.3-2.8,2.8v43.3c0,1.6,1.3,2.8,2.8,2.8c1.6,0,2.8-1.3,2.8-2.8V26.8
			C73.6,25.3,72.4,24,70.8,24z"/>
		<path class="st2" d="M70.8,77.1c-1.6,0-2.8,1.3-2.8,2.8v6.5c0,1.6,1.3,2.8,2.8,2.8c1.6,0,2.8-1.3,2.8-2.8v-6.5
			C73.6,78.3,72.4,77.1,70.8,77.1z"/>
		<path class="st2" d="M158.9,35.3l5.1,0.8c0.7,3.7,3.9,6.6,7.9,6.6c4.4,0,8-3.6,8-8c0-4.4-3.6-8-8-8c-2.9,0-5.4,1.5-6.8,3.8
			l-5.2-0.9c-1.5-0.3-3,0.8-3.2,2.3C156.3,33.6,157.3,35.1,158.9,35.3z M171.8,32.5c1.3,0,2.3,1,2.3,2.3c0,1.3-1,2.3-2.3,2.3
			s-2.3-1-2.3-2.3C169.5,33.5,170.5,32.5,171.8,32.5z"/>
	</g>
</g>
</svg>
