<?xml version="1.0" encoding="utf-8"?>
<!-- Generator: Adobe Illustrator 19.0.0, SVG Export Plug-In . SVG Version: 6.00 Build 0)  -->
<svg version="1.1" id="Layer_1" xmlns="http://www.w3.org/2000/svg" xmlns:xlink="http://www.w3.org/1999/xlink" x="0px" y="0px"
	 viewBox="69.6 6.1 117.3 101" style="enable-background:new 69.6 6.1 117.3 101;" xml:space="preserve">
<style type="text/css">
	.st0{fill:none;}
	.st1{fill:#2F889C;}
	.st2{fill:#B8DBDD;}
	.st3{fill:#FFFFFF;}
</style>
<g>
	<path class="st0" d="M119.5,50.5c1.6,0.7,3.2,1.1,4.8,1.4c1.4,0.2,1.4,0.2,1.4,1.6c0,0.6,0,1.2,0,1.8c0,0.8,0.3,1.2,1.1,1.2
		c0.5,0,0.8,0,1.2,0s0.9,0,1.4,0c0.8,0,1.1-0.5,1.1-1.1c0-0.9,0-1.7,0-2.5c0-0.8,0.3-1.2,1.1-1.5c1.8-0.5,3.4-1.5,4.6-2.9
		c3.3-4.1,2-10.1-2.7-12.4c-1.5-0.9-3.1-1.5-4.6-2.2c-1-0.5-1.8-0.9-2.6-1.5c-1.5-1.2-1.2-3.2,0.6-4c0.6-0.2,1-0.3,1.6-0.3
		c0.2,0,0.5,0,0.7,0c1.8,0,3.5,0.3,5.2,1.1c0.3,0.1,0.6,0.2,0.8,0.2c0.3,0,0.6-0.3,0.8-0.9c0.3-1,0.6-2,0.9-3.1
		c0.2-0.7,0-1.1-0.7-1.5c-1.2-0.6-2.5-0.9-3.7-1.1c-1.7-0.2-1.7-0.2-1.7-1.9c0-2.3,0-2.4-2.2-2.4c0,0-0.1,0-0.2,0
		c-0.2,0-0.5,0-0.7,0c-0.1,0-0.2,0-0.3,0c-1.1,0-1.4,0.2-1.4,1.4c0,0.5,0,1,0,1.5c0,1.6,0,1.5-1.5,2c-3.4,1.2-5.6,3.6-5.8,7.4
		c-0.2,3.4,1.6,5.6,4.3,7.3c1.7,1,3.5,1.6,5.3,2.4c0.7,0.3,1.4,0.7,1.9,1.1c1.7,1.4,1.4,3.7-0.7,4.6c-0.8,0.5-1.6,0.6-2.5,0.6
		c-0.2,0-0.6-0.1-0.9-0.1c-1.8-0.2-3.5-0.7-5.2-1.6c-0.3-0.2-0.6-0.3-0.8-0.3c-0.3,0-0.6,0.2-0.8,0.9c-0.3,0.9-0.6,1.8-0.8,2.7
		C118.3,49.5,118.4,49.9,119.5,50.5z"/>
</g>
<path class="st1" d="M165.5,61.6c-2-1.4-4.3-1.7-7-0.7c-0.8,0.3-2,0.8-3.3,1.3c-2.2,0.8-4.4,1.7-5.8,2.4l-3.1,1.6l3,1.8
	c0.6,0.4,1.3,1,1.8,1.8l1,1.3l1.5-0.7c0.3-0.2,0.6-0.4,0.8-0.5l1.3-0.8c1.4-0.7,3.8-1.8,6-2.7c1.3-0.5,2.5-1,3.4-1.5l3.2-1.4
	L165.5,61.6z"/>
<path class="st1" d="M173.7,66.1c-2-1.4-4.4-1.7-6.9-0.7c-3.7,1.6-10.2,4.8-13.3,6.6l-1.4,0.8l0.5,1.6c0.2,0.5,0.2,1,0.4,1.7l0,6.4
	l3.4-3.4c0.1-0.1,0.4-0.3,0.7-0.5c2.8-2,8.5-5.2,12.9-7.6c1.1-0.5,2.1-1.1,3.3-1.5l3.6-1.3L173.7,66.1z"/>
<g>
	<path class="st2" d="M151.7,19.3c-4.9-4.9-11.4-7.6-18.4-7.6c-14.2,0-25.8,11.6-25.8,25.8c0,14.2,11.6,25.8,25.8,25.8
		c14.2,0,25.8-11.6,25.8-25.8C159.1,30.5,156.5,24.1,151.7,19.3z M142.9,49.7c-1.5,1.7-3.3,2.9-5.3,3.5l0,2.1c0,1.8-1.3,3.1-3.1,3.1
		h-2.6c-1.9,0-3.1-1.3-3.1-3.2v-1.5c-1.6-0.3-3.3-0.7-4.9-1.4l-0.1,0c-2-1-2.6-2.3-1.9-4.4c0.2-0.9,0.5-1.8,0.8-2.8
		c0.6-1.8,1.8-2.2,2.7-2.2c0.7,0,1.3,0.3,1.8,0.6c1.3,0.7,2.7,1.1,4.4,1.3c0.3,0,0.6,0.1,0.8,0.1l0.1,0c0.7,0,1-0.1,1.4-0.3l0.2-0.1
		c0.3-0.1,0.5-0.4,0.6-0.6c0-0.2-0.1-0.4-0.3-0.6c-0.4-0.3-0.9-0.6-1.5-0.9c-0.5-0.2-1.1-0.4-1.6-0.7c-1.3-0.5-2.6-1-3.9-1.8
		c-3.8-2.4-5.5-5.4-5.3-9.1c0.3-4.4,2.7-7.5,7.1-9.1l0.2-0.1c0,0,0-0.1,0-0.1V20c0-2.2,1.1-3.4,3.4-3.4h1.2c3.5,0,4.1,1.3,4.2,4.3
		c1.6,0.3,3,0.7,4.3,1.3c1.6,0.8,2.3,2.3,1.7,3.9c-0.2,0.5-0.3,1-0.4,1.4c-0.2,0.5-0.3,1.1-0.5,1.6l0,0.1c-0.6,1.4-1.5,2.2-2.7,2.2
		c-0.5,0-0.9-0.2-1.2-0.3l-0.4-0.2c-1.4-0.6-2.8-0.9-4.4-0.9h-0.7c-0.2,0-0.4,0-0.8,0.2c-0.2,0.1-0.3,0.2-0.3,0.2c0,0,0,0.1,0.2,0.3
		c0.7,0.5,1.3,0.8,2.2,1.2c0.3,0.1,0.7,0.3,1,0.4c1.2,0.5,2.5,1,3.8,1.8c2.7,1.3,4.7,3.8,5.4,6.7C145.6,44.1,144.9,47.2,142.9,49.7z
		"/>
	<path class="st3" d="M136,41.9c-0.4-1.8-1.6-3.3-3.3-4l-0.2-0.1c-1-0.6-2.1-1.1-3.3-1.6c-0.4-0.1-0.7-0.3-1.1-0.5
		c-1.2-0.5-2.1-1-3-1.7l-0.1-0.1c-1.2-1-1.8-2.5-1.6-4c0.2-1.5,1.2-2.7,2.7-3.3c0.9-0.4,1.6-0.5,2.4-0.5h0.7c1.8,0,3.5,0.3,5.2,0.9
		c0.1-0.2,0.1-0.4,0.2-0.6c0.1-0.3,0.2-0.6,0.3-0.9c-0.8-0.3-1.7-0.5-2.7-0.7c-2.6-0.3-3.3-1.2-3.3-3.9c0-0.1,0-0.3,0-0.4
		c-0.1,0-0.1,0-0.2,0H128v0.8c0,2.1-0.4,3-2.5,3.8l-0.3,0.1c-2.9,1.1-4.3,2.9-4.5,5.6c-0.2,2.3,0.8,3.8,3.4,5.4c1,0.6,2.1,1,3.3,1.5
		c0.6,0.2,1.2,0.5,1.8,0.7l0.1,0c0.7,0.4,1.5,0.8,2.3,1.4c1.3,1.1,2,2.7,1.8,4.3c-0.2,1.6-1.3,3-2.8,3.7c-1.3,0.7-2.5,0.8-3.4,0.8
		c-0.2,0-0.5,0-0.7-0.1c-0.1,0-0.1,0-0.2,0l-0.2,0c-1.9-0.2-3.5-0.7-5-1.4c-0.1,0.5-0.3,0.9-0.4,1.4c1.3,0.5,2.7,0.9,4,1.1
		c2.4,0.4,3.1,1.2,3.1,3.6v1.1h0.9v-1.6c0-1.7,0.9-2.9,2.6-3.4c1.5-0.4,2.7-1.1,3.7-2.3C136,45.7,136.4,43.7,136,41.9z"/>
	<path class="st1" d="M149.5,16.4c-5.6-5.7-13.2-8.8-21.2-8.8c-16.4,0-29.8,13.4-29.8,29.8c0,16.4,13.4,29.8,29.8,29.8
		c16.4,0,29.8-13.4,29.8-29.8C158.1,29.5,155.1,22,149.5,16.4z M128.3,63.2c-14.2,0-25.8-11.6-25.8-25.8c0-14.2,11.6-25.8,25.8-25.8
		c7,0,13.5,2.7,18.4,7.6c4.8,4.8,7.4,11.3,7.4,18.2C154,51.6,142.5,63.2,128.3,63.2z"/>
	<path class="st1" d="M134.6,34.3c-1.3-0.8-2.5-1.3-3.8-1.8c-0.3-0.1-0.7-0.3-1-0.4c-0.9-0.4-1.5-0.7-2.2-1.2
		c-0.2-0.2-0.2-0.3-0.2-0.3c0,0,0.1-0.1,0.3-0.2c0.4-0.2,0.6-0.2,0.8-0.2h0.7c1.6,0,3,0.3,4.4,0.9l0.4,0.2c0.3,0.1,0.7,0.3,1.2,0.3
		c1.2,0,2.1-0.7,2.7-2.2l0-0.1c0.2-0.5,0.3-1.1,0.5-1.6c0.1-0.5,0.3-1,0.4-1.4c0.5-1.6-0.1-3.1-1.7-3.9c-1.3-0.6-2.6-1-4.3-1.3
		c0-3-0.6-4.3-4.2-4.3h-1.2c-2.2,0-3.4,1.1-3.4,3.4v1.5c0,0,0,0.1,0,0.1l-0.2,0.1c-4.4,1.6-6.8,4.8-7.1,9.1
		c-0.3,3.8,1.5,6.7,5.3,9.1c1.3,0.8,2.6,1.3,3.9,1.8c0.5,0.2,1.1,0.4,1.6,0.7c0.6,0.3,1.1,0.6,1.5,0.9c0.2,0.2,0.4,0.4,0.3,0.6
		c0,0.2-0.2,0.5-0.6,0.6l-0.2,0.1c-0.4,0.2-0.8,0.3-1.4,0.3l-0.1,0c-0.2,0-0.4-0.1-0.8-0.1c-1.7-0.2-3.1-0.6-4.4-1.3
		c-0.5-0.3-1.1-0.6-1.8-0.6c-0.9,0-2.1,0.4-2.7,2.2c-0.4,1-0.6,2-0.8,2.8c-0.6,2.1-0.1,3.4,1.9,4.4l0.1,0c1.6,0.7,3.3,1.2,4.9,1.4
		v1.5c0,1.9,1.3,3.2,3.1,3.2h2.6c1.8,0,3.1-1.3,3.1-3.1l0-2.1c2-0.6,3.9-1.8,5.3-3.5c2-2.5,2.7-5.6,2-8.6
		C139.2,38.1,137.3,35.6,134.6,34.3z M131.1,49.4c-1.6,0.5-2.6,1.7-2.6,3.4v1.6h-0.9v-1.1c0-2.3-0.7-3.2-3.1-3.6
		c-1.3-0.2-2.6-0.6-4-1.1c0.1-0.5,0.2-0.9,0.4-1.4c1.5,0.7,3.1,1.1,5,1.4l0.2,0c0.1,0,0.1,0,0.2,0c0.3,0.1,0.5,0.1,0.7,0.1
		c0.9,0,2.1-0.1,3.4-0.8c1.6-0.7,2.6-2.1,2.8-3.7c0.2-1.6-0.5-3.2-1.8-4.3c-0.7-0.6-1.6-1-2.3-1.4l-0.1,0c-0.6-0.3-1.2-0.5-1.8-0.7
		c-1.2-0.5-2.3-0.9-3.3-1.5c-2.5-1.6-3.5-3.2-3.4-5.4c0.2-2.7,1.6-4.6,4.5-5.6l0.3-0.1c2.1-0.8,2.5-1.7,2.5-3.8v-0.8h0.6
		c0,0,0.1,0,0.2,0c0,0.1,0,0.3,0,0.4c0,2.7,0.7,3.5,3.3,3.9c1,0.2,1.9,0.4,2.7,0.7c-0.1,0.3-0.2,0.6-0.3,0.9
		c-0.1,0.2-0.1,0.4-0.2,0.6c-1.6-0.6-3.3-0.9-5.2-0.9h-0.7c-0.8,0-1.5,0.1-2.4,0.5c-1.5,0.7-2.5,1.9-2.7,3.3c-0.2,1.5,0.4,2.9,1.6,4
		l0.1,0.1c0.9,0.7,1.8,1.2,3,1.7c0.4,0.2,0.7,0.3,1.1,0.5c1.2,0.5,2.3,0.9,3.3,1.6l0.2,0.1c1.7,0.8,2.9,2.3,3.3,4
		c0.4,1.8,0,3.7-1.2,5.2C133.8,48.3,132.6,49.1,131.1,49.4z"/>
</g>
<g>
	<path class="st2" d="M183.6,73.4c-1.2,0-4.4,1.6-5.6,2.2c-0.4,0.2-0.7,0.4-1,0.5c-3.9,2-9.6,5.4-13.4,8.1c-0.4,0.3-0.8,0.6-1.3,0.8
		c-1.9,1.2-3.9,2.1-6,2.5c-11.2,2.5-27.1,2.8-27.7,2.8h-0.9c-1.7,0-3.2-1.2-3.4-2.8c-0.1-1,0.1-1.9,0.7-2.6c0.6-0.7,1.3-1.1,2.2-1.3
		l24.1-2.4c1.4-0.2,2.9-1.7,2.6-3.6c-0.2-1.8-1.7-3.1-3.4-3l-0.1,0l-21.5-0.2c-1.7,0-4.1-0.4-5.8-0.9c-3.9-1.2-7.6-1.8-11-1.8
		c-5.9,0-9.8,1.7-12.7,3l-2.4,1l1.6,22.3l42,1.9c4.5,0.4,8.2-0.2,11.5-2l1.1-0.6l30.6-18.6c0.8-0.5,1.6-1.4,1.6-2.6l0-0.3
		c0.1-0.6,0-1.2-0.4-1.6C184.9,73.7,184.3,73.5,183.6,73.4z"/>
	<path class="st3" d="M91.1,75.8l-0.9-1.6c-0.5-0.9-1.5-1.5-2.6-1.5c-0.1,0-0.1,0-0.2,0l-8.8,0.7c-2,0.1-3.4,1.8-3.4,3.8l1.5,21.3
		c0.1,1.9,1.7,3.4,3.7,3.4l0.1,0l9.1-0.7c1.1-0.1,2.1-0.8,2.5-1.8l0.5-1.3L91.1,75.8z"/>
	<path class="st1" d="M84,90.4c-2.9,0-5.2,2.3-5.2,5.2c0,2.9,2.3,5.2,5.2,5.2c2.9,0,5.2-2.3,5.2-5.2C89.2,92.7,86.9,90.4,84,90.4z
		 M82.8,95.6c0-0.6,0.4-1.2,1.2-1.2c0.6,0,1.2,0.4,1.2,1.2c0,0.7-0.5,1.2-1.2,1.2C83.4,96.8,82.8,96.3,82.8,95.6z"/>
	<path class="st1" d="M182.3,71.7c-0.7-0.9-2.1-2.1-4.4-2.2c-2-0.1-4.9,1.2-7.7,2.6c-0.4,0.2-0.7,0.3-0.9,0.5
		c-4.2,2.2-10.1,5.8-14.1,8.5l-0.3,0.2c0,0-0.1,0.1-0.1,0.1l-0.3,0.1l-0.2,0.1c-1.5,1-3.1,1.7-4.9,2.1c-0.1,0-0.2,0-0.2,0.1
		c1.9-1.5,2.9-3.9,2.7-6.5c-0.5-3.9-3.8-6.8-7.6-6.5l-21.4-0.2c-1.3,0-3.4-0.3-4.6-0.7c-4.3-1.3-8.3-1.9-12.1-1.9
		c-6.2,0-10.6,1.7-13.6,3c-1.3-1.3-3.1-2-5-2c-0.1,0-0.3,0-0.4,0l-8.8,0.7c-4.1,0.3-7.2,3.8-7.1,8l1.5,21.3c0.3,4,3.6,7.1,7.7,7.1
		c0.1,0,0.2,0,0.4,0l9.2-0.7c2.1-0.1,4.1-1.3,5.2-3l39.2,1.8c1,0.1,2,0.2,3,0.2c4,0,7.5-0.9,10.9-2.7L180,82.1
		c2.1-1.3,3.5-3.5,3.6-5.8C183.8,74.6,183.3,72.9,182.3,71.7z M89.7,101.2l-9.1,0.7l-0.1,0c-2,0-3.5-1.4-3.7-3.4l-1.5-21.3
		c-0.1-1.9,1.3-3.6,3.2-3.8l8.4-0.5c2-0.1,3.7,1.3,3.9,3.3l1.5,21.3c0.1,1.7-0.9,3.1-2.5,3.7C89.7,101.2,89.7,101.2,89.7,101.2z
		 M179.6,75.8l0,0.3c0,1.2-0.9,2.1-1.6,2.6l-30.6,18.6l-1.1,0.6c-3.4,1.8-7.1,2.5-11.5,2l-38.4-1.7c0-0.3,0-0.7,0-1l-1.5-21.3
		c-0.1-0.6-0.2-1.1-0.3-1.5c2.8-1.2,6.4-2.6,11.7-2.6c3.4,0,7.1,0.6,11,1.8c1.7,0.5,4.1,0.9,5.8,0.9l21.5,0.2l0.1,0
		c1.7-0.1,3.2,1.2,3.4,3c0.2,1.9-1.2,3.4-2.6,3.6l-24.1,2.4c-0.9,0.1-1.7,0.6-2.2,1.3c-0.6,0.7-0.8,1.6-0.7,2.6
		c0.3,1.6,1.7,2.8,3.4,2.8h0.9c0.7,0,16.5-0.3,27.7-2.8c2.2-0.5,4.2-1.3,6-2.5c0.4-0.2,0.9-0.5,1.3-0.8c3.8-2.7,9.5-6.1,13.4-8.1
		c0.2-0.1,0.6-0.3,1-0.5c1.2-0.6,4.4-2.2,5.6-2.2c0.7,0.1,1.2,0.3,1.6,0.7C179.5,74.6,179.7,75.2,179.6,75.8z"/>
</g>
</svg>
