<?xml version="1.0" encoding="utf-8"?>
<!-- Generator: Adobe Illustrator 19.0.0, SVG Export Plug-In . SVG Version: 6.00 Build 0)  -->
<svg version="1.1" id="Capa_1" xmlns="http://www.w3.org/2000/svg" xmlns:xlink="http://www.w3.org/1999/xlink" x="0px" y="0px"
	 viewBox="76.8 5.1 122.8 111.3" style="enable-background:new 76.8 5.1 122.8 111.3;" xml:space="preserve">
<g>
	<path d="M196.3,100.9c-1.6-0.6-3.4,0.3-4,2c-1.4,4.1-3.9,6-7.8,6c-3.8,0-7.2-2.7-8.6-6.8c-0.4-1.3-1.7-2.1-3-2.1c0,0,0,0,0,0
		c0,0,0,0-0.1,0c-1.3,0-2.5,0.8-3,2.1c-1.4,4.1-4.8,6.8-8.6,6.8s-7.2-2.7-8.6-6.8c-0.2-0.7-0.6-1.2-1.2-1.6l1.6-0.5
		c7.6-2.3,11.9-10.4,9.6-17.9c-1.1-3.7-3.6-6.7-7-8.5c-3.4-1.8-7.3-2.2-11-1.1c-1.6,0.5-2.6,2.2-2.1,3.9c0.5,1.6,2.2,2.6,3.9,2.1
		c2.1-0.6,4.3-0.4,6.2,0.6c1.9,1,3.3,2.7,4,4.8c1.3,4.3-1.1,8.9-5.4,10.2l-11.2,3.4l-6.6-28.3l-0.1-0.3c-1.3-3-5.2-5.1-9.3-7.3
		c-1.6-0.9-4-2.1-4.7-2.8c-1-3.3-2.7-9.7-3.3-11.9H140c1.9,0,3.6-0.7,5-1.9c0.5-0.4,0.9-1,1.2-1.5h49.1c1.5,0,2.8-1.3,2.8-2.8
		c0-1.5-1.3-2.8-2.8-2.8H147c-0.3-1.2-1-2.3-2-3.1c-1.4-1.2-3.1-1.8-5-1.8H99.7c-3.5,0-5.5,1.4-6.6,2.7c-1.5,1.7-2.2,3.8-1.9,5.9
		l0,0.2L97,64.1c0.6,3.3,2.6,5.9,5.7,7.5l0.2,0.1l0.2,0.1c0,0,3.6,1.2,7.3,2.9c6.6,3.1,7.4,4.8,7.4,4.8c1.8,5.4,5.7,22.4,5.7,22.6
		c0,0,0,0.1,0,0.1c-1.4,4-4.8,6.7-8.5,6.7c-3.7,0-7.2-2.7-8.6-6.8c-0.4-1.3-1.7-2.1-3-2.1c0,0,0,0,0,0c0,0,0,0-0.1,0
		c-1.3,0-2.5,0.8-3,2.1c-1.4,4.1-4.8,6.8-8.6,6.8c-3.9,0-6.4-2-7.8-6c-0.6-1.6-2.3-2.5-4-2c-1.6,0.6-2.5,2.3-2,4
		c2.2,6.5,7.2,10.3,13.7,10.3c4.5,0,8.7-2.2,11.6-5.8c2.9,3.6,7.1,5.8,11.6,5.8c4.5,0,8.7-2.2,11.6-5.8c2.9,3.6,7.1,5.8,11.6,5.8
		c4.5,0,8.7-2.2,11.6-5.8c2.9,3.6,7.1,5.8,11.6,5.8c4.5,0,8.7-2.2,11.6-5.8c2.9,3.6,7.1,5.8,11.6,5.8c6.5,0,11.5-3.7,13.7-10.3
		C198.8,103.2,197.9,101.5,196.3,100.9z M138.2,108.9c-2.2,0-4.3-0.9-5.9-2.5l14.5-4.4c0,0,0,0.1,0,0.1
		C145.4,106.2,142,108.9,138.2,108.9z"/>
	<path d="M100.3,30.2c3.3,0,6.1-1.2,8.5-3.5c2.3-2.3,3.5-5.2,3.5-8.5s-1.2-6.1-3.5-8.5c-2.3-2.3-5.2-3.5-8.5-3.5
		c-3.3,0-6.1,1.2-8.5,3.5c-2.3,2.3-3.5,5.2-3.5,8.5s1.2,6.1,3.5,8.5C94.2,29,97,30.2,100.3,30.2z"/>
</g>
</svg>
