<?xml version="1.0" encoding="utf-8"?>
<!-- Generator: Adobe Illustrator 19.0.0, SVG Export Plug-In . SVG Version: 6.00 Build 0)  -->
<svg version="1.1" id="Capa_1" xmlns="http://www.w3.org/2000/svg" xmlns:xlink="http://www.w3.org/1999/xlink" x="0px" y="0px"
	 viewBox="55.1 -7 147.7 148.7" style="enable-background:new 55.1 -7 147.7 148.7;" xml:space="preserve">
<style type="text/css">
	.st0{fill:#B8DBDD;}
	.st1{fill:#2F889C;}
</style>
<g>
	<path class="st0" d="M141.7,15.7c5.6,10.8,8.5,22.9,8.5,35.1c0,24.7-11.9,47.7-31.5,62h73c5.7-9.8,8.7-21,8.7-32.5
		C200.4,46.8,174.5,18.9,141.7,15.7z M186.7,91.2c-0.1,0.4-0.2,0.8-0.3,1.2c-0.4,1.3-1.5,2.2-2.9,2.2c-0.3,0-0.5,0-0.8-0.1
		c-1.6-0.4-2.5-2-2.1-3.6c0.1-0.4,0.2-0.7,0.3-1.1c0.4-1.6,2-2.6,3.6-2.2C186.1,88,187.1,89.6,186.7,91.2z M185.6,79.6
		c-1.6,0-3-1.3-3-3c0-11.9-5.2-23.5-14.6-32.6c-1.2-1.1-1.2-3-0.1-4.2c1.1-1.2,3-1.2,4.2-0.1c10.6,10.3,16.4,23.3,16.4,36.8
		C188.5,78.3,187.2,79.6,185.6,79.6z"/>
	<path class="st0" d="M193.3,118.7h-84.8c0,0-0.1,0-0.1,0H70.6c1.5,11.6,11.4,20.7,23.4,20.7h82.7c12,0,22-9,23.4-20.7H193.3
		C193.3,118.7,193.3,118.7,193.3,118.7z"/>
	<path class="st0" d="M138.3,22.4v56.7c3.8-8.8,5.9-18.4,5.9-28.3C144.3,41,142.2,31.3,138.3,22.4z"/>
	<path class="st1" d="M178.9,21.7C166.2,8.8,149.3,1.4,131.3,0.6v-3c0-1.6-1.3-3-3-3c-1.6,0-3,1.3-3,3v83.5c0,0,0,0,0,0
		c-6.2,9.3-14.6,17.2-24.8,22.8H60.5c-1.6,0-3,1.3-3,3c0,16.3,13.2,29.5,29.5,29.5h82.7c16.3,0,29.5-13.2,29.5-29.5c0-1.6-1.3-3-3-3
		h-4.9c5.2-10,7.9-21.1,7.9-32.5C199.3,52.7,192,35,178.9,21.7z M131.3,13.5c3.9,8.9,5.9,18.5,5.9,28.4c0,9.9-2.1,19.6-5.9,28.3
		V13.5z M193.2,109.8c-1.5,11.6-11.4,20.7-23.4,20.7H87.1c-12,0-22-9-23.4-20.7h37.8c0,0,0.1,0,0.1,0h84.8c0,0,0.1,0,0.1,0H193.2z
		 M184.6,103.9h-73c19.7-14.3,31.5-37.3,31.5-62c0-12.3-2.9-24.3-8.5-35.1c32.8,3.2,58.7,31.2,58.7,64.7
		C193.4,82.9,190.3,94.1,184.6,103.9z"/>
	<path class="st1" d="M161,31c-1.1,1.2-1.1,3,0.1,4.2c9.4,9.1,14.6,20.7,14.6,32.6c0,1.6,1.3,3,3,3c1.6,0,3-1.3,3-3
		c0-13.5-5.8-26.6-16.4-36.8C164,29.8,162.1,29.8,161,31z"/>
	<path class="st1" d="M177.6,78.7c-1.6-0.4-3.2,0.6-3.6,2.2c-0.1,0.4-0.2,0.7-0.3,1.1c-0.4,1.6,0.5,3.2,2.1,3.6
		c0.3,0.1,0.5,0.1,0.8,0.1c1.3,0,2.5-0.9,2.9-2.2c0.1-0.4,0.2-0.8,0.3-1.2C180.1,80.7,179.1,79.1,177.6,78.7z"/>
</g>
</svg>
