<?xml version="1.0" encoding="utf-8"?>
<!-- Generator: Adobe Illustrator 19.0.0, SVG Export Plug-In . SVG Version: 6.00 Build 0)  -->
<svg version="1.1" id="Isolation_Mode" xmlns="http://www.w3.org/2000/svg" xmlns:xlink="http://www.w3.org/1999/xlink" x="0px"
	 y="0px" viewBox="-269 407.5 33.5 27.5" style="enable-background:new -269 407.5 33.5 27.5;" xml:space="preserve">
<style type="text/css">
	.st0{fill:#B8DBDD;}
	.st1{fill:#FFFFFF;}
	.st2{fill:#30889C;}
</style>
<g>
	<path class="st0" d="M-264.7,431.5c0.1,0.6,0.5,1.6,1.6,2c0.3-0.1,0.5-0.3,0.7-0.5c0.2-0.2,0.6-0.2,0.8,0c0.6,0.5,1.3,0.8,2.1,0.8
		s1.5-0.3,2.1-0.8c0.2-0.2,0.6-0.2,0.8,0c0.6,0.5,1.3,0.8,2.1,0.8s1.5-0.3,2.1-0.8c0.2-0.2,0.6-0.2,0.8,0c0.6,0.5,1.3,0.8,2.1,0.8
		s1.5-0.3,2.1-0.8c0.2-0.2,0.6-0.2,0.8,0c0.1,0.1,0.3,0.3,0.5,0.4c0.8-0.8,1.4-2,1.7-3.2c-0.6-0.2-1.2-0.5-1.8-0.9
		C-252.9,432.1-262,431.7-264.7,431.5z"/>
	<path class="st1" d="M-262.1,428c1.1,0,2.1-0.1,2.9-0.4c0.3-1.2,1.2-6.1,0.4-11.7c-1,2.8-3.1,7.6-6.6,11.7
		C-264.6,427.8-263.4,428-262.1,428L-262.1,428z"/>
	<path class="st0" d="M-254.3,411.1c1.7,7.7,1.1,13.4,0.5,16.2c1.1-0.8,2.1-1.3,3.1-1.7c-0.5-1.1-0.8-2.4-0.8-3.8
		c0-2.8,1.3-5.3,3.2-6.9C-249.7,413.3-251.6,412-254.3,411.1z"/>
	<path class="st2" d="M-255.8,427.3c0.5-2.7,1.2-8.5-0.5-16.2c2.7,0.9,4.6,2.2,6,3.7c0.3-0.3,0.6-0.5,1-0.7
		c-1.7-1.9-4.2-3.5-7.7-4.5c-0.2-0.1-0.4,0-0.6,0.2c-0.2,0.1-0.2,0.4-0.2,0.6c2.6,10.8,0.4,18.2,0.4,18.3c-0.1,0.3,0,0.5,0.2,0.7
		c0.2,0,0.3,0,0.4,0c0.1,0,0.3,0,0.4-0.1c1.5-1.3,2.9-2.1,4.2-2.7c-0.2-0.3-0.4-0.7-0.6-1C-253.7,425.9-254.7,426.5-255.8,427.3z"/>
	<path class="st2" d="M-249.3,433.4c-0.2-0.1-0.3-0.2-0.5-0.4c-0.2-0.2-0.6-0.2-0.8,0c-0.6,0.5-1.3,0.8-2.1,0.8s-1.5-0.3-2.1-0.8
		c-0.2-0.2-0.6-0.2-0.8,0c-0.6,0.5-1.3,0.8-2.1,0.8c-0.8,0-1.5-0.3-2.1-0.8c-0.2-0.2-0.6-0.2-0.8,0c-0.6,0.5-1.3,0.8-2.1,0.8
		c-0.8,0-1.5-0.3-2.1-0.8c-0.2-0.2-0.6-0.2-0.8,0c-0.2,0.2-0.5,0.4-0.7,0.5c-1-0.4-1.4-1.4-1.6-2c2.7,0.2,11.8,0.6,18.3-2.1
		c-0.4-0.3-0.8-0.5-1.1-0.8c-7.2,2.7-17.7,1.7-17.8,1.7c-0.2,0-0.3,0-0.5,0.2c0.1,0,0,0.1,0,0.3c0,0.1,0,1.9,1.3,3.1
		c-0.2,0.1-0.3,0.3-0.3,0.5c0,0.3,0.3,0.6,0.6,0.6c0.5,0,1-0.1,1.5-0.3h0.1c0.2-0.1,0.4-0.2,0.6-0.3h0.6c0.7,0.4,1.4,0.6,2.2,0.6
		c0.8,0,1.5-0.2,2.2-0.6h0.6c0.7,0.4,1.4,0.6,2.2,0.6c0.8,0,1.5-0.2,2.2-0.6h0.6c0.7,0.4,1.4,0.6,2.2,0.6s1.5-0.2,2.2-0.6h0.6
		c0.1,0.1,0.2,0.1,0.4,0.2h0.1c0.5,0.2,1.1,0.4,1.7,0.4c0.3,0,0.6-0.3,0.6-0.6c0-0.3-0.3-0.6-0.6-0.6c-0.1,0-0.2,0-0.4,0
		c0.7-0.9,1.3-2.1,1.6-3.2c-0.4-0.1-0.8-0.2-1.2-0.3C-248,431.3-248.6,432.6-249.3,433.4z"/>
	<path class="st2" d="M-266.6,428.6c0.1,0,2.2,0.6,4.5,0.6l0,0c1.4,0,2.7-0.2,3.7-0.6c0.2-0.1,0.3-0.2,0.4-0.4
		c0.1-0.3,1.7-7.2,0-14.8c-0.1-0.3-0.3-0.5-0.6-0.5c-0.3,0-0.5,0.2-0.6,0.4c0,0.1-2.3,8.2-7.7,14.3c-0.1,0.2-0.2,0.4-0.1,0.6
		C-267,428.4-266.8,428.5-266.6,428.6z M-258.8,415.9c0.8,5.5-0.1,10.4-0.4,11.7c-0.8,0.3-1.8,0.4-2.9,0.4l0,0
		c-1.3,0-2.5-0.2-3.3-0.3C-261.9,423.5-259.8,418.7-258.8,415.9z"/>
	<path class="st2" d="M-261.4,411.7c0.8,0,1.6-0.2,2-0.5c0.3-0.2,0.3-0.6,0.1-0.8c-0.2-0.3-0.6-0.3-0.8-0.1
		c-0.3,0.1-1.2,0.3-2.2,0.1c0.5-0.2,0.9-0.5,1.2-0.8c0.7-0.5,1.2-1,2.2-0.8c0.3,0.1,0.6-0.2,0.7-0.5c0.1-0.3-0.2-0.6-0.5-0.7
		c-1.6-0.3-2.4,0.4-3.2,1.1c-0.6,0.5-1.1,0.9-2.1,0.9c-0.3,0-0.5,0.1-0.6,0.4c-0.1,0.2,0,0.5,0.1,0.7
		C-263.5,411.4-262.4,411.7-261.4,411.7z"/>
	<g>
		<path class="st1" d="M-244.6,430c-0.6,0-1.1-0.1-1.7-0.2c-0.3-0.1-0.7-0.2-1.1-0.3c-0.6-0.2-1.1-0.5-1.6-0.8
			c-0.4-0.2-0.7-0.5-1-0.8c-0.6-0.5-1.1-1.1-1.5-1.8c-0.2-0.3-0.4-0.6-0.5-1c-0.5-1.1-0.8-2.3-0.8-3.5c0-2.5,1.1-4.8,3-6.3
			c0.3-0.2,0.5-0.4,0.9-0.6c1.3-0.8,2.8-1.3,4.4-1.3c4.5,0,8.3,3.7,8.3,8.3C-236.3,426.3-240,430-244.6,430z"/>
		<path class="st2" d="M-244.6,414.2c4.1,0,7.5,3.4,7.5,7.5s-3.4,7.5-7.5,7.5c-0.5,0-1-0.1-1.6-0.2c-0.3-0.1-0.6-0.2-1-0.3
			c-0.5-0.2-1-0.4-1.5-0.7c-0.3-0.2-0.6-0.4-0.9-0.7c-0.5-0.5-1-1-1.4-1.6c-0.2-0.3-0.3-0.6-0.5-0.9c-0.5-1-0.7-2.1-0.7-3.1
			c0-2.2,1-4.3,2.7-5.8c0.2-0.2,0.5-0.4,0.8-0.6C-247.4,414.6-246,414.2-244.6,414.2 M-244.6,412.7c-1.8,0-3.4,0.5-4.8,1.4
			c-0.3,0.2-0.7,0.4-1,0.7c-2,1.7-3.2,4.1-3.2,6.9c0,1.3,0.3,2.6,0.8,3.8c0.2,0.4,0.4,0.7,0.6,1c0.5,0.7,1,1.4,1.7,1.9
			c0.3,0.3,0.7,0.6,1.1,0.8c0.6,0.3,1.1,0.6,1.8,0.9c0.4,0.1,0.8,0.3,1.2,0.3c0.6,0.1,1.2,0.2,1.9,0.2c5,0,9-4,9-9
			C-235.6,416.8-239.6,412.7-244.6,412.7L-244.6,412.7z"/>
	</g>
	<g>
		<path class="st2" d="M-243.8,425c0.1,0,0.2,0,0.3,0.1s0.1,0.2,0.1,0.3v1.4c0,0.1,0,0.2-0.1,0.3s-0.2,0.1-0.3,0.1h-1.4
			c-0.1,0-0.2,0-0.3-0.1c-0.1-0.1-0.1-0.2-0.1-0.3v-1.4c0-0.1,0-0.2,0.1-0.3s0.2-0.1,0.3-0.1H-243.8z M-243.5,423.6
			c0,0.1,0,0.2-0.1,0.3c-0.1,0.1-0.2,0.1-0.3,0.1h-1.2c-0.1,0-0.2,0-0.3-0.1c-0.1-0.1-0.1-0.2-0.1-0.3v-7.1c0-0.1,0-0.2,0.1-0.3
			c0.1-0.1,0.2-0.1,0.3-0.1h1.2c0.1,0,0.2,0,0.3,0.1c0.1,0.1,0.1,0.2,0.1,0.3V423.6z"/>
	</g>
</g>
</svg>
