<?xml version="1.0" encoding="utf-8"?>
<!-- Generator: Adobe Illustrator 19.0.0, SVG Export Plug-In . SVG Version: 6.00 Build 0)  -->
<svg version="1.1" id="Capa_1" xmlns="http://www.w3.org/2000/svg" xmlns:xlink="http://www.w3.org/1999/xlink" x="0px" y="0px"
	 viewBox="0 0 500 500" enable-background="new 0 0 500 500" xml:space="preserve">
<g>
	<path d="M489.2,308.3H275.6V104.4h138.2v169.7c0,6,4.8,10.8,10.8,10.8c6,0,10.8-4.8,10.8-10.8V93.6c0-6-4.8-10.8-10.8-10.8H264.8
		c-6,0-10.8,4.8-10.8,10.8v214.7h-42.9V69.2c0-6-4.8-10.8-10.8-10.8h-12.8V20.9c0-6-4.8-10.8-10.8-10.8H34.5
		c-6,0-10.8,4.8-10.8,10.8v14.9c0,6,4.8,10.8,10.8,10.8c6,0,10.8-4.8,10.8-10.8v-4h120.5v26.7h-155C4.8,58.4,0,63.2,0,69.2v410
		c0,6,4.8,10.8,10.8,10.8h189.4h64.6c6,0,10.8-4.8,10.8-10.8c0-6-4.8-10.8-10.8-10.8h-53.8V330h267.3v138.3h-44.5
		c-8.7-41.9-45.4-72.4-89.2-72.4c-26.7,0-52,11.7-69.3,32c-3.9,4.5-3.3,11.4,1.2,15.3c4.5,3.9,11.4,3.3,15.3-1.2
		c13.2-15.5,32.5-24.4,52.9-24.4c35.9,0,65.6,26.9,69.1,62.6c0.5,5.5,5.2,9.8,10.8,9.8h64.6c6,0,10.8-4.8,10.8-10.8v-160
		C500,313.2,495.2,308.3,489.2,308.3z M21.6,80h167.8v239.2v149.2H21.6V80z"/>
	<path d="M373.7,129.5h-58c-6,0-10.8,4.8-10.8,10.8c0,6,4.8,10.8,10.8,10.8h58c6,0,10.8-4.8,10.8-10.8
		C384.5,134.4,379.7,129.5,373.7,129.5z"/>
	<path d="M373.7,173.4h-58c-6,0-10.8,4.8-10.8,10.8c0,6,4.8,10.8,10.8,10.8h58c6,0,10.8-4.8,10.8-10.8
		C384.5,178.2,379.7,173.4,373.7,173.4z"/>
	<path d="M373.7,217.2h-58c-6,0-10.8,4.8-10.8,10.8c0,6,4.8,10.8,10.8,10.8h58c6,0,10.8-4.8,10.8-10.8
		C384.5,222,379.7,217.2,373.7,217.2z"/>
	<path d="M373.7,261h-58c-6,0-10.8,4.8-10.8,10.8c0,6,4.8,10.8,10.8,10.8h58c6,0,10.8-4.8,10.8-10.8
		C384.5,265.8,379.7,261,373.7,261z"/>
	<path d="M52.3,104.1c-2.9,0-5.6,1.2-7.7,3.2c-2,2-3.2,4.8-3.2,7.6c0,2.8,1.2,5.6,3.2,7.6c2,2,4.8,3.2,7.7,3.2
		c2.8,0,5.6-1.2,7.6-3.2c2-2,3.2-4.8,3.2-7.6c0-2.8-1.2-5.6-3.2-7.6C57.9,105.3,55.1,104.1,52.3,104.1z"/>
	<path d="M105.5,104.1c-2.9,0-5.6,1.2-7.7,3.2c-2,2-3.2,4.8-3.2,7.6c0,2.8,1.2,5.6,3.2,7.6c2,2,4.8,3.2,7.7,3.2
		c2.8,0,5.6-1.2,7.6-3.2c2-2,3.2-4.8,3.2-7.6c0-2.8-1.2-5.6-3.2-7.6C111.2,105.3,108.4,104.1,105.5,104.1z"/>
	<path d="M157.6,104.1c-2.8,0-5.6,1.2-7.6,3.2c-2,2-3.2,4.8-3.2,7.6c0,2.9,1.2,5.6,3.2,7.6c2,2,4.8,3.2,7.6,3.2
		c2.9,0,5.6-1.2,7.6-3.2c2-2,3.2-4.8,3.2-7.6c0-2.9-1.2-5.6-3.2-7.6C163.3,105.3,160.5,104.1,157.6,104.1z"/>
	<path d="M52.3,158c-2.9,0-5.6,1.2-7.7,3.2c-2,2-3.2,4.8-3.2,7.7c0,2.8,1.2,5.6,3.2,7.6c2,2,4.8,3.2,7.7,3.2c2.8,0,5.6-1.2,7.6-3.2
		c2-2,3.2-4.8,3.2-7.6c0-2.8-1.2-5.6-3.2-7.7C57.9,159.1,55.1,158,52.3,158z"/>
	<path d="M105.5,179.6c2.8,0,5.6-1.2,7.6-3.2c2-2,3.2-4.8,3.2-7.6c0-2.8-1.2-5.6-3.2-7.7c-2-2-4.8-3.2-7.6-3.2
		c-2.9,0-5.6,1.2-7.7,3.2c-2,2-3.2,4.8-3.2,7.7c0,2.8,1.2,5.6,3.2,7.6C99.9,178.5,102.7,179.6,105.5,179.6z"/>
	<path d="M157.6,158c-2.8,0-5.6,1.2-7.6,3.2c-2,2-3.2,4.8-3.2,7.7c0,2.8,1.2,5.6,3.2,7.6c2,2,4.8,3.2,7.6,3.2c2.9,0,5.6-1.2,7.7-3.2
		c2-2,3.2-4.8,3.2-7.6c0-2.8-1.2-5.6-3.2-7.7C163.3,159.1,160.5,158,157.6,158z"/>
	<path d="M52.3,211.8c-2.9,0-5.6,1.2-7.7,3.2c-2,2-3.2,4.8-3.2,7.6c0,2.9,1.2,5.6,3.2,7.6c2,2,4.8,3.2,7.7,3.2
		c2.8,0,5.6-1.2,7.6-3.2c2-2,3.2-4.8,3.2-7.6c0-2.8-1.2-5.6-3.2-7.6C57.9,213,55.1,211.8,52.3,211.8z"/>
	<path d="M97.9,230.3c2,2,4.8,3.2,7.7,3.2c2.8,0,5.6-1.2,7.6-3.2c2-2,3.2-4.8,3.2-7.6c0-2.9-1.2-5.6-3.2-7.6c-2-2-4.8-3.2-7.6-3.2
		c-2.9,0-5.6,1.2-7.7,3.2c-2,2-3.2,4.8-3.2,7.6C94.7,225.5,95.9,228.3,97.9,230.3z"/>
	<path d="M157.6,211.8c-2.8,0-5.6,1.2-7.6,3.2c-2,2-3.2,4.8-3.2,7.6c0,2.9,1.2,5.6,3.2,7.6c2,2,4.8,3.2,7.6,3.2
		c2.9,0,5.6-1.2,7.6-3.2c2-2,3.2-4.8,3.2-7.6c0-2.8-1.2-5.6-3.2-7.6C163.3,213,160.5,211.8,157.6,211.8z"/>
	<path d="M52.3,265.7c-2.9,0-5.6,1.2-7.7,3.2c-2,2-3.2,4.8-3.2,7.7c0,2.8,1.2,5.6,3.2,7.6c2,2,4.8,3.2,7.7,3.2
		c2.8,0,5.6-1.2,7.6-3.2c2-2,3.2-4.8,3.2-7.6c0-2.9-1.2-5.6-3.2-7.7C57.9,266.8,55.1,265.7,52.3,265.7z"/>
	<path d="M97.9,284.2c2,2,4.8,3.2,7.6,3.2c2.9,0,5.6-1.2,7.7-3.2c2-2,3.2-4.8,3.2-7.6c0-2.9-1.2-5.6-3.2-7.7c-2-2-4.8-3.2-7.7-3.2
		c-2.8,0-5.6,1.2-7.6,3.2c-2,2-3.2,4.8-3.2,7.7C94.7,279.4,95.9,282.2,97.9,284.2z"/>
	<path d="M157.6,265.7c-2.8,0-5.6,1.2-7.6,3.2c-2,2-3.2,4.8-3.2,7.7c0,2.8,1.2,5.6,3.2,7.6c2,2,4.8,3.2,7.6,3.2
		c2.8,0,5.6-1.2,7.7-3.2c2-2,3.2-4.8,3.2-7.6c0-2.8-1.2-5.6-3.2-7.7C163.3,266.8,160.5,265.7,157.6,265.7z"/>
	<path d="M52.3,319.5c-2.9,0-5.6,1.2-7.7,3.2c-2,2-3.2,4.8-3.2,7.6c0,2.9,1.2,5.6,3.2,7.7c2,2,4.8,3.2,7.7,3.2
		c2.8,0,5.6-1.2,7.6-3.2c2-2,3.2-4.8,3.2-7.7c0-2.8-1.2-5.6-3.2-7.6C57.9,320.7,55.1,319.5,52.3,319.5z"/>
	<path d="M105.5,319.5c-2.9,0-5.6,1.2-7.7,3.2c-2,2-3.2,4.8-3.2,7.6c0,2.9,1.2,5.6,3.2,7.7c2,2,4.8,3.2,7.7,3.2
		c2.8,0,5.6-1.2,7.6-3.2c2-2,3.2-4.8,3.2-7.7c0-2.8-1.2-5.6-3.2-7.6C111.2,320.7,108.4,319.5,105.5,319.5z"/>
	<path d="M157.6,319.5c-2.8,0-5.6,1.2-7.6,3.2c-2,2-3.2,4.8-3.2,7.6c0,2.9,1.2,5.6,3.2,7.7c2,2,4.8,3.2,7.6,3.2
		c2.9,0,5.6-1.2,7.7-3.2c2-2,3.2-4.8,3.2-7.7c0-2.8-1.2-5.6-3.2-7.6C163.3,320.7,160.5,319.5,157.6,319.5z"/>
	<path d="M52.3,373.4c-2.9,0-5.6,1.2-7.7,3.2c-2,2-3.2,4.8-3.2,7.7c0,2.8,1.2,5.6,3.2,7.6c2,2,4.8,3.2,7.7,3.2
		c2.8,0,5.6-1.2,7.6-3.2c2-2,3.2-4.8,3.2-7.6c0-2.8-1.2-5.6-3.2-7.7C57.9,374.6,55.1,373.4,52.3,373.4z"/>
	<path d="M105.5,373.4c-2.9,0-5.6,1.2-7.7,3.2c-2,2-3.2,4.8-3.2,7.7c0,2.8,1.2,5.6,3.2,7.6c2,2,4.8,3.2,7.7,3.2
		c2.8,0,5.6-1.2,7.6-3.2c2-2,3.2-4.8,3.2-7.6c0-2.8-1.2-5.6-3.2-7.7C111.2,374.6,108.4,373.4,105.5,373.4z"/>
	<path d="M157.6,373.4c-2.8,0-5.6,1.2-7.6,3.2c-2,2-3.2,4.8-3.2,7.7c0,2.8,1.2,5.6,3.2,7.6c2,2,4.8,3.2,7.6,3.2
		c2.9,0,5.6-1.2,7.7-3.2c2-2,3.2-4.8,3.2-7.6c0-2.8-1.2-5.6-3.2-7.7C163.3,374.6,160.5,373.4,157.6,373.4z"/>
</g>
</svg>
