<?xml version="1.0" encoding="utf-8"?>
<!-- Generator: Adobe Illustrator 19.0.0, SVG Export Plug-In . SVG Version: 6.00 Build 0)  -->
<svg version="1.1" id="Isolation_Mode" xmlns="http://www.w3.org/2000/svg" xmlns:xlink="http://www.w3.org/1999/xlink" x="0px"
	 y="0px" viewBox="0 14.9 500 473.6" enable-background="new 0 14.9 500 473.6" xml:space="preserve">
<g>
	<g>
		<polygon points="203.7,34 164.3,45.8 203.7,57.5 		"/>
		<polygon points="203.7,46.1 203.7,34 164.3,45.8 184.6,51.8 		"/>
		<path d="M499.4,412.1c-1.3-3-4.2-5-7.5-5H361.6c-0.2-0.1-0.3-0.3-0.5-0.4l-27.9-22.9c-1.5-1.2-3.3-1.9-5.2-1.9H220v-11.2h199.1
			c3,0,5.7-1.6,7.2-4.2c1.4-2.6,1.3-5.8-0.3-8.3c-0.8-1.3-85.9-132.6-206-277.6V69.1c0-0.2,0-0.4,0-0.6l0-45.4c0-2.6-1.2-5-3.3-6.5
			c-0.9-0.7-2-1.1-3.1-1.4c-0.1,0-0.2,0-0.3-0.1c-0.2,0-0.3-0.1-0.5-0.1c-0.1,0-0.3,0-0.4-0.1c-0.1,0-0.3,0-0.4,0
			c-0.1,0-0.2,0-0.3,0c-0.1,0-0.2,0-0.3,0c-0.1,0-0.2,0-0.3,0c-0.3,0-0.5,0-0.8,0.1c0,0-0.1,0-0.1,0c-0.4,0.1-0.8,0.2-1.2,0.3
			l-75.8,22.6c-3.5,1-5.8,4.2-5.8,7.8c0,3.6,2.4,6.8,5.8,7.8l70.2,21v21.5L65.3,358.7c-1.3,2.5-1.2,5.6,0.2,8c1.5,2.4,4.1,3.9,7,3.9
			h131.2v11.2H94.4c-2.3,0-4.5,1-6.1,2.7l-16.9,18.9c-0.9,1.1-1.6,2.3-1.9,3.6H8.1c-2.9,0-5.7,1.6-7.1,4.2c-1.4,2.6-1.4,5.7,0.1,8.2
			l37.5,61.8c1.5,2.4,4.1,3.9,7,3.9h384.7c2.2,0,4.2-0.9,5.8-2.4l61.5-61.8C499.9,418.6,500.6,415.1,499.4,412.1z M231.1,354.4
			c5.8-9.6,10.4-20.4,13.9-32.4c0.3,0,0.6,0,0.8,0H382c9.4,13.7,16.9,24.7,22,32.4H231.1z M370.7,305.7H248.9
			c6.1-31.3,5.7-69.5-1.1-114.2c-4-26.3-9.7-50.4-14.8-69.2C291,194.1,339,260.3,370.7,305.7z M220,137.1
			c14.2,56.1,29.6,147.3,0,203.7V137.1z M472.2,423.4L427,468.8H50.2l-27.6-45.5 M203.7,131v223.4H86L203.7,131z M325.1,398.1
			l10.9,8.9H90.1l8-8.9H325.1z"/>
	</g>
</g>
</svg>
