<?xml version="1.0" standalone="no"?>
<!DOCTYPE svg PUBLIC "-//W3C//DTD SVG 20010904//EN"
 "http://www.w3.org/TR/2001/REC-SVG-20010904/DTD/svg10.dtd">
<svg version="1.0" xmlns="http://www.w3.org/2000/svg"
 width="798.000000pt" height="188.000000pt" viewBox="0 0 798.000000 188.000000"
 preserveAspectRatio="xMidYMid meet">

<g transform="translate(0.000000,188.000000) scale(0.100000,-0.100000)"
fill="#000000" stroke="none">
<path d="M70 1217 c0 -558 1 -598 20 -671 51 -200 192 -359 383 -431 231 -86
481 -32 660 143 72 71 117 144 153 247 26 75 28 92 32 288 l4 207 -56 0 c-31
0 -56 2 -56 5 0 19 253 506 260 499 10 -12 260 -488 260 -497 0 -4 -27 -7 -60
-7 l-60 0 0 -220 0 -220 88 0 c336 1 587 211 632 529 12 89 -1 224 -30 311
-59 176 -207 321 -390 383 -63 21 -81 22 -567 25 l-503 3 0 -558 c0 -511 -1
-561 -18 -593 -54 -107 -203 -106 -252 3 -19 40 -20 71 -20 595 l0 552 -240 0
-240 0 0 -593z"/>
<path d="M3670 1720 l0 -90 -75 0 -75 0 0 -105 0 -105 74 0 75 0 3 -217 c3
-209 4 -220 27 -260 30 -52 81 -89 141 -102 83 -18 233 -23 334 -12 195 22
265 82 286 244 15 119 29 107 -125 107 l-135 0 0 -48 c0 -37 -5 -53 -23 -70
-46 -43 -173 -36 -199 11 -8 14 -14 80 -16 185 l-4 162 236 0 236 0 0 105 0
105 -235 0 -235 0 0 90 0 90 -145 0 -145 0 0 -90z"/>
<path d="M2750 1644 c-101 -9 -197 -27 -232 -45 -72 -37 -108 -110 -108 -218
0 -78 23 -135 69 -174 59 -49 112 -58 398 -64 159 -4 271 -10 284 -17 36 -18
42 -52 16 -82 -20 -23 -34 -27 -112 -36 -95 -10 -234 -4 -298 13 -26 7 -44 20
-55 40 l-17 29 -148 0 -149 0 7 -42 c10 -65 46 -130 91 -160 67 -47 158 -61
419 -61 380 0 490 27 544 137 36 72 36 191 1 261 -21 42 -35 55 -84 80 -59 29
-63 29 -275 36 -119 4 -248 8 -287 8 -86 1 -121 21 -111 63 10 37 49 49 182
55 141 6 233 -7 254 -37 12 -18 25 -20 161 -20 l147 0 -8 50 c-23 146 -101
179 -434 185 -115 1 -230 1 -255 -1z"/>
<path d="M4866 1640 c-198 -23 -298 -93 -308 -216 l-3 -39 142 -3 142 -3 13
28 c22 45 50 53 204 53 165 0 200 -9 220 -56 13 -31 20 -124 9 -124 -2 0 -20
11 -40 24 -50 34 -101 40 -314 33 -202 -6 -270 -19 -330 -64 -53 -41 -75 -102
-76 -208 0 -78 3 -96 25 -134 34 -61 90 -88 205 -102 107 -12 330 -3 401 17
48 13 124 71 124 94 0 6 5 10 10 10 6 0 10 -25 10 -55 l0 -55 140 0 140 0 0
285 c0 165 -5 305 -11 334 -18 86 -74 146 -158 172 -47 14 -443 20 -545 9z
m318 -469 c79 -8 99 -26 94 -81 -5 -55 -43 -71 -186 -77 -155 -7 -228 2 -258
32 -50 50 -13 112 76 125 73 10 189 11 274 1z"/>
<path d="M5950 1639 c-158 -19 -246 -92 -271 -224 -16 -89 -7 -339 15 -390 21
-49 69 -101 116 -125 110 -56 467 -63 569 -10 22 11 53 36 70 57 l31 38 0 -99
c0 -172 -26 -191 -265 -191 -140 0 -165 2 -189 19 -16 10 -31 27 -33 37 -5 18
-16 19 -155 19 l-151 0 7 -42 c17 -104 87 -182 194 -215 48 -15 97 -18 312
-18 273 0 336 8 421 51 59 30 111 90 135 157 17 47 19 93 22 490 l3 437 -140
0 -141 0 0 -50 c0 -27 -4 -50 -8 -50 -4 0 -23 16 -41 35 -18 20 -46 42 -62 50
-62 32 -271 43 -439 24z m420 -220 c28 -6 63 -21 78 -34 25 -22 27 -30 31
-116 4 -105 -11 -147 -56 -168 -43 -20 -183 -33 -272 -26 -147 11 -181 37
-189 144 -12 173 29 207 260 210 53 0 120 -4 148 -10z"/>
<path d="M7220 1643 c-216 -16 -311 -77 -341 -221 -14 -69 -7 -359 11 -417 17
-57 91 -126 160 -148 163 -53 625 -40 745 20 66 33 109 94 121 172 l7 41 -146
0 c-134 0 -145 -1 -150 -19 -2 -10 -17 -27 -33 -37 -24 -16 -49 -19 -184 -19
-129 0 -161 3 -191 18 -41 20 -59 52 -59 102 l0 35 386 0 387 0 -6 123 c-6
141 -26 214 -71 260 -47 46 -120 75 -221 87 -83 9 -309 11 -415 3z m361 -196
c26 -10 40 -25 48 -47 25 -74 39 -70 -229 -70 -231 0 -240 1 -240 19 0 58 37
95 111 111 64 13 267 5 310 -13z"/>
<path d="M3477 408 c-19 -7 -30 -19 -34 -38 -3 -16 -13 -30 -24 -33 -26 -7
-25 -47 1 -47 18 0 20 -7 20 -71 l0 -70 33 3 32 3 3 68 c3 67 3 67 32 67 25 0
30 4 30 25 0 21 -5 25 -30 25 -20 0 -30 5 -30 15 0 10 10 15 30 15 25 0 30 4
30 25 0 22 -4 25 -32 24 -18 0 -46 -5 -61 -11z"/>
<path d="M2110 385 c0 -22 4 -25 35 -25 31 0 35 3 35 25 0 22 -4 25 -35 25
-31 0 -35 -3 -35 -25z"/>
<path d="M5900 385 c0 -21 5 -25 30 -25 25 0 30 4 30 25 0 21 -5 25 -30 25
-25 0 -30 -4 -30 -25z"/>
<path d="M6430 385 c0 -22 4 -25 35 -25 31 0 35 3 35 25 0 22 -4 25 -35 25
-31 0 -35 -3 -35 -25z"/>
<path d="M7280 385 c0 -21 5 -25 30 -25 25 0 30 4 30 25 0 21 -5 25 -30 25
-25 0 -30 -4 -30 -25z"/>
<path d="M3620 360 c0 -11 -7 -20 -15 -20 -9 0 -15 -9 -15 -25 0 -16 6 -25 15
-25 11 0 15 -13 15 -54 0 -67 21 -86 91 -86 51 0 83 19 94 58 6 19 3 22 -23
22 -17 0 -32 -6 -36 -15 -3 -8 -17 -15 -31 -15 -23 0 -25 4 -25 45 l0 45 55 0
c52 0 55 1 55 25 0 24 -3 25 -55 25 -48 0 -55 2 -55 20 0 16 -7 20 -35 20 -28
0 -35 -4 -35 -20z"/>
<path d="M5690 361 c0 -10 -9 -21 -20 -24 -12 -3 -20 -14 -20 -26 0 -14 6 -21
20 -21 18 0 20 -7 20 -54 0 -67 21 -86 91 -86 51 0 83 19 94 58 6 19 3 22 -25
22 -18 0 -33 -6 -36 -15 -4 -8 -17 -15 -30 -15 -22 0 -24 4 -24 45 l0 45 56 0
c52 0 55 1 52 23 -3 19 -10 22 -55 25 -45 3 -53 6 -53 23 0 15 -7 19 -35 19
-28 0 -35 -4 -35 -19z"/>
<path d="M7070 360 c0 -13 -7 -20 -20 -20 -15 0 -20 -7 -20 -25 0 -18 5 -25
20 -25 18 0 20 -7 20 -54 0 -71 15 -86 83 -86 62 0 97 20 97 56 0 20 -5 24
-30 24 -20 0 -30 -5 -30 -15 0 -9 -9 -15 -25 -15 -18 0 -26 7 -31 24 -12 50
-3 61 54 64 48 3 52 5 52 28 0 23 -3 24 -55 24 -48 0 -55 2 -55 20 0 16 -7 20
-30 20 -23 0 -30 -4 -30 -20z"/>
<path d="M1305 328 c-30 -17 -35 -28 -35 -83 0 -27 4 -55 8 -61 15 -23 53 -34
114 -34 69 0 111 16 116 43 3 13 -4 17 -27 17 -16 0 -33 -4 -36 -10 -7 -11
-64 -14 -89 -4 -9 3 -16 12 -16 20 0 11 20 14 91 14 l92 0 -6 38 c-9 56 -36
72 -121 72 -39 0 -80 -6 -91 -12z m143 -45 c3 -9 -12 -13 -52 -13 -52 0 -66 7
-49 24 12 11 96 2 101 -11z"/>
<path d="M1550 245 l0 -95 30 0 c30 0 30 0 30 58 0 67 11 82 60 82 49 0 60
-15 60 -82 0 -58 0 -58 30 -58 l30 0 0 75 c0 62 -4 79 -20 95 -26 26 -114 28
-142 3 -17 -15 -18 -15 -18 0 0 12 -9 17 -30 17 l-30 0 0 -95z"/>
<path d="M1860 333 c-27 -10 -40 -36 -40 -85 0 -69 22 -88 103 -88 37 0 68 5
76 13 10 10 12 6 9 -18 -3 -28 -6 -30 -52 -33 -27 -2 -54 2 -59 7 -6 6 -24 11
-40 11 -24 0 -28 -4 -25 -22 4 -31 43 -48 109 -48 73 0 118 16 130 47 5 13 9
69 9 124 l0 99 -29 0 c-16 0 -31 -5 -33 -11 -3 -9 -9 -9 -25 0 -22 11 -105 14
-133 4z m145 -83 l0 -35 -55 0 c-50 0 -55 2 -58 23 -7 45 4 53 60 50 l53 -3 0
-35z"/>
<path d="M2110 244 l0 -95 33 3 32 3 3 93 3 92 -36 0 -35 0 0 -96z"/>
<path d="M2210 244 l0 -95 33 3 c32 3 32 3 35 65 3 56 5 63 26 69 13 3 37 4
52 2 28 -3 29 -5 34 -68 5 -65 5 -65 38 -68 l32 -3 0 71 c0 62 -3 74 -25 95
-19 20 -34 25 -72 25 -28 0 -58 -7 -71 -16 -20 -14 -22 -14 -22 0 0 11 -10 16
-30 16 l-30 0 0 -96z"/>
<path d="M2510 322 c-18 -14 -21 -28 -21 -76 0 -83 10 -91 122 -91 78 0 93 3
105 19 8 11 14 23 14 28 0 12 -68 10 -75 -2 -9 -14 -78 -13 -93 2 -23 23 -11
28 78 28 l90 0 0 35 c0 59 -26 75 -119 75 -60 0 -84 -4 -101 -18z m150 -37
c11 -13 5 -15 -49 -15 -33 0 -61 4 -61 9 0 24 91 28 110 6z"/>
<path d="M2875 326 c-18 -13 -26 -68 -12 -82 9 -10 87 -23 135 -24 30 0 42 -4
40 -12 -6 -16 -97 -23 -111 -9 -13 13 -77 15 -77 3 0 -5 6 -17 14 -27 12 -16
29 -20 95 -23 50 -3 93 1 111 8 26 11 30 18 30 51 0 21 -6 41 -12 46 -7 4 -47
10 -88 13 -100 7 -90 26 13 22 62 -2 77 0 77 12 0 9 -9 20 -19 26 -29 15 -173
13 -196 -4z"/>
<path d="M3170 333 c-28 -10 -40 -37 -40 -88 0 -80 12 -89 117 -93 77 -3 92
-1 113 16 21 17 25 29 25 77 0 80 -20 95 -124 94 -42 0 -83 -3 -91 -6z m148
-76 c5 -41 -14 -57 -64 -57 -37 0 -46 4 -55 24 -8 17 -8 29 1 45 10 19 18 22
63 19 49 -3 52 -5 55 -31z"/>
<path d="M3820 332 c0 -6 14 -49 32 -96 l31 -87 46 3 c44 3 45 4 60 51 8 26
17 47 21 47 4 0 13 -21 21 -47 15 -47 16 -48 60 -51 l46 -3 31 84 c40 104 40
109 0 105 -29 -3 -33 -8 -54 -68 l-22 -65 -12 30 c-7 17 -18 46 -25 65 -10 30
-16 35 -45 35 -29 0 -35 -5 -45 -35 -7 -19 -18 -48 -25 -65 l-12 -30 -22 65
c-21 60 -25 65 -54 68 -18 2 -32 -1 -32 -6z"/>
<path d="M4260 333 c-17 -6 -40 -32 -40 -45 0 -12 64 -10 77 3 16 16 87 7 91
-12 2 -13 -7 -15 -55 -11 -32 2 -70 -1 -84 -6 -34 -13 -46 -55 -24 -88 13 -21
23 -24 73 -24 36 0 66 6 80 16 20 14 22 14 22 0 0 -11 10 -16 30 -16 l30 0 0
78 c0 103 -9 112 -111 111 -41 0 -81 -3 -89 -6z m130 -117 c0 -17 -22 -26 -65
-26 -35 0 -51 12 -40 30 10 16 105 13 105 -4z"/>
<path d="M4492 248 l3 -93 33 -3 32 -3 0 58 c0 33 5 64 12 71 17 17 57 15 64
-3 4 -9 19 -15 35 -15 25 0 29 4 29 30 0 19 -7 33 -19 40 -29 15 -83 12 -109
-6 -20 -14 -22 -14 -22 0 0 11 -10 16 -30 16 l-31 0 3 -92z"/>
<path d="M4749 321 c-20 -16 -24 -28 -24 -76 0 -78 21 -95 117 -95 80 0 127
19 128 53 0 11 -68 9 -75 -3 -7 -11 -64 -14 -89 -4 -9 3 -16 12 -16 20 0 11
20 14 90 14 l90 0 0 35 c0 59 -26 75 -119 75 -63 0 -84 -4 -102 -19z m149 -38
c3 -9 -12 -13 -52 -13 -52 0 -66 7 -49 24 12 11 96 2 101 -11z"/>
<path d="M5116 316 c-37 -36 -37 -106 0 -142 24 -25 30 -26 115 -22 107 4 119
13 119 93 0 80 -12 89 -119 93 -85 4 -91 3 -115 -22z m159 -71 c0 -38 -2 -40
-34 -43 -61 -6 -81 4 -81 42 0 18 3 36 7 40 4 4 30 6 58 4 l50 -3 0 -40z"/>
<path d="M5380 210 l0 -130 35 0 c35 0 35 0 35 45 0 42 2 45 19 35 11 -5 43
-10 71 -10 69 0 100 29 100 95 0 68 -30 95 -106 95 -39 0 -63 -5 -76 -17 -17
-15 -18 -15 -18 0 0 12 -9 17 -30 17 l-30 0 0 -130z m188 38 c3 -32 0 -38 -21
-43 -13 -4 -39 -5 -58 -3 -29 3 -34 7 -37 31 -6 51 3 58 60 55 l53 -3 3 -37z"/>
<path d="M5900 245 l0 -95 30 0 30 0 0 95 0 95 -30 0 -30 0 0 -95z"/>
<path d="M6000 245 l0 -95 30 0 c29 0 30 2 30 44 0 72 13 96 54 96 44 0 56
-20 56 -89 0 -50 1 -51 30 -51 30 0 30 0 30 59 0 68 13 84 62 79 l33 -3 5 -65
c5 -65 5 -65 38 -68 l32 -3 0 71 c0 62 -3 74 -25 95 -28 29 -97 34 -131 10
-19 -12 -24 -12 -40 0 -25 19 -94 19 -122 -1 -20 -14 -22 -14 -22 0 0 11 -10
16 -30 16 l-30 0 0 -95z"/>
<path d="M6430 244 l0 -95 33 3 32 3 3 93 3 92 -36 0 -35 0 0 -96z"/>
<path d="M6530 316 c0 -23 4 -25 52 -28 l52 -3 -58 -43 c-43 -33 -56 -49 -54
-65 3 -21 9 -22 111 -25 l107 -3 0 25 c0 23 -4 25 -56 28 l-57 3 57 39 c46 32
56 43 56 67 l0 29 -105 0 c-105 0 -105 0 -105 -24z"/>
<path d="M6805 328 c-21 -12 -35 -28 -35 -40 0 -12 68 -10 75 2 9 14 78 13 93
-2 21 -21 13 -24 -53 -20 -83 5 -115 -12 -115 -63 0 -24 6 -37 19 -45 30 -15
113 -12 139 6 20 14 22 14 22 0 0 -11 10 -16 30 -16 l30 0 0 79 c0 104 -7 111
-108 111 -42 0 -86 -6 -97 -12z m133 -115 c-2 -13 -15 -19 -47 -21 -24 -2 -48
1 -53 6 -19 19 3 32 53 32 43 0 50 -3 47 -17z"/>
<path d="M7280 245 l0 -95 30 0 30 0 0 95 0 95 -30 0 -30 0 0 -95z"/>
<path d="M7405 329 c-29 -18 -35 -29 -35 -74 0 -89 20 -105 131 -105 68 0 106
11 121 34 13 19 9 111 -6 132 -12 16 -29 19 -103 22 -55 1 -96 -2 -108 -9z
m150 -84 l0 -40 -55 0 c-53 0 -55 1 -58 28 -6 51 3 58 60 55 l53 -3 0 -40z"/>
<path d="M7660 245 l0 -95 30 0 c29 0 30 2 30 44 0 25 4 56 10 71 9 24 14 26
57 23 l48 -3 3 -68 3 -68 32 3 32 3 -1 74 c0 65 -3 76 -23 92 -29 24 -107 25
-139 3 -20 -14 -22 -14 -22 0 0 11 -10 16 -30 16 l-30 0 0 -95z"/>
</g>
</svg>
